%!PS-Adobe-3.0 EPSF-3.0
%%Creator: MATLAB, The Mathworks, Inc. Version 7.7.0.471 (R2008b). Operating System: Linux 2.6.26-1-686 #1 SMP Fri Mar 13 18:08:45 UTC 2009 i686.
%%Title: /home/salvix/Dev/UniPD/ens/hw1/matlab/es3.eps
%%CreationDate: 10/23/2009  02:22:27
%%DocumentNeededFonts: Helvetica
%%DocumentProcessColors: Cyan Magenta Yellow Black
%%LanguageLevel: 2
%%Pages: 1
%%BoundingBox:  -214   132   810   709
%%EndComments

%%BeginProlog
% MathWorks dictionary
/MathWorks 160 dict begin
% definition operators
/bdef {bind def} bind def
/ldef {load def} bind def
/xdef {exch def} bdef
/xstore {exch store} bdef
% operator abbreviations
/c  /clip ldef
/cc /concat ldef
/cp /closepath ldef
/gr /grestore ldef
/gs /gsave ldef
/mt /moveto ldef
/np /newpath ldef
/cm /currentmatrix ldef
/sm /setmatrix ldef
/rm /rmoveto ldef
/rl /rlineto ldef
/s {show newpath} bdef
/sc {setcmykcolor} bdef
/sr /setrgbcolor ldef
/sg /setgray ldef
/w /setlinewidth ldef
/j /setlinejoin ldef
/cap /setlinecap ldef
/rc {rectclip} bdef
/rf {rectfill} bdef
% page state control
/pgsv () def
/bpage {/pgsv save def} bdef
/epage {pgsv restore} bdef
/bplot /gsave ldef
/eplot {stroke grestore} bdef
% orientation switch
/portraitMode 0 def /landscapeMode 1 def /rotateMode 2 def
% coordinate system mappings
/dpi2point 0 def
% font control
/FontSize 0 def
/FMS {/FontSize xstore findfont [FontSize 0 0 FontSize neg 0 0]
  makefont setfont} bdef
/reencode {exch dup where {pop load} {pop StandardEncoding} ifelse
  exch dup 3 1 roll findfont dup length dict begin
  { 1 index /FID ne {def}{pop pop} ifelse } forall
  /Encoding exch def currentdict end definefont pop} bdef
/isroman {findfont /CharStrings get /Agrave known} bdef
/FMSR {3 1 roll 1 index dup isroman {reencode} {pop pop} ifelse
  exch FMS} bdef
/csm {1 dpi2point div -1 dpi2point div scale neg translate
 dup landscapeMode eq {pop -90 rotate}
  {rotateMode eq {90 rotate} if} ifelse} bdef
% line types: solid, dotted, dashed, dotdash
/SO { [] 0 setdash } bdef
/DO { [.5 dpi2point mul 4 dpi2point mul] 0 setdash } bdef
/DA { [6 dpi2point mul] 0 setdash } bdef
/DD { [.5 dpi2point mul 4 dpi2point mul 6 dpi2point mul 4
  dpi2point mul] 0 setdash } bdef
% macros for lines and objects
/L {lineto stroke} bdef
/MP {3 1 roll moveto 1 sub {rlineto} repeat} bdef
/AP {{rlineto} repeat} bdef
/PDlw -1 def
/W {/PDlw currentlinewidth def setlinewidth} def
/PP {closepath eofill} bdef
/DP {closepath stroke} bdef
/MR {4 -2 roll moveto dup  0 exch rlineto exch 0 rlineto
  neg 0 exch rlineto closepath} bdef
/FR {MR stroke} bdef
/PR {MR fill} bdef
/L1i {{currentfile picstr readhexstring pop} image} bdef
/tMatrix matrix def
/MakeOval {newpath tMatrix currentmatrix pop translate scale
0 0 1 0 360 arc tMatrix setmatrix} bdef
/FO {MakeOval stroke} bdef
/PO {MakeOval fill} bdef
/PD {currentlinewidth 2 div 0 360 arc fill
   PDlw -1 eq not {PDlw w /PDlw -1 def} if} def
/FA {newpath tMatrix currentmatrix pop translate scale
  0 0 1 5 -2 roll arc tMatrix setmatrix stroke} bdef
/PA {newpath tMatrix currentmatrix pop	translate 0 0 moveto scale
  0 0 1 5 -2 roll arc closepath tMatrix setmatrix fill} bdef
/FAn {newpath tMatrix currentmatrix pop translate scale
  0 0 1 5 -2 roll arcn tMatrix setmatrix stroke} bdef
/PAn {newpath tMatrix currentmatrix pop translate 0 0 moveto scale
  0 0 1 5 -2 roll arcn closepath tMatrix setmatrix fill} bdef
/vradius 0 def /hradius 0 def /lry 0 def
/lrx 0 def /uly 0 def /ulx 0 def /rad 0 def
/MRR {/vradius xdef /hradius xdef /lry xdef /lrx xdef /uly xdef
  /ulx xdef newpath tMatrix currentmatrix pop ulx hradius add uly
  vradius add translate hradius vradius scale 0 0 1 180 270 arc 
  tMatrix setmatrix lrx hradius sub uly vradius add translate
  hradius vradius scale 0 0 1 270 360 arc tMatrix setmatrix
  lrx hradius sub lry vradius sub translate hradius vradius scale
  0 0 1 0 90 arc tMatrix setmatrix ulx hradius add lry vradius sub
  translate hradius vradius scale 0 0 1 90 180 arc tMatrix setmatrix
  closepath} bdef
/FRR {MRR stroke } bdef
/PRR {MRR fill } bdef
/MlrRR {/lry xdef /lrx xdef /uly xdef /ulx xdef /rad lry uly sub 2 div def
  newpath tMatrix currentmatrix pop ulx rad add uly rad add translate
  rad rad scale 0 0 1 90 270 arc tMatrix setmatrix lrx rad sub lry rad
  sub translate rad rad scale 0 0 1 270 90 arc tMatrix setmatrix
  closepath} bdef
/FlrRR {MlrRR stroke } bdef
/PlrRR {MlrRR fill } bdef
/MtbRR {/lry xdef /lrx xdef /uly xdef /ulx xdef /rad lrx ulx sub 2 div def
  newpath tMatrix currentmatrix pop ulx rad add uly rad add translate
  rad rad scale 0 0 1 180 360 arc tMatrix setmatrix lrx rad sub lry rad
  sub translate rad rad scale 0 0 1 0 180 arc tMatrix setmatrix
  closepath} bdef
/FtbRR {MtbRR stroke } bdef
/PtbRR {MtbRR fill } bdef
/stri 6 array def /dtri 6 array def
/smat 6 array def /dmat 6 array def
/tmat1 6 array def /tmat2 6 array def /dif 3 array def
/asub {/ind2 exch def /ind1 exch def dup dup
  ind1 get exch ind2 get sub exch } bdef
/tri_to_matrix {
  2 0 asub 3 1 asub 4 0 asub 5 1 asub
  dup 0 get exch 1 get 7 -1 roll astore } bdef
/compute_transform {
  dmat dtri tri_to_matrix tmat1 invertmatrix 
  smat stri tri_to_matrix tmat2 concatmatrix } bdef
/ds {stri astore pop} bdef
/dt {dtri astore pop} bdef
/db {2 copy /cols xdef /rows xdef mul dup 3 mul string
  currentfile 
  3 index 0 eq {/ASCIIHexDecode filter}
  {/ASCII85Decode filter 3 index 2 eq {/RunLengthDecode filter} if }
  ifelse exch readstring pop
  dup 0 3 index getinterval /rbmap xdef
  dup 2 index dup getinterval /gbmap xdef
  1 index dup 2 mul exch getinterval /bbmap xdef pop pop}bdef
/it {gs np dtri aload pop moveto lineto lineto cp c
  cols rows 8 compute_transform 
  rbmap gbmap bbmap true 3 colorimage gr}bdef
/il {newpath moveto lineto stroke}bdef
currentdict end def
%%EndProlog

%%BeginSetup
MathWorks begin

0 cap

end
%%EndSetup

%%Page: 1 1
%%BeginPageSetup
%%PageBoundingBox:  -214   132   810   709
MathWorks begin
bpage
%%EndPageSetup

%%BeginObject: obj1
bplot

/dpi2point 12 def
portraitMode -2568 8508 csm

    0     0 12289  6914 rc
85 dict begin %Colortable dictionary
/c0 { 0.000000 0.000000 0.000000 sr} bdef
/c1 { 1.000000 1.000000 1.000000 sr} bdef
/c2 { 0.900000 0.000000 0.000000 sr} bdef
/c3 { 0.000000 0.820000 0.000000 sr} bdef
/c4 { 0.000000 0.000000 0.800000 sr} bdef
/c5 { 0.910000 0.820000 0.320000 sr} bdef
/c6 { 1.000000 0.260000 0.820000 sr} bdef
/c7 { 0.000000 0.820000 0.820000 sr} bdef
c0
1 j
1 sg
   0    0 12290 6915 rf
6 w
0 5634 9524 0 0 -5634 1598 6153 4 MP
PP
-9524 0 0 5634 9524 0 0 -5634 1598 6153 5 MP stroke
4 w
DO
SO
6 w
0 sg
1598 6153 mt 11122 6153 L
1598  519 mt 11122  519 L
1598 6153 mt 1598  519 L
11122 6153 mt 11122  519 L
1598 6153 mt 11122 6153 L
1598 6153 mt 1598  519 L
1598 6153 mt 1598 6057 L
1598  519 mt 1598  614 L
%%IncludeResource: font Helvetica
/Helvetica /ISOLatin1Encoding 120 FMSR

1565 6298 mt 
(0) s
2550 6153 mt 2550 6057 L
2550  519 mt 2550  614 L
2517 6298 mt 
(2) s
3502 6153 mt 3502 6057 L
3502  519 mt 3502  614 L
3469 6298 mt 
(4) s
4455 6153 mt 4455 6057 L
4455  519 mt 4455  614 L
4422 6298 mt 
(6) s
5407 6153 mt 5407 6057 L
5407  519 mt 5407  614 L
5374 6298 mt 
(8) s
6360 6153 mt 6360 6057 L
6360  519 mt 6360  614 L
6294 6298 mt 
(10) s
7312 6153 mt 7312 6057 L
7312  519 mt 7312  614 L
7246 6298 mt 
(12) s
8264 6153 mt 8264 6057 L
8264  519 mt 8264  614 L
8198 6298 mt 
(14) s
9217 6153 mt 9217 6057 L
9217  519 mt 9217  614 L
9151 6298 mt 
(16) s
10169 6153 mt 10169 6057 L
10169  519 mt 10169  614 L
10103 6298 mt 
(18) s
11122 6153 mt 11122 6057 L
11122  519 mt 11122  614 L
11056 6298 mt 
(20) s
1598 6153 mt 1693 6153 L
11122 6153 mt 11026 6153 L
1497 6197 mt 
(0) s
1598 5026 mt 1693 5026 L
11122 5026 mt 11026 5026 L
1397 5070 mt 
(0.5) s
1598 3899 mt 1693 3899 L
11122 3899 mt 11026 3899 L
1497 3943 mt 
(1) s
1598 2772 mt 1693 2772 L
11122 2772 mt 11026 2772 L
1397 2816 mt 
(1.5) s
1598 1645 mt 1693 1645 L
11122 1645 mt 11026 1645 L
1497 1689 mt 
(2) s
1598  519 mt 1693  519 L
11122  519 mt 11026  519 L
1397  563 mt 
(2.5) s
1598 6153 mt 11122 6153 L
1598  519 mt 11122  519 L
1598 6153 mt 1598  519 L
11122 6153 mt 11122  519 L
gs 1598 519 9525 5635 rc
gr

/c8 { 0.000000 0.000000 1.000000 sr} bdef
c8
  36   36 1598 3899 FO
  36   36 2074  969 FO
  36   36 2550 4507 FO
  36   36 3026 5452 FO
  36   36 3502 5876 FO
  36   36 3979 6042 FO
  36   36 4455 6108 FO
  36   36 4931 6135 FO
  36   36 5407 6145 FO
  36   36 5883 6150 FO
  36   36 6360 6151 FO
  36   36 6836 6152 FO
  36   36 7312 6152 FO
  36   36 7788 6152 FO
  36   36 8264 6152 FO
  36   36 8741 6152 FO
  36   36 9217 6152 FO
  36   36 9693 6152 FO
  36   36 10169 6152 FO
  36   36 10645 6152 FO
  36   36 11122 6152 FO
gs 1598 519 9525 5635 rc
0 -2254 1598 6153 2 MP stroke
0 -5184 2074 6153 2 MP stroke
0 -1646 2550 6153 2 MP stroke
0 -701 3026 6153 2 MP stroke
0 -277 3502 6153 2 MP stroke
0 -111 3979 6153 2 MP stroke
0 -45 4455 6153 2 MP stroke
0 -18 4931 6153 2 MP stroke
0 -8 5407 6153 2 MP stroke
0 -3 5883 6153 2 MP stroke
0 -2 6360 6153 2 MP stroke
0 -1 6836 6153 2 MP stroke
0 -1 7312 6153 2 MP stroke
0 -1 7788 6153 2 MP stroke
0 -1 8264 6153 2 MP stroke
0 -1 8741 6153 2 MP stroke
0 -1 9217 6153 2 MP stroke
0 -1 9693 6153 2 MP stroke
0 -1 10169 6153 2 MP stroke
0 -1 10645 6153 2 MP stroke
0 -1 11122 6153 2 MP stroke
0 sg
9524 0 1598 6153 2 MP stroke
gr

0 sg
6326 6441 mt 
(n) s
1315 3444 mt  -90 rotate
(h\(n\)) s
90 rotate
5643  424 mt 
(Risp. implusiva del sistema) s
1581 6196 mt 
( ) s
11106  561 mt 
( ) s
1 sg
0 188 719 0 0 -188 10344 767 4 MP
PP
-719 0 0 188 719 0 0 -188 10344 767 5 MP stroke
4 w
DO
SO
6 w
0 sg
10344  767 mt 11063  767 L
10344  579 mt 11063  579 L
10344  767 mt 10344  579 L
11063  767 mt 11063  579 L
10344  767 mt 11063  767 L
10344  767 mt 10344  579 L
10344  767 mt 11063  767 L
10344  579 mt 11063  579 L
10344  767 mt 10344  579 L
11063  767 mt 11063  579 L
10803  716 mt 
(h\(n\)) s
gs 10344 579 720 189 rc
c8
247 0 10414 673 2 MP stroke
10661 673 PD
gs 10588 600 147 147 rc
  36   36 10661  673 FO
gr

gr

c8

end %%Color Dict

eplot
%%EndObject

epage
end

showpage

%%Trailer
%%EOF
