%!PS-Adobe-3.0 EPSF-3.0
%%Creator: MATLAB, The Mathworks, Inc. Version 7.7.0.471 (R2008b). Operating System: Linux 2.6.26-1-686 #1 SMP Fri Mar 13 18:08:45 UTC 2009 i686.
%%Title: /home/salvix/Dev/UniPD/ens/hw1/matlab/es_1_b.eps
%%CreationDate: 10/23/2009  02:29:34
%%DocumentNeededFonts: Helvetica
%%DocumentProcessColors: Cyan Magenta Yellow Black
%%LanguageLevel: 2
%%Pages: 1
%%BoundingBox:    73   252   521   589
%%EndComments

%%BeginProlog
% MathWorks dictionary
/MathWorks 160 dict begin
% definition operators
/bdef {bind def} bind def
/ldef {load def} bind def
/xdef {exch def} bdef
/xstore {exch store} bdef
% operator abbreviations
/c  /clip ldef
/cc /concat ldef
/cp /closepath ldef
/gr /grestore ldef
/gs /gsave ldef
/mt /moveto ldef
/np /newpath ldef
/cm /currentmatrix ldef
/sm /setmatrix ldef
/rm /rmoveto ldef
/rl /rlineto ldef
/s {show newpath} bdef
/sc {setcmykcolor} bdef
/sr /setrgbcolor ldef
/sg /setgray ldef
/w /setlinewidth ldef
/j /setlinejoin ldef
/cap /setlinecap ldef
/rc {rectclip} bdef
/rf {rectfill} bdef
% page state control
/pgsv () def
/bpage {/pgsv save def} bdef
/epage {pgsv restore} bdef
/bplot /gsave ldef
/eplot {stroke grestore} bdef
% orientation switch
/portraitMode 0 def /landscapeMode 1 def /rotateMode 2 def
% coordinate system mappings
/dpi2point 0 def
% font control
/FontSize 0 def
/FMS {/FontSize xstore findfont [FontSize 0 0 FontSize neg 0 0]
  makefont setfont} bdef
/reencode {exch dup where {pop load} {pop StandardEncoding} ifelse
  exch dup 3 1 roll findfont dup length dict begin
  { 1 index /FID ne {def}{pop pop} ifelse } forall
  /Encoding exch def currentdict end definefont pop} bdef
/isroman {findfont /CharStrings get /Agrave known} bdef
/FMSR {3 1 roll 1 index dup isroman {reencode} {pop pop} ifelse
  exch FMS} bdef
/csm {1 dpi2point div -1 dpi2point div scale neg translate
 dup landscapeMode eq {pop -90 rotate}
  {rotateMode eq {90 rotate} if} ifelse} bdef
% line types: solid, dotted, dashed, dotdash
/SO { [] 0 setdash } bdef
/DO { [.5 dpi2point mul 4 dpi2point mul] 0 setdash } bdef
/DA { [6 dpi2point mul] 0 setdash } bdef
/DD { [.5 dpi2point mul 4 dpi2point mul 6 dpi2point mul 4
  dpi2point mul] 0 setdash } bdef
% macros for lines and objects
/L {lineto stroke} bdef
/MP {3 1 roll moveto 1 sub {rlineto} repeat} bdef
/AP {{rlineto} repeat} bdef
/PDlw -1 def
/W {/PDlw currentlinewidth def setlinewidth} def
/PP {closepath eofill} bdef
/DP {closepath stroke} bdef
/MR {4 -2 roll moveto dup  0 exch rlineto exch 0 rlineto
  neg 0 exch rlineto closepath} bdef
/FR {MR stroke} bdef
/PR {MR fill} bdef
/L1i {{currentfile picstr readhexstring pop} image} bdef
/tMatrix matrix def
/MakeOval {newpath tMatrix currentmatrix pop translate scale
0 0 1 0 360 arc tMatrix setmatrix} bdef
/FO {MakeOval stroke} bdef
/PO {MakeOval fill} bdef
/PD {currentlinewidth 2 div 0 360 arc fill
   PDlw -1 eq not {PDlw w /PDlw -1 def} if} def
/FA {newpath tMatrix currentmatrix pop translate scale
  0 0 1 5 -2 roll arc tMatrix setmatrix stroke} bdef
/PA {newpath tMatrix currentmatrix pop	translate 0 0 moveto scale
  0 0 1 5 -2 roll arc closepath tMatrix setmatrix fill} bdef
/FAn {newpath tMatrix currentmatrix pop translate scale
  0 0 1 5 -2 roll arcn tMatrix setmatrix stroke} bdef
/PAn {newpath tMatrix currentmatrix pop translate 0 0 moveto scale
  0 0 1 5 -2 roll arcn closepath tMatrix setmatrix fill} bdef
/vradius 0 def /hradius 0 def /lry 0 def
/lrx 0 def /uly 0 def /ulx 0 def /rad 0 def
/MRR {/vradius xdef /hradius xdef /lry xdef /lrx xdef /uly xdef
  /ulx xdef newpath tMatrix currentmatrix pop ulx hradius add uly
  vradius add translate hradius vradius scale 0 0 1 180 270 arc 
  tMatrix setmatrix lrx hradius sub uly vradius add translate
  hradius vradius scale 0 0 1 270 360 arc tMatrix setmatrix
  lrx hradius sub lry vradius sub translate hradius vradius scale
  0 0 1 0 90 arc tMatrix setmatrix ulx hradius add lry vradius sub
  translate hradius vradius scale 0 0 1 90 180 arc tMatrix setmatrix
  closepath} bdef
/FRR {MRR stroke } bdef
/PRR {MRR fill } bdef
/MlrRR {/lry xdef /lrx xdef /uly xdef /ulx xdef /rad lry uly sub 2 div def
  newpath tMatrix currentmatrix pop ulx rad add uly rad add translate
  rad rad scale 0 0 1 90 270 arc tMatrix setmatrix lrx rad sub lry rad
  sub translate rad rad scale 0 0 1 270 90 arc tMatrix setmatrix
  closepath} bdef
/FlrRR {MlrRR stroke } bdef
/PlrRR {MlrRR fill } bdef
/MtbRR {/lry xdef /lrx xdef /uly xdef /ulx xdef /rad lrx ulx sub 2 div def
  newpath tMatrix currentmatrix pop ulx rad add uly rad add translate
  rad rad scale 0 0 1 180 360 arc tMatrix setmatrix lrx rad sub lry rad
  sub translate rad rad scale 0 0 1 0 180 arc tMatrix setmatrix
  closepath} bdef
/FtbRR {MtbRR stroke } bdef
/PtbRR {MtbRR fill } bdef
/stri 6 array def /dtri 6 array def
/smat 6 array def /dmat 6 array def
/tmat1 6 array def /tmat2 6 array def /dif 3 array def
/asub {/ind2 exch def /ind1 exch def dup dup
  ind1 get exch ind2 get sub exch } bdef
/tri_to_matrix {
  2 0 asub 3 1 asub 4 0 asub 5 1 asub
  dup 0 get exch 1 get 7 -1 roll astore } bdef
/compute_transform {
  dmat dtri tri_to_matrix tmat1 invertmatrix 
  smat stri tri_to_matrix tmat2 concatmatrix } bdef
/ds {stri astore pop} bdef
/dt {dtri astore pop} bdef
/db {2 copy /cols xdef /rows xdef mul dup 3 mul string
  currentfile 
  3 index 0 eq {/ASCIIHexDecode filter}
  {/ASCII85Decode filter 3 index 2 eq {/RunLengthDecode filter} if }
  ifelse exch readstring pop
  dup 0 3 index getinterval /rbmap xdef
  dup 2 index dup getinterval /gbmap xdef
  1 index dup 2 mul exch getinterval /bbmap xdef pop pop}bdef
/it {gs np dtri aload pop moveto lineto lineto cp c
  cols rows 8 compute_transform 
  rbmap gbmap bbmap true 3 colorimage gr}bdef
/il {newpath moveto lineto stroke}bdef
currentdict end def
%%EndProlog

%%BeginSetup
MathWorks begin

0 cap

end
%%EndSetup

%%Page: 1 1
%%BeginPageSetup
%%PageBoundingBox:    73   252   521   589
MathWorks begin
bpage
%%EndPageSetup

%%BeginObject: obj1
bplot

/dpi2point 12 def
portraitMode 0876 7068 csm

    0     0  5376  4034 rc
85 dict begin %Colortable dictionary
/c0 { 0.000000 0.000000 0.000000 sr} bdef
/c1 { 1.000000 1.000000 1.000000 sr} bdef
/c2 { 0.900000 0.000000 0.000000 sr} bdef
/c3 { 0.000000 0.820000 0.000000 sr} bdef
/c4 { 0.000000 0.000000 0.800000 sr} bdef
/c5 { 0.910000 0.820000 0.320000 sr} bdef
/c6 { 1.000000 0.260000 0.820000 sr} bdef
/c7 { 0.000000 0.820000 0.820000 sr} bdef
c0
1 j
1 sg
   0    0 5377 4035 rf
6 w
0 3287 1752 0 0 -3287 746 3590 4 MP
PP
-1752 0 0 3287 1752 0 0 -3287 746 3590 5 MP stroke
4 w
DO
SO
6 w
0 sg
 746 3590 mt 2498 3590 L
 746  303 mt 2498  303 L
 746 3590 mt  746  303 L
2498 3590 mt 2498  303 L
 746 3590 mt 2498 3590 L
 746 3590 mt  746  303 L
 746 3590 mt  746 3557 L
 746  303 mt  746  335 L
%%IncludeResource: font Helvetica
/Helvetica /ISOLatin1Encoding 120 FMSR

 713 3735 mt 
(0) s
1330 3590 mt 1330 3557 L
1330  303 mt 1330  335 L
1264 3735 mt 
(20) s
1914 3590 mt 1914 3557 L
1914  303 mt 1914  335 L
1848 3735 mt 
(40) s
2498 3590 mt 2498 3557 L
2498  303 mt 2498  335 L
2432 3735 mt 
(60) s
 746 3590 mt  778 3590 L
2498 3590 mt 2465 3590 L
 575 3634 mt 
(-1) s
 746 3261 mt  778 3261 L
2498 3261 mt 2465 3261 L
 475 3305 mt 
(-0.8) s
 746 2932 mt  778 2932 L
2498 2932 mt 2465 2932 L
 475 2976 mt 
(-0.6) s
 746 2603 mt  778 2603 L
2498 2603 mt 2465 2603 L
 475 2647 mt 
(-0.4) s
 746 2275 mt  778 2275 L
2498 2275 mt 2465 2275 L
 475 2319 mt 
(-0.2) s
 746 1946 mt  778 1946 L
2498 1946 mt 2465 1946 L
 645 1990 mt 
(0) s
 746 1617 mt  778 1617 L
2498 1617 mt 2465 1617 L
 545 1661 mt 
(0.2) s
 746 1289 mt  778 1289 L
2498 1289 mt 2465 1289 L
 545 1333 mt 
(0.4) s
 746  960 mt  778  960 L
2498  960 mt 2465  960 L
 545 1004 mt 
(0.6) s
 746  631 mt  778  631 L
2498  631 mt 2465  631 L
 545  675 mt 
(0.8) s
 746  303 mt  778  303 L
2498  303 mt 2465  303 L
 645  347 mt 
(1) s
 746 3590 mt 2498 3590 L
 746  303 mt 2498  303 L
 746 3590 mt  746  303 L
2498 3590 mt 2498  303 L
gs 746 303 1753 3288 rc
gr

gs 673 310 1607 3273 rc
/c8 { 0.000000 0.000000 1.000000 sr} bdef
c8
  36   36  746 1946 FO
  36   36  775 2912 FO
  36   36  804  383 FO
  36   36  833 3509 FO
  36   36  862  980 FO
  36   36  892 1946 FO
  36   36  921 2912 FO
  36   36  950  383 FO
  36   36  979 3509 FO
  36   36 1008  980 FO
  36   36 1038 1946 FO
  36   36 1067 2912 FO
  36   36 1096  383 FO
  36   36 1125 3509 FO
  36   36 1154  980 FO
  36   36 1184 1946 FO
  36   36 1213 2912 FO
  36   36 1242  383 FO
  36   36 1271 3509 FO
  36   36 1300  980 FO
  36   36 1330 1946 FO
  36   36 1359 2912 FO
  36   36 1388  383 FO
  36   36 1417 3509 FO
  36   36 1446  980 FO
  36   36 1476 1946 FO
  36   36 1505 2912 FO
  36   36 1534  383 FO
  36   36 1563 3509 FO
  36   36 1592  980 FO
  36   36 1622 1946 FO
  36   36 1651 2912 FO
  36   36 1680  383 FO
  36   36 1709 3509 FO
  36   36 1738  980 FO
  36   36 1768 1946 FO
  36   36 1797 2912 FO
  36   36 1826  383 FO
  36   36 1855 3509 FO
  36   36 1884  980 FO
  36   36 1914 1946 FO
  36   36 1943 2912 FO
  36   36 1972  383 FO
  36   36 2001 3509 FO
  36   36 2030  980 FO
  36   36 2060 1946 FO
  36   36 2089 2912 FO
  36   36 2118  383 FO
  36   36 2147 3509 FO
  36   36 2176  980 FO
  36   36 2206 1946 FO
gr

c8
gs 746 303 1753 3288 rc
746 1946 PD
0 966 775 1946 2 MP stroke
0 -1563 804 1946 2 MP stroke
0 1563 833 1946 2 MP stroke
0 -966 862 1946 2 MP stroke
892 1946 PD
0 966 921 1946 2 MP stroke
0 -1563 950 1946 2 MP stroke
0 1563 979 1946 2 MP stroke
0 -966 1008 1946 2 MP stroke
1038 1946 PD
0 966 1067 1946 2 MP stroke
0 -1563 1096 1946 2 MP stroke
0 1563 1125 1946 2 MP stroke
0 -966 1154 1946 2 MP stroke
1184 1946 PD
0 966 1213 1946 2 MP stroke
0 -1563 1242 1946 2 MP stroke
0 1563 1271 1946 2 MP stroke
0 -966 1300 1946 2 MP stroke
1330 1946 PD
0 966 1359 1946 2 MP stroke
0 -1563 1388 1946 2 MP stroke
0 1563 1417 1946 2 MP stroke
0 -966 1446 1946 2 MP stroke
1476 1946 PD
0 966 1505 1946 2 MP stroke
0 -1563 1534 1946 2 MP stroke
0 1563 1563 1946 2 MP stroke
0 -966 1592 1946 2 MP stroke
1622 1946 PD
0 966 1651 1946 2 MP stroke
0 -1563 1680 1946 2 MP stroke
0 1563 1709 1946 2 MP stroke
0 -966 1738 1946 2 MP stroke
1768 1946 PD
0 966 1797 1946 2 MP stroke
0 -1563 1826 1946 2 MP stroke
0 1563 1855 1946 2 MP stroke
0 -966 1884 1946 2 MP stroke
1914 1946 PD
0 966 1943 1946 2 MP stroke
0 -1563 1972 1946 2 MP stroke
0 1563 2001 1946 2 MP stroke
0 -966 2030 1946 2 MP stroke
2060 1946 PD
0 966 2089 1946 2 MP stroke
0 -1563 2118 1946 2 MP stroke
0 1563 2147 1946 2 MP stroke
0 -966 2176 1946 2 MP stroke
2206 1946 PD
0 sg
1752 0 746 1946 2 MP stroke
gr

0 sg
1588 3878 mt 
(n) s
 339 2076 mt  -90 rotate
(x) s
90 rotate
%%IncludeResource: font Helvetica
/Helvetica /ISOLatin1Encoding 96 FMSR

 399 2016 mt  -90 rotate
(1) s
90 rotate
%%IncludeResource: font Helvetica
/Helvetica /ISOLatin1Encoding 120 FMSR

 339 1963 mt  -90 rotate
(\(n\)) s
90 rotate
1076  154 mt 
(f) s
%%IncludeResource: font Helvetica
/Helvetica /ISOLatin1Encoding 96 FMSR

1109  214 mt 
(1) s
%%IncludeResource: font Helvetica
/Helvetica /ISOLatin1Encoding 120 FMSR

1162  154 mt 
(=6 kHz, F) s
%%IncludeResource: font Helvetica
/Helvetica /ISOLatin1Encoding 96 FMSR

1678  214 mt 
(c) s
%%IncludeResource: font Helvetica
/Helvetica /ISOLatin1Encoding 120 FMSR

1726  154 mt 
(=10 kHz) s
1 sg
0 3287 1751 0 0 -3287 3114 3590 4 MP
PP
-1751 0 0 3287 1751 0 0 -3287 3114 3590 5 MP stroke
4 w
DO
SO
6 w
0 sg
3114 3590 mt 4865 3590 L
3114  303 mt 4865  303 L
3114 3590 mt 3114  303 L
4865 3590 mt 4865  303 L
3114 3590 mt 4865 3590 L
3114 3590 mt 3114  303 L
3114 3590 mt 3114 3557 L
3114  303 mt 3114  335 L
3081 3735 mt 
(0) s
3697 3590 mt 3697 3557 L
3697  303 mt 3697  335 L
3631 3735 mt 
(20) s
4281 3590 mt 4281 3557 L
4281  303 mt 4281  335 L
4215 3735 mt 
(40) s
4865 3590 mt 4865 3557 L
4865  303 mt 4865  335 L
4799 3735 mt 
(60) s
3114 3590 mt 3146 3590 L
4865 3590 mt 4832 3590 L
2943 3634 mt 
(-1) s
3114 3261 mt 3146 3261 L
4865 3261 mt 4832 3261 L
2843 3305 mt 
(-0.8) s
3114 2932 mt 3146 2932 L
4865 2932 mt 4832 2932 L
2843 2976 mt 
(-0.6) s
3114 2603 mt 3146 2603 L
4865 2603 mt 4832 2603 L
2843 2647 mt 
(-0.4) s
3114 2275 mt 3146 2275 L
4865 2275 mt 4832 2275 L
2843 2319 mt 
(-0.2) s
3114 1946 mt 3146 1946 L
4865 1946 mt 4832 1946 L
3013 1990 mt 
(0) s
3114 1617 mt 3146 1617 L
4865 1617 mt 4832 1617 L
2913 1661 mt 
(0.2) s
3114 1289 mt 3146 1289 L
4865 1289 mt 4832 1289 L
2913 1333 mt 
(0.4) s
3114  960 mt 3146  960 L
4865  960 mt 4832  960 L
2913 1004 mt 
(0.6) s
3114  631 mt 3146  631 L
4865  631 mt 4832  631 L
2913  675 mt 
(0.8) s
3114  303 mt 3146  303 L
4865  303 mt 4832  303 L
3013  347 mt 
(1) s
3114 3590 mt 4865 3590 L
3114  303 mt 4865  303 L
3114 3590 mt 3114  303 L
4865 3590 mt 4865  303 L
gs 3114 303 1752 3288 rc
gr

gs 3041 310 1606 3273 rc
c8
  36   36 3114 1946 FO
  36   36 3143  980 FO
  36   36 3172 3509 FO
  36   36 3201  383 FO
  36   36 3230 2912 FO
  36   36 3259 1946 FO
  36   36 3289  980 FO
  36   36 3318 3509 FO
  36   36 3347  383 FO
  36   36 3376 2912 FO
  36   36 3405 1946 FO
  36   36 3435  980 FO
  36   36 3464 3509 FO
  36   36 3493  383 FO
  36   36 3522 2912 FO
  36   36 3551 1946 FO
  36   36 3580  980 FO
  36   36 3610 3509 FO
  36   36 3639  383 FO
  36   36 3668 2912 FO
  36   36 3697 1946 FO
  36   36 3726  980 FO
  36   36 3756 3509 FO
  36   36 3785  383 FO
  36   36 3814 2912 FO
  36   36 3843 1946 FO
  36   36 3872  980 FO
  36   36 3901 3509 FO
  36   36 3931  383 FO
  36   36 3960 2912 FO
  36   36 3989 1946 FO
  36   36 4018  980 FO
  36   36 4047 3509 FO
  36   36 4077  383 FO
  36   36 4106 2912 FO
  36   36 4135 1946 FO
  36   36 4164  980 FO
  36   36 4193 3509 FO
  36   36 4222  383 FO
  36   36 4252 2912 FO
  36   36 4281 1946 FO
  36   36 4310  980 FO
  36   36 4339 3509 FO
  36   36 4368  383 FO
  36   36 4398 2912 FO
  36   36 4427 1946 FO
  36   36 4456  980 FO
  36   36 4485 3509 FO
  36   36 4514  383 FO
  36   36 4543 2912 FO
  36   36 4573 1946 FO
gr

c8
gs 3114 303 1752 3288 rc
3114 1946 PD
0 -966 3143 1946 2 MP stroke
0 1563 3172 1946 2 MP stroke
0 -1563 3201 1946 2 MP stroke
0 966 3230 1946 2 MP stroke
3259 1946 PD
0 -966 3289 1946 2 MP stroke
0 1563 3318 1946 2 MP stroke
0 -1563 3347 1946 2 MP stroke
0 966 3376 1946 2 MP stroke
3405 1946 PD
0 -966 3435 1946 2 MP stroke
0 1563 3464 1946 2 MP stroke
0 -1563 3493 1946 2 MP stroke
0 966 3522 1946 2 MP stroke
3551 1946 PD
0 -966 3580 1946 2 MP stroke
0 1563 3610 1946 2 MP stroke
0 -1563 3639 1946 2 MP stroke
0 966 3668 1946 2 MP stroke
3697 1946 PD
0 -966 3726 1946 2 MP stroke
0 1563 3756 1946 2 MP stroke
0 -1563 3785 1946 2 MP stroke
0 966 3814 1946 2 MP stroke
3843 1946 PD
0 -966 3872 1946 2 MP stroke
0 1563 3901 1946 2 MP stroke
0 -1563 3931 1946 2 MP stroke
0 966 3960 1946 2 MP stroke
3989 1946 PD
0 -966 4018 1946 2 MP stroke
0 1563 4047 1946 2 MP stroke
0 -1563 4077 1946 2 MP stroke
0 966 4106 1946 2 MP stroke
4135 1946 PD
0 -966 4164 1946 2 MP stroke
0 1563 4193 1946 2 MP stroke
0 -1563 4222 1946 2 MP stroke
0 966 4252 1946 2 MP stroke
4281 1946 PD
0 -966 4310 1946 2 MP stroke
0 1563 4339 1946 2 MP stroke
0 -1563 4368 1946 2 MP stroke
0 966 4398 1946 2 MP stroke
4427 1946 PD
0 -966 4456 1946 2 MP stroke
0 1563 4485 1946 2 MP stroke
0 -1563 4514 1946 2 MP stroke
0 966 4543 1946 2 MP stroke
4573 1946 PD
0 sg
1751 0 3114 1946 2 MP stroke
gr

0 sg
3955 3878 mt 
(n) s
2707 2076 mt  -90 rotate
(x) s
90 rotate
%%IncludeResource: font Helvetica
/Helvetica /ISOLatin1Encoding 96 FMSR

2767 2016 mt  -90 rotate
(2) s
90 rotate
%%IncludeResource: font Helvetica
/Helvetica /ISOLatin1Encoding 120 FMSR

2707 1963 mt  -90 rotate
(\(n\)) s
90 rotate
3444  154 mt 
(f) s
%%IncludeResource: font Helvetica
/Helvetica /ISOLatin1Encoding 96 FMSR

3477  214 mt 
(2) s
%%IncludeResource: font Helvetica
/Helvetica /ISOLatin1Encoding 120 FMSR

3530  154 mt 
(=4 kHz, F) s
%%IncludeResource: font Helvetica
/Helvetica /ISOLatin1Encoding 96 FMSR

4046  214 mt 
(c) s
%%IncludeResource: font Helvetica
/Helvetica /ISOLatin1Encoding 120 FMSR

4094  154 mt 
(=10 kHz) s

end %%Color Dict

eplot
%%EndObject

epage
end

showpage

%%Trailer
%%EOF
