%!PS-Adobe-3.0 EPSF-3.0
%%Creator: MATLAB, The Mathworks, Inc. Version 7.7.0.471 (R2008b). Operating System: Linux 2.6.26-1-686 #1 SMP Fri Mar 13 18:08:45 UTC 2009 i686.
%%Title: /home/salvix/Dev/UniPD/ens/hw1/figures/H_f.eps
%%CreationDate: 10/23/2009  01:40:53
%%DocumentNeededFonts: Helvetica
%%DocumentProcessColors: Cyan Magenta Yellow Black
%%LanguageLevel: 2
%%Pages: 1
%%BoundingBox:  -214   132   810   709
%%EndComments

%%BeginProlog
% MathWorks dictionary
/MathWorks 160 dict begin
% definition operators
/bdef {bind def} bind def
/ldef {load def} bind def
/xdef {exch def} bdef
/xstore {exch store} bdef
% operator abbreviations
/c  /clip ldef
/cc /concat ldef
/cp /closepath ldef
/gr /grestore ldef
/gs /gsave ldef
/mt /moveto ldef
/np /newpath ldef
/cm /currentmatrix ldef
/sm /setmatrix ldef
/rm /rmoveto ldef
/rl /rlineto ldef
/s {show newpath} bdef
/sc {setcmykcolor} bdef
/sr /setrgbcolor ldef
/sg /setgray ldef
/w /setlinewidth ldef
/j /setlinejoin ldef
/cap /setlinecap ldef
/rc {rectclip} bdef
/rf {rectfill} bdef
% page state control
/pgsv () def
/bpage {/pgsv save def} bdef
/epage {pgsv restore} bdef
/bplot /gsave ldef
/eplot {stroke grestore} bdef
% orientation switch
/portraitMode 0 def /landscapeMode 1 def /rotateMode 2 def
% coordinate system mappings
/dpi2point 0 def
% font control
/FontSize 0 def
/FMS {/FontSize xstore findfont [FontSize 0 0 FontSize neg 0 0]
  makefont setfont} bdef
/reencode {exch dup where {pop load} {pop StandardEncoding} ifelse
  exch dup 3 1 roll findfont dup length dict begin
  { 1 index /FID ne {def}{pop pop} ifelse } forall
  /Encoding exch def currentdict end definefont pop} bdef
/isroman {findfont /CharStrings get /Agrave known} bdef
/FMSR {3 1 roll 1 index dup isroman {reencode} {pop pop} ifelse
  exch FMS} bdef
/csm {1 dpi2point div -1 dpi2point div scale neg translate
 dup landscapeMode eq {pop -90 rotate}
  {rotateMode eq {90 rotate} if} ifelse} bdef
% line types: solid, dotted, dashed, dotdash
/SO { [] 0 setdash } bdef
/DO { [.5 dpi2point mul 4 dpi2point mul] 0 setdash } bdef
/DA { [6 dpi2point mul] 0 setdash } bdef
/DD { [.5 dpi2point mul 4 dpi2point mul 6 dpi2point mul 4
  dpi2point mul] 0 setdash } bdef
% macros for lines and objects
/L {lineto stroke} bdef
/MP {3 1 roll moveto 1 sub {rlineto} repeat} bdef
/AP {{rlineto} repeat} bdef
/PDlw -1 def
/W {/PDlw currentlinewidth def setlinewidth} def
/PP {closepath eofill} bdef
/DP {closepath stroke} bdef
/MR {4 -2 roll moveto dup  0 exch rlineto exch 0 rlineto
  neg 0 exch rlineto closepath} bdef
/FR {MR stroke} bdef
/PR {MR fill} bdef
/L1i {{currentfile picstr readhexstring pop} image} bdef
/tMatrix matrix def
/MakeOval {newpath tMatrix currentmatrix pop translate scale
0 0 1 0 360 arc tMatrix setmatrix} bdef
/FO {MakeOval stroke} bdef
/PO {MakeOval fill} bdef
/PD {currentlinewidth 2 div 0 360 arc fill
   PDlw -1 eq not {PDlw w /PDlw -1 def} if} def
/FA {newpath tMatrix currentmatrix pop translate scale
  0 0 1 5 -2 roll arc tMatrix setmatrix stroke} bdef
/PA {newpath tMatrix currentmatrix pop	translate 0 0 moveto scale
  0 0 1 5 -2 roll arc closepath tMatrix setmatrix fill} bdef
/FAn {newpath tMatrix currentmatrix pop translate scale
  0 0 1 5 -2 roll arcn tMatrix setmatrix stroke} bdef
/PAn {newpath tMatrix currentmatrix pop translate 0 0 moveto scale
  0 0 1 5 -2 roll arcn closepath tMatrix setmatrix fill} bdef
/vradius 0 def /hradius 0 def /lry 0 def
/lrx 0 def /uly 0 def /ulx 0 def /rad 0 def
/MRR {/vradius xdef /hradius xdef /lry xdef /lrx xdef /uly xdef
  /ulx xdef newpath tMatrix currentmatrix pop ulx hradius add uly
  vradius add translate hradius vradius scale 0 0 1 180 270 arc 
  tMatrix setmatrix lrx hradius sub uly vradius add translate
  hradius vradius scale 0 0 1 270 360 arc tMatrix setmatrix
  lrx hradius sub lry vradius sub translate hradius vradius scale
  0 0 1 0 90 arc tMatrix setmatrix ulx hradius add lry vradius sub
  translate hradius vradius scale 0 0 1 90 180 arc tMatrix setmatrix
  closepath} bdef
/FRR {MRR stroke } bdef
/PRR {MRR fill } bdef
/MlrRR {/lry xdef /lrx xdef /uly xdef /ulx xdef /rad lry uly sub 2 div def
  newpath tMatrix currentmatrix pop ulx rad add uly rad add translate
  rad rad scale 0 0 1 90 270 arc tMatrix setmatrix lrx rad sub lry rad
  sub translate rad rad scale 0 0 1 270 90 arc tMatrix setmatrix
  closepath} bdef
/FlrRR {MlrRR stroke } bdef
/PlrRR {MlrRR fill } bdef
/MtbRR {/lry xdef /lrx xdef /uly xdef /ulx xdef /rad lrx ulx sub 2 div def
  newpath tMatrix currentmatrix pop ulx rad add uly rad add translate
  rad rad scale 0 0 1 180 360 arc tMatrix setmatrix lrx rad sub lry rad
  sub translate rad rad scale 0 0 1 0 180 arc tMatrix setmatrix
  closepath} bdef
/FtbRR {MtbRR stroke } bdef
/PtbRR {MtbRR fill } bdef
/stri 6 array def /dtri 6 array def
/smat 6 array def /dmat 6 array def
/tmat1 6 array def /tmat2 6 array def /dif 3 array def
/asub {/ind2 exch def /ind1 exch def dup dup
  ind1 get exch ind2 get sub exch } bdef
/tri_to_matrix {
  2 0 asub 3 1 asub 4 0 asub 5 1 asub
  dup 0 get exch 1 get 7 -1 roll astore } bdef
/compute_transform {
  dmat dtri tri_to_matrix tmat1 invertmatrix 
  smat stri tri_to_matrix tmat2 concatmatrix } bdef
/ds {stri astore pop} bdef
/dt {dtri astore pop} bdef
/db {2 copy /cols xdef /rows xdef mul dup 3 mul string
  currentfile 
  3 index 0 eq {/ASCIIHexDecode filter}
  {/ASCII85Decode filter 3 index 2 eq {/RunLengthDecode filter} if }
  ifelse exch readstring pop
  dup 0 3 index getinterval /rbmap xdef
  dup 2 index dup getinterval /gbmap xdef
  1 index dup 2 mul exch getinterval /bbmap xdef pop pop}bdef
/it {gs np dtri aload pop moveto lineto lineto cp c
  cols rows 8 compute_transform 
  rbmap gbmap bbmap true 3 colorimage gr}bdef
/il {newpath moveto lineto stroke}bdef
currentdict end def
%%EndProlog

%%BeginSetup
MathWorks begin

0 cap

end
%%EndSetup

%%Page: 1 1
%%BeginPageSetup
%%PageBoundingBox:  -214   132   810   709
MathWorks begin
bpage
%%EndPageSetup

%%BeginObject: obj1
bplot

/dpi2point 12 def
portraitMode -2568 8508 csm

    0     0 12289  6914 rc
85 dict begin %Colortable dictionary
/c0 { 0.000000 0.000000 0.000000 sr} bdef
/c1 { 1.000000 1.000000 1.000000 sr} bdef
/c2 { 0.900000 0.000000 0.000000 sr} bdef
/c3 { 0.000000 0.820000 0.000000 sr} bdef
/c4 { 0.000000 0.000000 0.800000 sr} bdef
/c5 { 0.910000 0.820000 0.320000 sr} bdef
/c6 { 1.000000 0.260000 0.820000 sr} bdef
/c7 { 0.000000 0.820000 0.820000 sr} bdef
c0
1 j
1 sg
   0    0 12290 6915 rf
6 w
0 5634 9524 0 0 -5634 1598 6153 4 MP
PP
-9524 0 0 5634 9524 0 0 -5634 1598 6153 5 MP stroke
4 w
DO
0 sg
1598 6153 mt 1598  519 L
1598  519 mt 1598  519 L
2788 6153 mt 2788  519 L
2788  519 mt 2788  519 L
3979 6153 mt 3979  519 L
3979  519 mt 3979  519 L
5169 6153 mt 5169  519 L
5169  519 mt 5169  519 L
6360 6153 mt 6360  519 L
6360  519 mt 6360  519 L
7550 6153 mt 7550  519 L
7550  519 mt 7550  519 L
8741 6153 mt 8741  519 L
8741  519 mt 8741  519 L
9931 6153 mt 9931  519 L
9931  519 mt 9931  519 L
11122 6153 mt 11122  519 L
11122  519 mt 11122  519 L
1598 6153 mt 11122 6153 L
11122 6153 mt 11122 6153 L
1598 5590 mt 11122 5590 L
11122 5590 mt 11122 5590 L
1598 5027 mt 11122 5027 L
11122 5027 mt 11122 5027 L
1598 4465 mt 11122 4465 L
11122 4465 mt 11122 4465 L
1598 3902 mt 11122 3902 L
11122 3902 mt 11122 3902 L
1598 3340 mt 11122 3340 L
11122 3340 mt 11122 3340 L
1598 2777 mt 11122 2777 L
11122 2777 mt 11122 2777 L
1598 2215 mt 11122 2215 L
11122 2215 mt 11122 2215 L
1598 1652 mt 11122 1652 L
11122 1652 mt 11122 1652 L
1598 1090 mt 11122 1090 L
11122 1090 mt 11122 1090 L
1598  527 mt 11122  527 L
11122  527 mt 11122  527 L
SO
6 w
1598 6153 mt 11122 6153 L
1598  519 mt 11122  519 L
1598 6153 mt 1598  519 L
11122 6153 mt 11122  519 L
1598 6153 mt 11122 6153 L
1598 6153 mt 1598  519 L
1598 6153 mt 1598 6057 L
1598  519 mt 1598  614 L
%%IncludeResource: font Helvetica
/Helvetica /ISOLatin1Encoding 120 FMSR

1395 6298 mt 
(-2000) s
2788 6153 mt 2788 6057 L
2788  519 mt 2788  614 L
2585 6298 mt 
(-1500) s
3979 6153 mt 3979 6057 L
3979  519 mt 3979  614 L
3776 6298 mt 
(-1000) s
5169 6153 mt 5169 6057 L
5169  519 mt 5169  614 L
4999 6298 mt 
(-500) s
6360 6153 mt 6360 6057 L
6360  519 mt 6360  614 L
6327 6298 mt 
(0) s
7550 6153 mt 7550 6057 L
7550  519 mt 7550  614 L
7450 6298 mt 
(500) s
8741 6153 mt 8741 6057 L
8741  519 mt 8741  614 L
8608 6298 mt 
(1000) s
9931 6153 mt 9931 6057 L
9931  519 mt 9931  614 L
9798 6298 mt 
(1500) s
11122 6153 mt 11122 6057 L
11122  519 mt 11122  614 L
10989 6298 mt 
(2000) s
1598 6153 mt 1693 6153 L
11122 6153 mt 11026 6153 L
1497 6197 mt 
(0) s
1598 5590 mt 1693 5590 L
11122 5590 mt 11026 5590 L
1397 5634 mt 
(0.1) s
1598 5027 mt 1693 5027 L
11122 5027 mt 11026 5027 L
1397 5071 mt 
(0.2) s
1598 4465 mt 1693 4465 L
11122 4465 mt 11026 4465 L
1397 4509 mt 
(0.3) s
1598 3902 mt 1693 3902 L
11122 3902 mt 11026 3902 L
1397 3946 mt 
(0.4) s
1598 3340 mt 1693 3340 L
11122 3340 mt 11026 3340 L
1397 3384 mt 
(0.5) s
1598 2777 mt 1693 2777 L
11122 2777 mt 11026 2777 L
1397 2821 mt 
(0.6) s
1598 2215 mt 1693 2215 L
11122 2215 mt 11026 2215 L
1397 2259 mt 
(0.7) s
1598 1652 mt 1693 1652 L
11122 1652 mt 11026 1652 L
1397 1696 mt 
(0.8) s
1598 1090 mt 1693 1090 L
11122 1090 mt 11026 1090 L
1397 1134 mt 
(0.9) s
1598  527 mt 1693  527 L
11122  527 mt 11026  527 L
1497  571 mt 
(1) s
1598 6153 mt 11122 6153 L
1598  519 mt 11122  519 L
1598 6153 mt 1598  519 L
11122 6153 mt 11122  519 L
gs 1598 519 9525 5635 rc
/c8 { 0.000000 0.000000 1.000000 sr} bdef
c8
12 0 26 0 27 0 26 0 26 0 26 0 27 0 26 0 
26 0 26 0 27 0 26 0 26 0 26 0 27 0 26 0 
26 0 26 0 27 0 26 0 26 0 26 0 27 0 26 0 
26 0 26 0 27 0 26 0 26 0 26 0 27 0 26 0 
26 0 26 0 27 0 26 0 26 0 26 0 27 0 26 0 
26 0 26 0 27 0 26 0 26 0 26 0 27 0 26 0 
26 0 26 0 27 0 26 0 26 0 26 0 27 0 26 0 
26 0 26 0 27 0 26 0 26 0 26 0 27 0 26 0 
26 0 26 0 27 0 26 0 26 0 26 0 27 0 26 0 
26 0 26 0 27 0 26 0 26 0 26 0 27 0 26 0 
26 0 26 0 27 0 26 0 26 0 26 0 27 0 26 0 
26 0 26 0 27 0 26 0 26 0 26 0 27 0 26 0 
26 0 26 0 27 0 26 0 26 0 26 0 27 0 26 0 
26 0 26 0 27 0 26 0 26 0 26 0 27 0 26 0 
26 0 26 0 27 0 26 -1 26 0 26 0 27 0 26 -1 
26 -1 26 0 27 -1 26 -2 26 -1 26 -3 27 -3 26 -4 
26 -7 26 -10 27 -17 26 -30 26 -59 26 -140 27 -436 26 -2022 
26 -286 26 2152 27 492 26 167 26 75 26 40 27 23 26 16 
26 11 26 7 27 6 26 4 26 4 26 3 27 2 26 2 
26 1 26 2 27 1 26 1 26 1 26 0 27 1 26 1 
26 0 26 1 27 0 26 0 26 1 26 0 27 0 26 0 
26 1 26 0 27 0 26 0 26 0 26 0 27 1 26 0 
26 0 26 0 27 0 26 0 26 0 27 0 26 0 26 0 
26 0 27 0 26 0 26 0 26 0 27 -1 26 0 26 0 
26 0 27 0 26 0 26 -1 26 0 27 0 26 0 26 -1 
26 0 27 0 26 -1 26 0 26 -1 27 -1 26 0 26 -1 
26 -1 27 -1 26 -2 26 -1 26 -2 27 -2 26 -3 26 -4 
26 -4 27 -6 26 -7 26 -11 26 -16 27 -23 26 -40 26 -75 
26 -167 27 -492 26 -2152 26 286 26 2022 27 436 26 140 26 59 
26 30 27 17 26 10 26 7 26 4 27 3 26 3 26 1 
26 2 27 1 26 0 26 1 26 1 27 0 26 0 26 0 
26 1 27 0 26 0 26 0 26 0 27 0 26 0 26 0 
26 0 27 0 26 0 26 0 26 0 27 0 26 0 26 0 
26 0 27 0 26 0 26 0 26 0 27 0 26 0 26 0 
26 0 27 0 26 0 26 0 26 0 27 0 26 0 26 0 
26 0 27 0 26 0 26 0 26 0 27 0 26 0 26 0 
26 0 27 0 26 0 26 0 26 0 27 0 26 0 26 0 
26 0 27 0 26 0 3288 519 300 MP stroke
26 0 26 0 27 0 26 0 26 0 26 0 27 0 26 0 
26 0 26 0 27 0 26 0 26 0 26 0 27 0 26 0 
26 0 26 0 27 0 26 0 26 0 26 0 27 0 26 0 
26 0 26 0 27 0 26 0 26 0 26 0 27 0 26 0 
26 0 26 0 27 0 26 0 26 0 26 0 27 0 26 0 
26 0 26 0 27 0 26 0 26 0 26 0 27 0 26 0 
26 0 26 0 27 0 26 0 26 0 26 0 27 0 26 0 
26 0 26 0 27 0 26 0 26 0 26 0 27 0 26 0 
10 0 1598 519 66 MP stroke
gr

c8
0 sg
4898  416 mt 
(|H\(j) s
%%IncludeResource: font Symbol
/Symbol /ISOLatin1Encoding 120 FMSR

5082  416 mt 
(W) s
%%IncludeResource: font Helvetica
/Helvetica /ISOLatin1Encoding 120 FMSR

5174  416 mt 
(\)| - modulo della risposta in frequenza del sistema) s
1581 6196 mt 
( ) s
11106  561 mt 
( ) s
1 sg
0 206 850 0 0 -206 10213 785 4 MP
PP
-850 0 0 206 850 0 0 -206 10213 785 5 MP stroke
4 w
DO
SO
6 w
0 sg
10213  785 mt 11063  785 L
10213  579 mt 11063  579 L
10213  785 mt 10213  579 L
11063  785 mt 11063  579 L
10213  785 mt 11063  785 L
10213  785 mt 10213  579 L
10213  785 mt 11063  785 L
10213  579 mt 11063  579 L
10213  785 mt 10213  579 L
11063  785 mt 11063  579 L
10671  726 mt 
(|H\(j) s
%%IncludeResource: font Symbol
/Symbol /ISOLatin1Encoding 120 FMSR

10855  726 mt 
(W) s
%%IncludeResource: font Helvetica
/Helvetica /ISOLatin1Encoding 120 FMSR

10947  726 mt 
(\)|) s
gs 10213 579 851 207 rc
c8
352 0 10283 682 2 MP stroke
gr

c8

end %%Color Dict

eplot
%%EndObject

epage
end

showpage

%%Trailer
%%EOF
