%!PS-Adobe-3.0 EPSF-3.0
%%Creator: MATLAB, The Mathworks, Inc. Version 7.7.0.471 (R2008b). Operating System: Linux 2.6.26-1-686 #1 SMP Fri Mar 13 18:08:45 UTC 2009 i686.
%%Title: /home/salvix/Dev/UniPD/ens/hw1/matlab/h_n.eps
%%CreationDate: 10/23/2009  01:42:10
%%DocumentNeededFonts: Helvetica
%%DocumentProcessColors: Cyan Magenta Yellow Black
%%LanguageLevel: 2
%%Pages: 1
%%BoundingBox:    73   252   521   589
%%EndComments

%%BeginProlog
% MathWorks dictionary
/MathWorks 160 dict begin
% definition operators
/bdef {bind def} bind def
/ldef {load def} bind def
/xdef {exch def} bdef
/xstore {exch store} bdef
% operator abbreviations
/c  /clip ldef
/cc /concat ldef
/cp /closepath ldef
/gr /grestore ldef
/gs /gsave ldef
/mt /moveto ldef
/np /newpath ldef
/cm /currentmatrix ldef
/sm /setmatrix ldef
/rm /rmoveto ldef
/rl /rlineto ldef
/s {show newpath} bdef
/sc {setcmykcolor} bdef
/sr /setrgbcolor ldef
/sg /setgray ldef
/w /setlinewidth ldef
/j /setlinejoin ldef
/cap /setlinecap ldef
/rc {rectclip} bdef
/rf {rectfill} bdef
% page state control
/pgsv () def
/bpage {/pgsv save def} bdef
/epage {pgsv restore} bdef
/bplot /gsave ldef
/eplot {stroke grestore} bdef
% orientation switch
/portraitMode 0 def /landscapeMode 1 def /rotateMode 2 def
% coordinate system mappings
/dpi2point 0 def
% font control
/FontSize 0 def
/FMS {/FontSize xstore findfont [FontSize 0 0 FontSize neg 0 0]
  makefont setfont} bdef
/reencode {exch dup where {pop load} {pop StandardEncoding} ifelse
  exch dup 3 1 roll findfont dup length dict begin
  { 1 index /FID ne {def}{pop pop} ifelse } forall
  /Encoding exch def currentdict end definefont pop} bdef
/isroman {findfont /CharStrings get /Agrave known} bdef
/FMSR {3 1 roll 1 index dup isroman {reencode} {pop pop} ifelse
  exch FMS} bdef
/csm {1 dpi2point div -1 dpi2point div scale neg translate
 dup landscapeMode eq {pop -90 rotate}
  {rotateMode eq {90 rotate} if} ifelse} bdef
% line types: solid, dotted, dashed, dotdash
/SO { [] 0 setdash } bdef
/DO { [.5 dpi2point mul 4 dpi2point mul] 0 setdash } bdef
/DA { [6 dpi2point mul] 0 setdash } bdef
/DD { [.5 dpi2point mul 4 dpi2point mul 6 dpi2point mul 4
  dpi2point mul] 0 setdash } bdef
% macros for lines and objects
/L {lineto stroke} bdef
/MP {3 1 roll moveto 1 sub {rlineto} repeat} bdef
/AP {{rlineto} repeat} bdef
/PDlw -1 def
/W {/PDlw currentlinewidth def setlinewidth} def
/PP {closepath eofill} bdef
/DP {closepath stroke} bdef
/MR {4 -2 roll moveto dup  0 exch rlineto exch 0 rlineto
  neg 0 exch rlineto closepath} bdef
/FR {MR stroke} bdef
/PR {MR fill} bdef
/L1i {{currentfile picstr readhexstring pop} image} bdef
/tMatrix matrix def
/MakeOval {newpath tMatrix currentmatrix pop translate scale
0 0 1 0 360 arc tMatrix setmatrix} bdef
/FO {MakeOval stroke} bdef
/PO {MakeOval fill} bdef
/PD {currentlinewidth 2 div 0 360 arc fill
   PDlw -1 eq not {PDlw w /PDlw -1 def} if} def
/FA {newpath tMatrix currentmatrix pop translate scale
  0 0 1 5 -2 roll arc tMatrix setmatrix stroke} bdef
/PA {newpath tMatrix currentmatrix pop	translate 0 0 moveto scale
  0 0 1 5 -2 roll arc closepath tMatrix setmatrix fill} bdef
/FAn {newpath tMatrix currentmatrix pop translate scale
  0 0 1 5 -2 roll arcn tMatrix setmatrix stroke} bdef
/PAn {newpath tMatrix currentmatrix pop translate 0 0 moveto scale
  0 0 1 5 -2 roll arcn closepath tMatrix setmatrix fill} bdef
/vradius 0 def /hradius 0 def /lry 0 def
/lrx 0 def /uly 0 def /ulx 0 def /rad 0 def
/MRR {/vradius xdef /hradius xdef /lry xdef /lrx xdef /uly xdef
  /ulx xdef newpath tMatrix currentmatrix pop ulx hradius add uly
  vradius add translate hradius vradius scale 0 0 1 180 270 arc 
  tMatrix setmatrix lrx hradius sub uly vradius add translate
  hradius vradius scale 0 0 1 270 360 arc tMatrix setmatrix
  lrx hradius sub lry vradius sub translate hradius vradius scale
  0 0 1 0 90 arc tMatrix setmatrix ulx hradius add lry vradius sub
  translate hradius vradius scale 0 0 1 90 180 arc tMatrix setmatrix
  closepath} bdef
/FRR {MRR stroke } bdef
/PRR {MRR fill } bdef
/MlrRR {/lry xdef /lrx xdef /uly xdef /ulx xdef /rad lry uly sub 2 div def
  newpath tMatrix currentmatrix pop ulx rad add uly rad add translate
  rad rad scale 0 0 1 90 270 arc tMatrix setmatrix lrx rad sub lry rad
  sub translate rad rad scale 0 0 1 270 90 arc tMatrix setmatrix
  closepath} bdef
/FlrRR {MlrRR stroke } bdef
/PlrRR {MlrRR fill } bdef
/MtbRR {/lry xdef /lrx xdef /uly xdef /ulx xdef /rad lrx ulx sub 2 div def
  newpath tMatrix currentmatrix pop ulx rad add uly rad add translate
  rad rad scale 0 0 1 180 360 arc tMatrix setmatrix lrx rad sub lry rad
  sub translate rad rad scale 0 0 1 0 180 arc tMatrix setmatrix
  closepath} bdef
/FtbRR {MtbRR stroke } bdef
/PtbRR {MtbRR fill } bdef
/stri 6 array def /dtri 6 array def
/smat 6 array def /dmat 6 array def
/tmat1 6 array def /tmat2 6 array def /dif 3 array def
/asub {/ind2 exch def /ind1 exch def dup dup
  ind1 get exch ind2 get sub exch } bdef
/tri_to_matrix {
  2 0 asub 3 1 asub 4 0 asub 5 1 asub
  dup 0 get exch 1 get 7 -1 roll astore } bdef
/compute_transform {
  dmat dtri tri_to_matrix tmat1 invertmatrix 
  smat stri tri_to_matrix tmat2 concatmatrix } bdef
/ds {stri astore pop} bdef
/dt {dtri astore pop} bdef
/db {2 copy /cols xdef /rows xdef mul dup 3 mul string
  currentfile 
  3 index 0 eq {/ASCIIHexDecode filter}
  {/ASCII85Decode filter 3 index 2 eq {/RunLengthDecode filter} if }
  ifelse exch readstring pop
  dup 0 3 index getinterval /rbmap xdef
  dup 2 index dup getinterval /gbmap xdef
  1 index dup 2 mul exch getinterval /bbmap xdef pop pop}bdef
/it {gs np dtri aload pop moveto lineto lineto cp c
  cols rows 8 compute_transform 
  rbmap gbmap bbmap true 3 colorimage gr}bdef
/il {newpath moveto lineto stroke}bdef
currentdict end def
%%EndProlog

%%BeginSetup
MathWorks begin

0 cap

end
%%EndSetup

%%Page: 1 1
%%BeginPageSetup
%%PageBoundingBox:    73   252   521   589
MathWorks begin
bpage
%%EndPageSetup

%%BeginObject: obj1
bplot

/dpi2point 12 def
portraitMode 0876 7068 csm

    0     0  5376  4034 rc
85 dict begin %Colortable dictionary
/c0 { 0.000000 0.000000 0.000000 sr} bdef
/c1 { 1.000000 1.000000 1.000000 sr} bdef
/c2 { 0.900000 0.000000 0.000000 sr} bdef
/c3 { 0.000000 0.820000 0.000000 sr} bdef
/c4 { 0.000000 0.000000 0.800000 sr} bdef
/c5 { 0.910000 0.820000 0.320000 sr} bdef
/c6 { 1.000000 0.260000 0.820000 sr} bdef
/c7 { 0.000000 0.820000 0.820000 sr} bdef
c0
1 j
1 sg
   0    0 5377 4035 rf
6 w
0 3287 4166 0 0 -3287 699 3589 4 MP
PP
-4166 0 0 3287 4166 0 0 -3287 699 3589 5 MP stroke
4 w
DO
0 sg
 897 3589 mt  897  302 L
 897  302 mt  897  302 L
1294 3589 mt 1294  302 L
1294  302 mt 1294  302 L
1690 3589 mt 1690  302 L
1690  302 mt 1690  302 L
2087 3589 mt 2087  302 L
2087  302 mt 2087  302 L
2484 3589 mt 2484  302 L
2484  302 mt 2484  302 L
2881 3589 mt 2881  302 L
2881  302 mt 2881  302 L
3277 3589 mt 3277  302 L
3277  302 mt 3277  302 L
3674 3589 mt 3674  302 L
3674  302 mt 3674  302 L
4071 3589 mt 4071  302 L
4071  302 mt 4071  302 L
4468 3589 mt 4468  302 L
4468  302 mt 4468  302 L
4865 3589 mt 4865  302 L
4865  302 mt 4865  302 L
 699 3316 mt 4865 3316 L
4865 3316 mt 4865 3316 L
 699 2768 mt 4865 2768 L
4865 2768 mt 4865 2768 L
 699 2220 mt 4865 2220 L
4865 2220 mt 4865 2220 L
 699 1672 mt 4865 1672 L
4865 1672 mt 4865 1672 L
 699 1124 mt 4865 1124 L
4865 1124 mt 4865 1124 L
 699  576 mt 4865  576 L
4865  576 mt 4865  576 L
SO
6 w
 699 3589 mt 4865 3589 L
 699  302 mt 4865  302 L
 699 3589 mt  699  302 L
4865 3589 mt 4865  302 L
 699 3589 mt 4865 3589 L
 699 3589 mt  699  302 L
 897 3589 mt  897 3548 L
 897  302 mt  897  344 L
%%IncludeResource: font Helvetica
/Helvetica /ISOLatin1Encoding 120 FMSR

 864 3735 mt 
(0) s
1294 3589 mt 1294 3548 L
1294  302 mt 1294  344 L
1194 3735 mt 
(200) s
1690 3589 mt 1690 3548 L
1690  302 mt 1690  344 L
1590 3735 mt 
(400) s
2087 3589 mt 2087 3548 L
2087  302 mt 2087  344 L
1987 3735 mt 
(600) s
2484 3589 mt 2484 3548 L
2484  302 mt 2484  344 L
2384 3735 mt 
(800) s
2881 3589 mt 2881 3548 L
2881  302 mt 2881  344 L
2748 3735 mt 
(1000) s
3277 3589 mt 3277 3548 L
3277  302 mt 3277  344 L
3144 3735 mt 
(1200) s
3674 3589 mt 3674 3548 L
3674  302 mt 3674  344 L
3541 3735 mt 
(1400) s
4071 3589 mt 4071 3548 L
4071  302 mt 4071  344 L
3938 3735 mt 
(1600) s
4468 3589 mt 4468 3548 L
4468  302 mt 4468  344 L
4335 3735 mt 
(1800) s
4865 3589 mt 4865 3548 L
4865  302 mt 4865  344 L
4732 3735 mt 
(2000) s
 699 3316 mt  740 3316 L
4865 3316 mt 4823 3316 L
 598 3360 mt 
(0) s
 699 2768 mt  740 2768 L
4865 2768 mt 4823 2768 L
 498 2812 mt 
(0.2) s
 699 2220 mt  740 2220 L
4865 2220 mt 4823 2220 L
 498 2264 mt 
(0.4) s
 699 1672 mt  740 1672 L
4865 1672 mt 4823 1672 L
 498 1716 mt 
(0.6) s
 699 1124 mt  740 1124 L
4865 1124 mt 4823 1124 L
 498 1168 mt 
(0.8) s
 699  576 mt  740  576 L
4865  576 mt 4823  576 L
 598  620 mt 
(1) s
 699 3589 mt 4865 3589 L
 699  302 mt 4865  302 L
 699 3589 mt  699  302 L
4865 3589 mt 4865  302 L
gs 699 302 4167 3289 rc
/c8 { 0.000000 0.000000 1.000000 sr} bdef
c8
1 0 2 0 2 0 2 1 2 0 2 0 2 0 2 0 
2 0 2 0 2 0 2 0 2 0 2 0 2 0 2 0 
2 0 2 0 2 0 2 0 2 0 2 0 2 0 2 0 
2 0 2 0 2 0 2 0 2 0 2 0 2 0 2 0 
2 0 2 0 2 0 2 0 2 0 2 0 2 0 2 0 
2 0 2 0 2 -1 2 0 2 0 2 0 2 0 2 0 
2 0 2 0 2 0 2 0 2 0 2 0 2 0 2 0 
2 0 2 0 2 0 2 0 2 0 2 0 1 0 2 0 
2 0 2 0 2 0 2 0 2 0 2 0 2 0 2 0 
2 0 2 0 2 0 2 0 2 0 2 0 2 0 2 0 
2 0 2 0 2 0 2 0 2 0 2 0 2 0 2 0 
2 0 2 0 2 1 2 0 2 0 2 0 2 0 2 0 
2 0 2 0 2 0 2 0 2 0 2 0 2 0 2 0 
2 0 2 0 2 0 2 0 2 0 2 0 2 0 2 0 
2 0 2 0 2 0 2 0 2 0 2 0 2 0 2 0 
2 0 2 0 2 0 2 0 1 0 2 0 2 0 2 0 
2 0 2 0 2 -1 2 0 2 0 2 0 2 0 2 0 
2 0 2 0 2 0 2 0 2 0 2 0 2 0 2 0 
2 0 2 0 2 0 2 0 2 0 2 0 2 0 2 0 
2 0 2 0 2 0 2 0 2 0 2 0 2 0 2 0 
2 0 2 0 2 0 2 0 2 0 2 0 2 0 2 0 
2 0 2 0 2 0 2 0 2 0 2 0 2 0 2 0 
2 0 2 0 2 1 2 0 2 0 2 0 2 0 2 0 
2 0 2 0 1 0 2 0 2 0 2 0 2 0 2 0 
2 0 2 0 2 0 2 0 2 0 2 0 2 0 2 0 
2 0 2 0 2 0 2 0 2 0 2 0 2 0 2 0 
2 0 2 0 2 0 2 0 2 0 2 0 2 0 2 0 
2 0 2 0 2 -1 2 0 2 0 2 0 2 0 2 0 
2 0 2 0 2 0 2 0 2 0 2 0 2 0 2 0 
2 0 2 0 2 0 2 0 2 0 2 0 2 0 2 0 
2 0 2 0 2 0 2 0 2 0 2 0 2 0 2 0 
1 0 2 0 2 0 2 0 2 0 2 0 2 0 2 0 
2 0 2 0 2 0 2 0 2 0 2 0 2 0 2 0 
2 0 2 0 2 1 2 0 2 0 2 0 2 0 2 0 
2 0 2 0 2 0 2 0 2 0 2 0 2 0 2 0 
2 0 2 0 2 0 2 0 2 0 2 0 2 0 2 0 
2 0 2 0 2 0 2 0 2 0 2 0 2 0 2 0 
2 0 2 0 2 0 4273 3315 300 MP stroke
2 0 2 0 2 0 2 0 2 0 2 0 2 0 2 -1 
2 0 2 0 1 0 2 0 2 0 2 0 2 0 2 0 
2 0 2 0 2 0 2 0 2 0 2 0 2 0 2 0 
2 0 2 0 2 0 2 0 2 0 2 0 2 0 2 0 
2 0 2 0 2 0 2 0 2 0 2 0 2 0 2 0 
2 0 2 0 2 0 2 0 2 0 2 0 2 0 2 0 
2 0 2 0 2 0 2 0 2 0 2 0 2 1 2 0 
2 0 2 0 2 0 2 0 2 0 2 0 2 0 2 0 
2 0 2 0 2 0 2 0 2 0 2 0 2 0 2 0 
1 0 2 0 2 0 2 0 2 0 2 0 2 0 2 0 
2 0 2 0 2 0 2 0 2 0 2 0 2 0 2 0 
2 0 2 0 2 0 2 0 2 0 2 0 2 0 2 -1 
2 0 2 0 2 0 2 0 2 0 2 0 2 0 2 0 
2 0 2 0 2 0 2 0 2 0 2 0 2 0 2 0 
2 0 2 0 2 0 2 0 2 0 2 0 2 0 2 0 
2 0 2 0 2 0 2 0 2 0 2 0 2 0 2 0 
2 0 2 0 2 0 2 0 2 0 2 0 1 0 2 0 
2 0 2 0 2 0 2 0 2 0 2 0 2 1 2 0 
2 0 2 0 2 0 2 0 2 0 2 0 2 0 2 0 
2 0 2 0 2 0 2 0 2 0 2 0 2 0 2 0 
2 0 2 0 2 0 2 0 2 0 2 0 2 0 2 0 
2 0 2 0 2 0 2 0 2 0 2 0 2 0 2 0 
2 0 2 0 2 0 2 0 2 0 2 0 2 0 2 -1 
2 0 2 0 2 0 2 0 2 0 2 0 2 0 2 0 
2 0 2 0 2 0 2 0 1 0 2 0 2 0 2 0 
2 0 2 0 2 0 2 -1 2 0 2 0 2 0 2 0 
2 0 2 0 2 1 2 0 2 0 2 0 2 0 2 0 
2 0 2 0 2 0 2 0 2 0 2 0 2 0 2 0 
2 0 2 0 2 0 2 0 2 0 2 0 2 1 2 0 
2 0 2 0 2 0 2 0 2 0 2 0 2 0 2 0 
2 0 2 0 2 0 2 0 2 0 2 0 2 0 2 0 
2 0 2 0 2 0 2 0 2 0 2 0 2 0 2 0 
2 0 1 0 2 0 2 0 2 0 2 0 2 0 2 0 
2 0 2 0 2 0 2 0 2 0 2 0 2 0 2 -1 
2 0 2 0 2 0 2 0 2 0 2 0 2 0 2 0 
2 0 2 0 2 0 2 0 2 0 2 0 2 0 2 -1 
2 0 2 0 2 0 2 0 2 0 2 0 2 0 2 0 
2 0 2 0 2 0 3680 3317 300 MP stroke
2 0 2 0 2 0 2 1 2 0 2 0 2 0 2 0 
2 0 2 0 2 0 2 0 2 0 2 0 2 0 2 0 
2 0 2 0 2 0 2 1 1 0 2 0 2 0 2 0 
2 0 2 0 2 0 2 0 2 0 2 0 2 0 2 0 
2 0 2 0 2 0 2 1 2 0 2 0 2 0 2 0 
2 0 2 0 2 0 2 0 2 -1 2 0 2 0 2 0 
2 0 2 0 2 0 2 0 2 0 2 0 2 0 2 0 
2 0 2 0 2 0 2 0 2 0 2 -1 2 0 2 0 
2 0 2 0 2 0 2 0 2 0 2 0 2 0 2 0 
2 0 2 0 2 -1 2 0 2 0 2 0 2 0 2 0 
2 0 2 0 1 0 2 0 2 0 2 0 2 0 2 0 
2 0 2 0 2 0 2 0 2 0 2 0 2 1 2 0 
2 0 2 0 2 0 2 0 2 0 2 0 2 0 2 0 
2 0 2 0 2 1 2 0 2 0 2 0 2 0 2 0 
2 0 2 0 2 0 2 0 2 0 2 0 2 0 2 0 
2 1 2 0 2 0 2 0 2 0 2 0 2 0 2 0 
2 0 2 0 2 0 2 0 2 0 2 0 2 0 2 0 
2 -1 2 0 2 0 2 0 2 0 2 0 2 0 2 0 
1 0 2 0 2 0 2 0 2 0 2 -1 2 0 2 0 
2 0 2 0 2 0 2 0 2 0 2 0 2 0 2 0 
2 -1 2 0 2 0 2 0 2 0 2 0 2 0 2 0 
2 0 2 0 2 0 2 0 2 0 2 0 2 0 2 0 
2 0 2 0 2 0 2 0 2 0 2 0 2 0 2 1 
2 0 2 0 2 0 2 0 2 0 2 0 2 0 2 0 
2 0 2 0 2 1 2 0 2 0 2 0 2 0 2 0 
2 0 2 0 2 0 2 0 2 0 1 1 2 0 2 0 
2 0 2 0 2 0 2 0 2 0 2 0 2 0 2 0 
2 0 2 0 2 0 2 0 2 0 2 0 2 0 2 0 
2 0 2 0 2 -1 2 0 2 0 2 0 2 0 2 0 
2 0 2 0 2 0 2 0 2 0 2 -1 2 0 2 0 
2 0 2 0 2 0 2 0 2 0 2 0 2 -1 2 0 
2 0 2 0 2 0 2 0 2 0 2 0 2 0 2 0 
2 0 2 0 2 0 2 0 2 0 2 0 2 0 2 0 
2 0 2 0 2 0 1 0 2 0 2 0 2 0 2 0 
2 0 2 1 2 0 2 0 2 0 2 0 2 0 2 0 
2 0 2 0 2 1 2 0 2 0 2 0 2 0 2 0 
2 0 2 0 2 0 2 0 2 1 2 0 2 0 2 0 
2 0 2 0 2 0 3087 3314 300 MP stroke
2 0 2 0 2 0 2 0 2 0 2 0 2 0 2 0 
2 0 2 0 2 0 2 0 2 0 2 0 2 0 2 0 
2 -1 2 0 2 0 2 0 2 0 2 0 2 0 2 0 
2 0 2 0 2 -1 2 0 2 0 2 0 1 0 2 0 
2 0 2 0 2 -1 2 0 2 0 2 0 2 0 2 0 
2 0 2 0 2 0 2 0 2 0 2 0 2 0 2 0 
2 0 2 0 2 0 2 0 2 0 2 0 2 0 2 0 
2 0 2 0 2 0 2 0 2 0 2 0 2 0 2 1 
2 0 2 0 2 0 2 0 2 0 2 0 2 0 2 1 
2 0 2 0 2 0 2 0 2 0 2 0 2 0 2 1 
2 0 2 0 2 0 2 0 2 0 2 0 2 0 2 0 
2 0 2 0 2 0 2 0 1 0 2 0 2 0 2 0 
2 0 2 0 2 0 2 0 2 0 2 0 2 0 2 0 
2 0 2 0 2 -1 2 0 2 0 2 0 2 0 2 0 
2 0 2 0 2 -1 2 0 2 0 2 0 2 0 2 0 
2 0 2 -1 2 0 2 0 2 0 2 0 2 0 2 0 
2 0 2 0 2 0 2 0 2 0 2 -1 2 0 2 0 
2 0 2 0 2 0 2 0 2 1 2 0 2 0 2 0 
2 0 2 0 2 0 2 0 2 0 2 0 2 0 2 0 
2 1 1 0 2 0 2 0 2 0 2 0 2 0 2 1 
2 0 2 0 2 0 2 0 2 0 2 0 2 1 2 0 
2 0 2 0 2 0 2 0 2 0 2 0 2 0 2 0 
2 0 2 0 2 1 2 0 2 0 2 0 2 0 2 -1 
2 0 2 0 2 0 2 0 2 0 2 0 2 0 2 0 
2 0 2 0 2 0 2 -1 2 0 2 0 2 0 2 0 
2 0 2 0 2 -1 2 0 2 0 2 0 2 0 2 0 
2 -1 2 0 2 0 2 0 2 0 2 0 2 0 1 0 
2 0 2 -1 2 0 2 0 2 0 2 0 2 0 2 0 
2 0 2 0 2 0 2 0 2 0 2 0 2 0 2 0 
2 1 2 0 2 0 2 0 2 0 2 0 2 0 2 0 
2 1 2 0 2 0 2 0 2 0 2 0 2 0 2 1 
2 0 2 0 2 0 2 0 2 0 2 1 2 0 2 0 
2 0 2 0 2 0 2 0 2 0 2 1 2 0 2 0 
2 0 2 0 2 0 2 0 2 0 2 0 2 0 2 0 
2 0 2 0 2 0 2 -1 2 0 1 0 2 0 2 0 
2 0 2 0 2 0 2 0 2 -1 2 0 2 0 2 0 
2 0 2 0 2 -1 2 0 2 0 2 0 2 0 2 -1 
2 0 2 0 2 0 2494 3317 300 MP stroke
2 0 2 0 2 0 2 -1 2 0 2 0 2 0 2 0 
2 0 2 0 2 0 2 0 2 0 2 0 2 0 2 0 
2 0 2 0 2 0 2 0 2 0 2 0 2 0 2 1 
2 0 2 0 2 0 2 0 2 0 2 0 2 1 2 0 
2 0 2 0 2 0 2 1 2 0 2 0 2 0 2 0 
1 0 2 1 2 0 2 0 2 0 2 0 2 0 2 0 
2 1 2 0 2 0 2 0 2 0 2 0 2 0 2 0 
2 0 2 0 2 0 2 0 2 0 2 0 2 0 2 0 
2 0 2 0 2 0 2 -1 2 0 2 0 2 0 2 0 
2 0 2 -1 2 0 2 0 2 0 2 0 2 0 2 -1 
2 0 2 0 2 0 2 0 2 -1 2 0 2 0 2 0 
2 0 2 -1 2 0 2 0 2 0 2 0 2 0 2 0 
2 0 2 0 2 0 2 0 2 0 2 0 1 0 2 0 
2 0 2 0 2 0 2 0 2 0 2 0 2 0 2 0 
2 0 2 1 2 0 2 0 2 0 2 0 2 1 2 0 
2 0 2 0 2 0 2 1 2 0 2 0 2 0 2 0 
2 1 2 0 2 0 2 0 2 0 2 0 2 1 2 0 
2 0 2 0 2 0 2 0 2 0 2 0 2 0 2 0 
2 0 2 0 2 0 2 0 2 0 2 0 2 0 2 0 
2 0 2 0 2 0 2 0 2 0 2 -1 2 0 2 0 
2 0 2 0 2 -1 1 0 2 0 2 0 2 -1 2 0 
2 0 2 0 2 0 2 -1 2 0 2 0 2 0 2 0 
2 -1 2 0 2 0 2 0 2 0 2 0 2 0 2 -1 
2 0 2 0 2 0 2 0 2 0 2 0 2 0 2 0 
2 0 2 0 2 0 2 1 2 0 2 0 2 0 2 0 
2 0 2 0 2 1 2 0 2 0 2 0 2 0 2 1 
2 0 2 0 2 0 2 1 2 0 2 0 2 0 2 1 
2 0 2 0 2 0 2 0 2 1 2 0 2 0 2 0 
2 0 1 0 2 0 2 1 2 0 2 0 2 0 2 0 
2 0 2 0 2 0 2 0 2 0 2 0 2 0 2 0 
2 -1 2 0 2 0 2 0 2 0 2 0 2 -1 2 0 
2 0 2 0 2 -1 2 0 2 0 2 0 2 -1 2 0 
2 0 2 0 2 -1 2 0 2 0 2 0 2 0 2 -1 
2 0 2 0 2 0 2 0 2 -1 2 0 2 0 2 0 
2 0 2 0 2 0 2 0 2 0 2 0 2 0 2 0 
2 0 2 0 2 0 2 0 2 0 2 0 2 1 1 0 
2 0 2 0 2 0 2 1 2 0 2 0 2 0 2 1 
2 0 2 0 2 0 1901 3316 300 MP stroke
2 1 2 0 2 0 2 0 2 1 2 0 2 0 2 0 
2 1 2 0 2 0 2 0 2 0 2 1 2 0 2 0 
2 0 2 0 2 0 2 0 2 0 2 0 2 0 2 0 
2 0 2 0 2 0 2 0 2 0 2 0 2 0 2 -1 
2 0 2 0 2 0 2 0 2 -1 2 0 2 0 2 0 
2 -1 2 0 2 0 2 -1 2 0 2 0 2 0 2 -1 
2 0 2 0 1 0 2 -1 2 0 2 0 2 0 2 -1 
2 0 2 0 2 0 2 0 2 0 2 -1 2 0 2 0 
2 0 2 0 2 0 2 0 2 0 2 0 2 0 2 1 
2 0 2 0 2 0 2 0 2 0 2 1 2 0 2 0 
2 0 2 1 2 0 2 0 2 0 2 1 2 0 2 0 
2 1 2 0 2 0 2 1 2 0 2 0 2 0 2 1 
2 0 2 0 2 0 2 1 2 0 2 0 2 0 2 0 
2 1 2 0 2 0 2 0 2 0 2 0 2 0 1 0 
2 0 2 0 2 0 2 -1 2 0 2 0 2 0 2 0 
2 0 2 -1 2 0 2 0 2 0 2 -1 2 0 2 0 
2 -1 2 0 2 0 2 -1 2 0 2 0 2 -1 2 0 
2 0 2 0 2 -1 2 0 2 0 2 -1 2 0 2 0 
2 0 2 0 2 -1 2 0 2 0 2 0 2 0 2 0 
2 0 2 0 2 0 2 0 2 0 2 0 2 0 2 0 
2 0 2 0 2 1 2 0 2 0 2 0 2 1 2 0 
2 0 2 0 2 1 2 0 2 0 1 1 2 0 2 0 
2 1 2 0 2 0 2 1 2 0 2 0 2 1 2 0 
2 0 2 1 2 0 2 0 2 0 2 1 2 0 2 0 
2 0 2 0 2 0 2 0 2 0 2 0 2 0 2 0 
2 0 2 0 2 0 2 0 2 0 2 0 2 -1 2 0 
2 0 2 0 2 -1 2 0 2 0 2 0 2 -1 2 0 
2 0 2 -1 2 0 2 -1 2 0 2 0 2 -1 2 0 
2 0 2 -1 2 0 2 0 2 -1 2 0 2 0 2 -1 
2 0 2 0 2 0 1 0 2 -1 2 0 2 0 2 0 
2 0 2 0 2 0 2 0 2 0 2 0 2 0 2 1 
2 0 2 0 2 0 2 0 2 1 2 0 2 0 2 0 
2 1 2 0 2 1 2 0 2 0 2 1 2 0 2 0 
2 1 2 0 2 1 2 0 2 0 2 1 2 0 2 0 
2 1 2 0 2 0 2 1 2 0 2 0 2 0 2 1 
2 0 2 0 2 0 2 0 2 0 2 0 2 0 2 0 
2 0 2 0 2 0 2 0 2 -1 2 0 2 0 2 0 
2 -1 1 0 2 0 1308 3312 300 MP stroke
2 0 2 -1 2 0 2 -1 2 0 2 0 2 -1 2 0 
2 -1 2 0 2 0 2 -1 2 0 2 -1 2 0 2 0 
2 -1 2 0 2 0 2 -1 2 0 2 0 2 -1 2 0 
2 0 2 0 2 0 2 0 2 -1 2 0 2 0 2 0 
2 0 2 1 2 0 2 0 2 0 2 0 2 0 2 1 
2 0 2 0 2 0 2 1 2 0 2 1 2 0 2 0 
2 1 2 0 2 1 2 0 2 0 2 1 2 0 2 1 
2 0 2 1 2 0 1 0 2 1 2 0 2 1 2 0 
2 0 2 0 2 1 2 0 2 0 2 0 2 1 2 0 
2 0 2 0 2 0 2 0 2 0 2 0 2 0 2 -1 
2 0 2 0 2 0 2 0 2 -1 2 0 2 0 2 -1 
2 0 2 -1 2 0 2 0 2 -1 2 0 2 -1 2 0 
2 -1 2 0 2 -1 2 0 2 -1 2 0 2 0 2 -1 
2 0 2 -1 2 0 2 0 2 -1 2 0 2 0 2 -1 
2 0 2 0 2 0 2 0 2 0 2 0 2 0 2 0 
2 0 1 0 2 0 2 0 2 0 2 0 2 1 2 0 
2 0 2 1 2 0 2 0 2 1 2 0 2 1 2 0 
2 1 2 0 2 1 2 0 2 0 2 1 2 1 2 0 
2 0 2 1 2 0 2 1 2 0 2 1 2 0 2 1 
2 0 2 0 2 0 2 1 2 0 2 0 2 0 2 0 
2 1 2 0 2 0 2 0 2 0 2 -1 2 0 2 0 
2 0 2 0 2 0 2 -1 2 0 2 0 2 -1 2 0 
2 -1 2 0 2 -1 2 0 2 -1 2 0 2 -1 1 0 
2 -1 2 0 2 -1 2 0 2 -1 2 0 2 -1 2 0 
2 -1 2 0 2 -1 2 0 2 0 2 -1 2 0 2 0 
2 -1 2 0 2 0 2 0 2 0 2 0 2 2747 897 576 208 MP stroke
gr

c8
0 sg
2748 3878 mt 
(n) s
 416 2054 mt  -90 rotate
(h\(n\)) s
90 rotate
1890  207 mt 
(h\(n\) - Risp. implusiva del sistema) s
 682 3633 mt 
( ) s
4849  344 mt 
( ) s
1 sg
0 188 719 0 0 -188 4086 550 4 MP
PP
-719 0 0 188 719 0 0 -188 4086 550 5 MP stroke
4 w
DO
SO
6 w
0 sg
4086  550 mt 4805  550 L
4086  362 mt 4805  362 L
4086  550 mt 4086  362 L
4805  550 mt 4805  362 L
4086  550 mt 4805  550 L
4086  550 mt 4086  362 L
4086  550 mt 4805  550 L
4086  362 mt 4805  362 L
4086  550 mt 4086  362 L
4805  550 mt 4805  362 L
4545  499 mt 
(h\(n\)) s
gs 4086 362 720 189 rc
c8
352 0 4156 456 2 MP stroke
gr

c8

end %%Color Dict

eplot
%%EndObject

epage
end

showpage

%%Trailer
%%EOF
