%!PS-Adobe-3.0 EPSF-3.0
%%Creator: MATLAB, The Mathworks, Inc. Version 7.7.0.471 (R2008b). Operating System: Linux 2.6.26-1-686 #1 SMP Fri Mar 13 18:08:45 UTC 2009 i686.
%%Title: /home/salvix/Dev/UniPD/ens/hw1/matlab/S_f.eps
%%CreationDate: 10/23/2009  01:41:10
%%DocumentNeededFonts: Helvetica
%%DocumentProcessColors: Cyan Magenta Yellow Black
%%LanguageLevel: 2
%%Pages: 1
%%BoundingBox:  -214   132   810   709
%%EndComments

%%BeginProlog
% MathWorks dictionary
/MathWorks 160 dict begin
% definition operators
/bdef {bind def} bind def
/ldef {load def} bind def
/xdef {exch def} bdef
/xstore {exch store} bdef
% operator abbreviations
/c  /clip ldef
/cc /concat ldef
/cp /closepath ldef
/gr /grestore ldef
/gs /gsave ldef
/mt /moveto ldef
/np /newpath ldef
/cm /currentmatrix ldef
/sm /setmatrix ldef
/rm /rmoveto ldef
/rl /rlineto ldef
/s {show newpath} bdef
/sc {setcmykcolor} bdef
/sr /setrgbcolor ldef
/sg /setgray ldef
/w /setlinewidth ldef
/j /setlinejoin ldef
/cap /setlinecap ldef
/rc {rectclip} bdef
/rf {rectfill} bdef
% page state control
/pgsv () def
/bpage {/pgsv save def} bdef
/epage {pgsv restore} bdef
/bplot /gsave ldef
/eplot {stroke grestore} bdef
% orientation switch
/portraitMode 0 def /landscapeMode 1 def /rotateMode 2 def
% coordinate system mappings
/dpi2point 0 def
% font control
/FontSize 0 def
/FMS {/FontSize xstore findfont [FontSize 0 0 FontSize neg 0 0]
  makefont setfont} bdef
/reencode {exch dup where {pop load} {pop StandardEncoding} ifelse
  exch dup 3 1 roll findfont dup length dict begin
  { 1 index /FID ne {def}{pop pop} ifelse } forall
  /Encoding exch def currentdict end definefont pop} bdef
/isroman {findfont /CharStrings get /Agrave known} bdef
/FMSR {3 1 roll 1 index dup isroman {reencode} {pop pop} ifelse
  exch FMS} bdef
/csm {1 dpi2point div -1 dpi2point div scale neg translate
 dup landscapeMode eq {pop -90 rotate}
  {rotateMode eq {90 rotate} if} ifelse} bdef
% line types: solid, dotted, dashed, dotdash
/SO { [] 0 setdash } bdef
/DO { [.5 dpi2point mul 4 dpi2point mul] 0 setdash } bdef
/DA { [6 dpi2point mul] 0 setdash } bdef
/DD { [.5 dpi2point mul 4 dpi2point mul 6 dpi2point mul 4
  dpi2point mul] 0 setdash } bdef
% macros for lines and objects
/L {lineto stroke} bdef
/MP {3 1 roll moveto 1 sub {rlineto} repeat} bdef
/AP {{rlineto} repeat} bdef
/PDlw -1 def
/W {/PDlw currentlinewidth def setlinewidth} def
/PP {closepath eofill} bdef
/DP {closepath stroke} bdef
/MR {4 -2 roll moveto dup  0 exch rlineto exch 0 rlineto
  neg 0 exch rlineto closepath} bdef
/FR {MR stroke} bdef
/PR {MR fill} bdef
/L1i {{currentfile picstr readhexstring pop} image} bdef
/tMatrix matrix def
/MakeOval {newpath tMatrix currentmatrix pop translate scale
0 0 1 0 360 arc tMatrix setmatrix} bdef
/FO {MakeOval stroke} bdef
/PO {MakeOval fill} bdef
/PD {currentlinewidth 2 div 0 360 arc fill
   PDlw -1 eq not {PDlw w /PDlw -1 def} if} def
/FA {newpath tMatrix currentmatrix pop translate scale
  0 0 1 5 -2 roll arc tMatrix setmatrix stroke} bdef
/PA {newpath tMatrix currentmatrix pop	translate 0 0 moveto scale
  0 0 1 5 -2 roll arc closepath tMatrix setmatrix fill} bdef
/FAn {newpath tMatrix currentmatrix pop translate scale
  0 0 1 5 -2 roll arcn tMatrix setmatrix stroke} bdef
/PAn {newpath tMatrix currentmatrix pop translate 0 0 moveto scale
  0 0 1 5 -2 roll arcn closepath tMatrix setmatrix fill} bdef
/vradius 0 def /hradius 0 def /lry 0 def
/lrx 0 def /uly 0 def /ulx 0 def /rad 0 def
/MRR {/vradius xdef /hradius xdef /lry xdef /lrx xdef /uly xdef
  /ulx xdef newpath tMatrix currentmatrix pop ulx hradius add uly
  vradius add translate hradius vradius scale 0 0 1 180 270 arc 
  tMatrix setmatrix lrx hradius sub uly vradius add translate
  hradius vradius scale 0 0 1 270 360 arc tMatrix setmatrix
  lrx hradius sub lry vradius sub translate hradius vradius scale
  0 0 1 0 90 arc tMatrix setmatrix ulx hradius add lry vradius sub
  translate hradius vradius scale 0 0 1 90 180 arc tMatrix setmatrix
  closepath} bdef
/FRR {MRR stroke } bdef
/PRR {MRR fill } bdef
/MlrRR {/lry xdef /lrx xdef /uly xdef /ulx xdef /rad lry uly sub 2 div def
  newpath tMatrix currentmatrix pop ulx rad add uly rad add translate
  rad rad scale 0 0 1 90 270 arc tMatrix setmatrix lrx rad sub lry rad
  sub translate rad rad scale 0 0 1 270 90 arc tMatrix setmatrix
  closepath} bdef
/FlrRR {MlrRR stroke } bdef
/PlrRR {MlrRR fill } bdef
/MtbRR {/lry xdef /lrx xdef /uly xdef /ulx xdef /rad lrx ulx sub 2 div def
  newpath tMatrix currentmatrix pop ulx rad add uly rad add translate
  rad rad scale 0 0 1 180 360 arc tMatrix setmatrix lrx rad sub lry rad
  sub translate rad rad scale 0 0 1 0 180 arc tMatrix setmatrix
  closepath} bdef
/FtbRR {MtbRR stroke } bdef
/PtbRR {MtbRR fill } bdef
/stri 6 array def /dtri 6 array def
/smat 6 array def /dmat 6 array def
/tmat1 6 array def /tmat2 6 array def /dif 3 array def
/asub {/ind2 exch def /ind1 exch def dup dup
  ind1 get exch ind2 get sub exch } bdef
/tri_to_matrix {
  2 0 asub 3 1 asub 4 0 asub 5 1 asub
  dup 0 get exch 1 get 7 -1 roll astore } bdef
/compute_transform {
  dmat dtri tri_to_matrix tmat1 invertmatrix 
  smat stri tri_to_matrix tmat2 concatmatrix } bdef
/ds {stri astore pop} bdef
/dt {dtri astore pop} bdef
/db {2 copy /cols xdef /rows xdef mul dup 3 mul string
  currentfile 
  3 index 0 eq {/ASCIIHexDecode filter}
  {/ASCII85Decode filter 3 index 2 eq {/RunLengthDecode filter} if }
  ifelse exch readstring pop
  dup 0 3 index getinterval /rbmap xdef
  dup 2 index dup getinterval /gbmap xdef
  1 index dup 2 mul exch getinterval /bbmap xdef pop pop}bdef
/it {gs np dtri aload pop moveto lineto lineto cp c
  cols rows 8 compute_transform 
  rbmap gbmap bbmap true 3 colorimage gr}bdef
/il {newpath moveto lineto stroke}bdef
currentdict end def
%%EndProlog

%%BeginSetup
MathWorks begin

0 cap

end
%%EndSetup

%%Page: 1 1
%%BeginPageSetup
%%PageBoundingBox:  -214   132   810   709
MathWorks begin
bpage
%%EndPageSetup

%%BeginObject: obj1
bplot

/dpi2point 12 def
portraitMode -2568 8508 csm

    0     0 12289  6914 rc
85 dict begin %Colortable dictionary
/c0 { 0.000000 0.000000 0.000000 sr} bdef
/c1 { 1.000000 1.000000 1.000000 sr} bdef
/c2 { 0.900000 0.000000 0.000000 sr} bdef
/c3 { 0.000000 0.820000 0.000000 sr} bdef
/c4 { 0.000000 0.000000 0.800000 sr} bdef
/c5 { 0.910000 0.820000 0.320000 sr} bdef
/c6 { 1.000000 0.260000 0.820000 sr} bdef
/c7 { 0.000000 0.820000 0.820000 sr} bdef
c0
1 j
1 sg
   0    0 12290 6915 rf
6 w
0 5634 9524 0 0 -5634 1598 6153 4 MP
PP
-9524 0 0 5634 9524 0 0 -5634 1598 6153 5 MP stroke
4 w
DO
0 sg
2030 6153 mt 2030  519 L
2030  519 mt 2030  519 L
3113 6153 mt 3113  519 L
3113  519 mt 3113  519 L
4195 6153 mt 4195  519 L
4195  519 mt 4195  519 L
5277 6153 mt 5277  519 L
5277  519 mt 5277  519 L
6360 6153 mt 6360  519 L
6360  519 mt 6360  519 L
7442 6153 mt 7442  519 L
7442  519 mt 7442  519 L
8524 6153 mt 8524  519 L
8524  519 mt 8524  519 L
9606 6153 mt 9606  519 L
9606  519 mt 9606  519 L
10689 6153 mt 10689  519 L
10689  519 mt 10689  519 L
1598 6153 mt 11122 6153 L
11122 6153 mt 11122 6153 L
1598 5199 mt 11122 5199 L
11122 5199 mt 11122 5199 L
1598 4246 mt 11122 4246 L
11122 4246 mt 11122 4246 L
1598 3293 mt 11122 3293 L
11122 3293 mt 11122 3293 L
1598 2340 mt 11122 2340 L
11122 2340 mt 11122 2340 L
1598 1387 mt 11122 1387 L
11122 1387 mt 11122 1387 L
SO
6 w
1598 6153 mt 11122 6153 L
1598  519 mt 11122  519 L
1598 6153 mt 1598  519 L
11122 6153 mt 11122  519 L
1598 6153 mt 11122 6153 L
1598 6153 mt 1598  519 L
2030 6153 mt 2030 6057 L
2030  519 mt 2030  614 L
%%IncludeResource: font Helvetica
/Helvetica /ISOLatin1Encoding 120 FMSR

1927 6298 mt 
(-2) s
3113 6153 mt 3113 6057 L
3113  519 mt 3113  614 L
2960 6298 mt 
(-1.5) s
4195 6153 mt 4195 6057 L
4195  519 mt 4195  614 L
4092 6298 mt 
(-1) s
5277 6153 mt 5277 6057 L
5277  519 mt 5277  614 L
5124 6298 mt 
(-0.5) s
6360 6153 mt 6360 6057 L
6360  519 mt 6360  614 L
6327 6298 mt 
(0) s
7442 6153 mt 7442 6057 L
7442  519 mt 7442  614 L
7359 6298 mt 
(0.5) s
8524 6153 mt 8524 6057 L
8524  519 mt 8524  614 L
8491 6298 mt 
(1) s
9606 6153 mt 9606 6057 L
9606  519 mt 9606  614 L
9523 6298 mt 
(1.5) s
10689 6153 mt 10689 6057 L
10689  519 mt 10689  614 L
10656 6298 mt 
(2) s
10852 6500 mt 
(x 10) s
%%IncludeResource: font Helvetica
/Helvetica /ISOLatin1Encoding 80 FMSR

11078 6426 mt 
(4) s
1598 6153 mt 1693 6153 L
11122 6153 mt 11026 6153 L
%%IncludeResource: font Helvetica
/Helvetica /ISOLatin1Encoding 120 FMSR

1497 6197 mt 
(0) s
1598 5199 mt 1693 5199 L
11122 5199 mt 11026 5199 L
1430 5243 mt 
(50) s
1598 4246 mt 1693 4246 L
11122 4246 mt 11026 4246 L
1363 4290 mt 
(100) s
1598 3293 mt 1693 3293 L
11122 3293 mt 11026 3293 L
1363 3337 mt 
(150) s
1598 2340 mt 1693 2340 L
11122 2340 mt 11026 2340 L
1363 2384 mt 
(200) s
1598 1387 mt 1693 1387 L
11122 1387 mt 11026 1387 L
1363 1431 mt 
(250) s
1598 6153 mt 11122 6153 L
1598  519 mt 11122  519 L
1598 6153 mt 1598  519 L
11122 6153 mt 11122  519 L
gs 1598 519 9525 5635 rc
/c8 { 0.000000 0.000000 1.000000 sr} bdef
c8
3 0 2 0 2 0 3 0 2 0 3 0 2 0 2 0 
3 0 2 0 2 0 3 0 2 0 3 0 2 0 2 0 
3 0 2 0 3 0 2 0 2 0 3 0 2 0 2 0 
3 0 2 0 3 0 2 0 2 0 3 0 2 0 3 0 
2 0 2 0 3 0 2 0 3 0 2 0 2 0 3 0 
2 0 2 0 3 0 2 0 3 0 2 0 2 0 3 0 
2 0 3 0 2 0 2 0 3 0 2 0 2 0 3 0 
2 0 3 0 2 0 2 0 3 0 2 0 3 0 2 0 
2 0 3 0 2 0 2 0 3 0 2 0 3 0 2 0 
2 0 3 0 2 0 3 0 2 0 2 0 3 0 2 0 
3 0 2 0 2 0 3 0 2 0 2 0 3 0 2 0 
3 0 2 0 2 1 3 -1 2 0 3 0 2 0 2 0 
3 0 2 0 2 0 3 0 2 0 3 0 2 0 2 0 
3 0 2 0 3 0 2 0 2 0 3 0 2 0 3 0 
2 0 2 0 3 0 2 0 2 0 3 0 2 0 3 0 
2 0 2 0 3 0 2 0 3 0 2 0 2 0 3 0 
2 0 2 0 3 0 2 0 3 0 2 1 2 -1 3 0 
2 0 3 0 2 0 2 0 3 0 2 1 2 -1 3 0 
2 0 3 1 2 -1 2 0 3 0 2 0 3 0 2 0 
2 0 3 0 2 0 3 0 2 0 2 0 3 0 2 0 
2 1 3 -1 2 0 3 0 2 0 2 0 3 0 2 0 
3 0 2 0 2 0 3 0 2 0 2 0 3 0 2 1 
3 -1 2 0 2 0 3 0 2 0 3 0 2 1 2 -1 
3 0 2 0 2 0 3 0 2 0 3 0 2 0 2 0 
3 0 2 0 3 0 2 0 2 0 3 0 2 0 3 0 
2 0 2 0 3 0 2 0 2 0 3 0 2 0 3 0 
2 0 2 0 3 1 2 -1 3 1 2 -1 2 0 3 0 
2 0 2 0 3 0 2 0 3 0 2 0 2 0 3 0 
2 0 3 0 2 0 2 0 3 0 2 0 2 0 3 0 
2 0 3 0 2 0 2 0 3 0 2 0 3 0 2 0 
2 0 3 0 2 0 3 0 2 0 2 0 3 0 2 0 
2 0 3 0 2 0 3 0 2 0 2 0 3 0 2 0 
3 0 2 0 2 1 3 -1 2 0 2 0 3 0 2 0 
3 0 2 0 2 0 3 0 2 0 3 0 2 0 2 1 
3 -1 2 0 2 0 3 0 2 0 3 0 2 0 2 0 
3 0 2 0 3 0 2 0 2 0 3 0 2 0 3 0 
2 0 2 0 3 0 2 0 2 0 3 0 2 0 3 0 
2 0 2 0 3 0 10409 6150 300 MP stroke
2 0 3 0 2 0 2 0 3 0 2 0 2 0 3 0 
2 0 3 0 2 0 2 0 3 0 2 0 3 0 2 0 
2 0 3 0 2 0 2 0 3 1 2 -1 3 0 2 1 
2 -1 3 0 2 0 3 0 2 0 2 0 3 0 2 0 
3 0 2 0 2 0 3 0 2 0 2 0 3 0 2 0 
3 0 2 0 2 0 3 0 2 0 3 0 2 0 2 0 
3 0 2 0 2 0 3 0 2 0 3 0 2 0 2 0 
3 1 2 -1 3 0 2 0 2 0 3 0 2 0 2 1 
3 -1 2 0 3 1 2 -1 2 0 3 0 2 0 3 0 
2 0 2 0 3 0 2 0 3 0 2 0 2 0 3 0 
2 0 2 0 3 0 2 1 3 -1 2 0 2 0 3 0 
2 0 3 0 2 0 2 0 3 0 2 1 2 -1 3 0 
2 0 3 0 2 1 2 -1 3 0 2 0 3 0 2 1 
2 -1 3 0 2 0 2 0 3 0 2 0 3 0 2 0 
2 0 3 0 2 0 3 0 2 0 2 0 3 1 2 -1 
3 1 2 -1 2 0 3 0 2 0 2 0 3 0 2 0 
3 1 2 -1 2 0 3 0 2 0 3 0 2 0 2 0 
3 0 2 0 2 0 3 0 2 0 3 1 2 0 2 -1 
3 0 2 1 3 -1 2 0 2 0 3 0 2 0 2 1 
3 -1 2 0 3 0 2 0 2 1 3 -1 2 0 3 0 
2 0 2 0 3 1 2 -1 3 1 2 -1 2 0 3 0 
2 0 2 0 3 0 2 0 3 0 2 0 2 0 3 0 
2 0 3 0 2 1 2 -1 3 0 2 0 2 0 3 1 
2 0 3 -1 2 0 2 0 3 1 2 0 3 -1 2 0 
2 1 3 -1 2 0 2 0 3 0 2 0 3 1 2 -1 
2 0 3 1 2 -1 3 1 2 -1 2 1 3 -1 2 1 
3 -1 2 0 2 1 3 -1 2 1 2 0 3 -1 2 0 
3 1 2 0 2 0 3 -1 2 0 3 1 2 0 2 0 
3 -1 2 0 2 0 3 0 2 0 3 1 2 -1 2 0 
3 1 2 0 3 0 2 0 2 -1 3 1 2 0 2 -1 
3 0 2 1 3 0 2 0 2 -1 3 0 2 0 3 1 
2 0 2 -1 3 1 2 -1 3 0 2 1 2 -1 3 0 
2 0 2 0 3 0 2 0 3 0 2 1 2 -1 3 0 
2 0 3 0 2 0 2 1 3 -1 2 0 2 0 3 0 
2 0 3 0 2 0 2 1 3 -1 2 0 3 1 2 -1 
2 0 3 1 2 0 3 -1 2 0 2 0 3 0 2 0 
2 1 3 -1 2 0 3 0 2 0 2 0 3 1 2 0 
3 -1 2 1 2 0 9696 6149 300 MP stroke
3 0 2 0 2 -1 3 1 2 0 3 -1 2 0 2 1 
3 0 2 -1 3 0 2 0 2 1 3 -1 2 1 2 -1 
3 0 2 1 3 0 2 -1 2 0 3 0 2 0 3 0 
2 1 2 0 3 -1 2 1 3 0 2 -1 2 1 3 -1 
2 0 2 1 3 0 2 0 3 -1 2 0 2 0 3 0 
2 0 3 1 2 0 2 -1 3 1 2 -1 2 1 3 -1 
2 1 3 0 2 -1 2 0 3 0 2 0 3 1 2 0 
2 0 3 -1 2 1 2 0 3 0 2 0 3 -1 2 1 
2 -1 3 0 2 1 3 -1 2 0 2 0 3 1 2 0 
3 0 2 -1 2 1 3 0 2 -1 2 1 3 0 2 -1 
3 1 2 0 2 0 3 0 2 0 3 0 2 -1 2 1 
3 0 2 -1 2 0 3 0 2 1 3 0 2 0 2 -1 
3 0 2 1 3 -1 2 1 2 0 3 -1 2 1 2 0 
3 0 2 0 3 0 2 -1 2 0 3 1 2 0 3 -1 
2 1 2 0 3 0 2 0 3 0 2 0 2 -1 3 1 
2 -1 2 1 3 0 2 0 3 -1 2 1 2 -1 3 1 
2 -1 3 1 2 -1 2 0 3 1 2 0 2 0 3 0 
2 -1 3 1 2 0 2 0 3 0 2 0 3 -1 2 1 
2 0 3 -1 2 1 2 0 3 0 2 -1 3 1 2 -1 
2 1 3 0 2 0 3 0 2 0 2 0 3 0 2 0 
3 0 2 0 2 -1 3 1 2 -1 2 1 3 -1 2 1 
3 0 2 0 2 0 3 0 2 0 3 0 2 0 2 0 
3 0 2 0 2 0 3 0 2 0 3 0 2 0 2 -1 
3 1 2 -1 3 1 2 0 2 0 3 0 2 0 2 0 
3 0 2 0 3 0 2 0 2 0 3 0 2 0 3 0 
2 0 2 0 3 0 2 0 3 0 2 0 2 0 3 0 
2 0 2 -1 3 1 2 -1 3 1 2 0 2 0 3 0 
2 0 3 0 2 0 2 0 3 0 2 -1 2 1 3 -1 
2 1 3 0 2 -1 2 1 3 0 2 0 3 0 2 0 
2 0 3 0 2 0 2 0 3 0 2 0 3 -1 2 1 
2 0 3 0 2 0 3 0 2 0 2 0 3 0 2 0 
3 0 2 0 2 0 3 0 2 -1 2 1 3 0 2 0 
3 0 2 0 2 0 3 0 2 0 3 0 2 0 2 0 
3 0 2 0 2 0 3 0 2 0 3 0 2 0 2 0 
3 0 2 0 3 0 2 0 2 0 3 0 2 -1 2 1 
3 0 2 0 3 0 2 0 2 0 3 0 2 0 3 0 
2 0 2 0 3 0 2 0 3 0 2 0 2 0 3 0 
2 0 2 0 3 0 8982 6149 300 MP stroke
2 0 3 0 2 0 2 0 3 0 2 0 3 0 2 0 
2 0 3 0 2 0 2 0 3 0 2 0 3 0 2 0 
2 0 3 0 2 0 3 0 2 0 2 0 3 0 2 0 
2 0 3 0 2 0 3 0 2 0 2 0 3 0 2 0 
3 0 2 0 2 0 3 0 2 0 3 0 2 0 2 0 
3 0 2 0 2 0 3 0 2 1 3 -1 2 0 2 0 
3 0 2 0 3 0 2 0 2 0 3 0 2 0 2 0 
3 0 2 0 3 0 2 0 2 0 3 0 2 0 3 0 
2 0 2 0 3 1 2 -1 2 0 3 0 2 0 3 0 
2 0 2 0 3 0 2 0 3 0 2 0 2 0 3 0 
2 0 3 0 2 0 2 0 3 0 2 0 2 1 3 0 
2 -1 3 0 2 0 2 0 3 0 2 0 3 0 2 0 
2 0 3 0 2 1 2 -1 3 1 2 -1 3 0 2 1 
2 0 3 -1 2 0 3 0 2 0 2 0 3 0 2 0 
2 0 3 0 2 0 3 0 2 0 2 1 3 -1 2 0 
3 1 2 -1 2 1 3 -1 2 1 3 -1 2 0 2 0 
3 0 2 0 2 0 3 0 2 0 3 0 2 0 2 1 
3 -1 2 0 3 0 2 1 2 -1 3 0 2 0 2 0 
3 0 2 1 3 -1 2 1 2 -1 3 0 2 0 3 0 
2 0 2 1 3 -1 2 1 3 -1 2 0 2 1 3 -1 
2 0 2 0 3 0 2 1 3 -1 2 0 2 0 3 0 
2 0 3 1 2 -1 2 0 3 0 2 0 2 0 3 0 
2 1 3 -1 2 0 2 0 3 1 2 -1 3 1 2 -1 
2 0 3 1 2 0 2 -1 3 1 2 -1 3 1 2 -1 
2 1 3 0 2 -1 3 1 2 0 2 0 3 0 2 -1 
3 0 2 1 2 -1 3 1 2 -1 2 0 3 0 2 0 
3 0 2 1 2 0 3 -1 2 1 3 0 2 0 2 0 
3 -1 2 1 2 -1 3 1 2 0 3 0 2 -1 2 1 
3 0 2 -1 3 0 2 0 2 1 3 -1 2 1 2 -1 
3 0 2 1 3 -1 2 0 2 1 3 0 2 -1 3 1 
2 0 2 0 3 -1 2 1 3 -1 2 2 2 -2 3 1 
2 -1 2 1 3 -1 2 1 3 -1 2 1 2 0 3 -1 
2 1 3 0 2 0 2 0 3 0 2 0 2 0 3 0 
2 0 3 0 2 0 2 0 3 0 2 0 3 0 2 0 
2 0 3 0 2 0 2 0 3 0 2 0 3 0 2 -1 
2 1 3 0 2 0 3 0 2 0 2 -1 3 1 2 0 
3 0 2 0 2 0 3 1 2 -1 2 -1 3 2 2 -2 
3 1 2 0 2 0 8269 6148 300 MP stroke
3 0 2 0 3 0 2 0 2 0 3 0 2 0 2 0 
3 0 2 0 3 0 2 0 2 0 3 0 2 0 3 0 
2 0 2 0 3 0 2 0 2 0 3 0 2 1 3 -2 
2 1 2 0 3 0 2 0 3 0 2 0 2 0 3 -1 
2 2 3 0 2 0 2 -1 3 0 2 0 2 0 3 0 
2 0 3 0 2 0 2 0 3 0 2 0 3 0 2 1 
2 -1 3 0 2 0 2 1 3 0 2 -1 3 0 2 0 
2 0 3 0 2 0 3 0 2 0 2 0 3 0 2 1 
2 0 3 -1 2 0 3 0 2 1 2 0 3 -1 2 0 
3 1 2 -1 2 0 3 1 2 -1 3 1 2 -1 2 0 
3 1 2 -1 2 0 3 1 2 0 3 -1 2 0 2 0 
3 0 2 1 3 -1 2 0 2 1 3 -1 2 1 2 0 
3 0 2 -1 3 0 2 1 2 -1 3 1 2 -1 3 2 
2 -2 2 1 3 0 2 -1 2 1 3 -1 2 1 3 -1 
2 0 2 1 3 -2 2 1 3 2 2 -2 2 1 3 0 
2 -1 3 1 2 0 2 0 3 0 2 0 2 0 3 0 
2 -1 3 0 2 1 2 0 3 0 2 0 3 0 2 0 
2 0 3 0 2 0 2 -1 3 1 2 -1 3 1 2 0 
2 0 3 0 2 0 3 1 2 -2 2 1 3 0 2 0 
2 0 3 0 2 0 3 0 2 0 2 0 3 0 2 0 
3 0 2 0 2 -1 3 2 2 -1 3 1 2 1 2 -3 
3 1 2 -1 2 3 3 -3 2 1 3 -1 2 2 2 0 
3 -1 2 0 3 -2 2 3 2 4 3 -1 2 -5 2 4 
3 -4 2 3 3 -1 2 -1 2 0 3 1 2 -1 3 1 
2 -1 2 0 3 -2 2 5 2 -3 3 -1 2 8 3 -2 
2 2 2 -9 3 6 2 -5 3 4 2 -4 2 7 3 -7 
2 1 3 2 2 -2 2 1 3 -1 2 1 2 2 3 -5 
2 3 3 -1 2 1 2 0 3 0 2 -1 3 1 2 1 
2 -1 3 1 2 -3 2 2 3 0 2 0 3 -1 2 -1 
2 3 3 -3 2 1 3 0 2 1 2 2 3 -5 2 5 
2 -5 3 7 2 -9 3 7 2 -3 2 0 3 0 2 0 
3 1 2 -2 2 2 3 -1 2 0 3 2 2 -3 2 2 
3 1 2 -3 2 3 3 0 2 -3 3 4 2 -2 2 0 
3 0 2 0 3 -1 2 2 2 -1 3 -1 2 1 2 1 
3 -3 2 5 3 -4 2 0 2 3 3 -1 2 -4 3 5 
2 -2 2 0 3 0 2 0 2 2 3 -3 2 2 3 -1 
2 2 2 -1 3 0 2 0 3 0 2 0 2 0 3 0 
2 -1 3 2 2 -3 7555 6147 300 MP stroke
2 1 3 0 2 0 2 1 3 -1 2 4 3 -3 2 1 
2 1 3 -3 2 3 3 5 2 -6 2 -4 3 4 2 -2 
2 -3 3 7 2 -5 3 4 2 -1 2 0 3 -1 2 -1 
3 2 2 1 2 -6 3 5 2 -1 3 -1 2 1 2 0 
3 0 2 0 2 -2 3 2 2 0 3 0 2 0 2 -1 
3 1 2 -3 3 3 2 0 2 0 3 0 2 -1 2 3 
3 -3 2 0 3 2 2 -2 2 2 3 -1 2 -2 3 6 
2 -5 2 1 3 2 2 -2 2 2 3 -3 2 3 3 -4 
2 3 2 0 3 0 2 0 3 1 2 -3 2 1 3 1 
2 -1 3 2 2 -2 2 1 3 2 2 -4 2 11 3 -9 
2 -1 3 3 2 -2 2 0 3 1 2 -4 3 4 2 2 
2 -1 3 -2 2 1 2 0 3 -2 2 1 3 2 2 -2 
2 -1 3 2 2 -2 3 1 2 1 2 -1 3 -1 2 -1 
2 3 3 0 2 -1 3 1 2 -3 2 2 3 2 2 -2 
3 -1 2 1 2 3 3 -3 2 -1 3 1 2 0 2 2 
3 -4 2 1 2 6 3 -6 2 -2 3 15 2 -1 2 29 
3 32 2 -61 3 8 2 -11 2 -8 3 5 2 -1 2 -2 
3 -1 2 -1 3 3 2 0 2 -4 3 3 2 1 3 -2 
2 1 2 0 3 0 2 -1 2 2 3 0 2 -2 3 -1 
2 2 2 0 3 1 2 -1 3 -2 2 4 2 3 3 -5 
2 -5 3 8 2 0 2 -8 3 5 2 -1 2 4 3 -5 
2 -4 3 12 2 2 2 -9 3 12 2 0 3 -1 2 95 
2 85 3 -150 2 4 2 -32 3 -15 2 12 3 0 2 1 
2 -9 3 2 2 3 3 3 2 -5 2 -4 3 5 2 0 
2 -2 3 -2 2 4 3 1 2 2 2 -12 3 15 2 -11 
3 0 2 13 2 -6 3 0 2 5 3 -6 2 3 2 -5 
3 1 2 -1 2 3 3 -5 2 2 3 2 2 3 2 5 
3 -10 2 10 3 14 2 0 2 5 3 -39 2 58 2 141 
3 71 2 -233 3 -17 2 -7 2 2 3 -12 2 3 3 1 
2 1 2 -5 3 9 2 -2 2 -2 3 -4 2 1 3 6 
2 -2 2 1 3 -1 2 8 3 -5 2 26 2 -28 3 -13 
2 14 3 5 2 -4 2 4 3 -17 2 18 2 -8 3 -3 
2 -2 3 9 2 -5 2 21 3 -12 2 -10 3 16 2 3 
2 -17 3 -1 2 9 2 -7 3 -2 2 11 3 54 2 -12 
2 -30 3 -7 2 -16 3 -4 2 9 2 6 3 -19 2 9 
2 4 3 39 2 -6 3 -40 2 40 2 -25 3 -11 2 4 
3 15 2 -22 2 3 3 5 2 4 3 -3 2 13 2 -17 
3 9 2 -13 2 4 6842 6136 300 MP stroke
3 19 2 -28 3 6 2 12 2 -3 3 2 2 0 3 1 
2 0 2 1 3 -10 2 6 2 2 3 1 2 -12 3 5 
2 35 2 -18 3 50 2 6 3 -66 2 -20 2 15 3 43 
2 -46 2 3 3 8 2 24 3 -18 2 -24 2 60 3 -64 
2 26 3 0 2 -22 2 20 3 -7 2 26 3 -28 2 4 
2 2 3 87 2 -69 2 -15 3 -8 2 2 3 -22 2 23 
2 5 3 -6 2 -4 3 12 2 12 2 0 3 -17 2 1 
2 2 3 -17 2 6 3 31 2 6 2 -8 3 14 2 79 
3 410 2 228 2 -689 3 27 2 -15 2 -45 3 2 2 -4 
3 -5 2 7 2 11 3 60 2 26 3 -145 2 26 2 -1 
3 -20 2 24 3 14 2 -10 2 -2 3 8 2 23 2 61 
3 -29 2 -42 3 -49 2 21 2 2 3 -1 2 5 3 29 
2 -48 2 78 3 106 2 141 2 -191 3 -96 2 -45 3 51 
2 20 2 -49 3 -17 2 68 3 31 2 -98 2 59 3 -39 
2 17 2 -29 3 12 2 14 3 -15 2 16 2 4 3 -34 
2 6 3 137 2 92 2 -154 3 44 2 -88 3 9 2 8 
2 28 3 3 2 -73 2 110 3 -50 2 86 3 -92 2 -42 
2 96 3 -16 2 -59 3 93 2 12 2 -74 3 120 2 38 
2 517 3 -68 2 -333 3 -281 2 120 2 50 3 -63 2 142 
3 91 2 -96 2 431 3 2737 2 2128 2 -4512 3 -546 2 146 
3 -507 2 49 2 11 3 -8 2 -166 3 44 2 8 2 461 
3 -337 2 41 3 -162 2 -27 2 137 3 -6 2 -213 2 237 
3 207 2 -262 3 2364 2 -437 2 -1971 3 239 2 -309 3 61 
2 -112 2 -20 3 262 2 -203 2 -25 3 496 2 -127 3 -430 
2 63 2 -65 3 80 2 -58 3 -21 2 16 2 -25 3 -3 
2 2 3 -1 2 1 2 -2 3 3 2 25 2 -16 3 21 
2 58 3 -80 2 65 2 -63 3 430 2 127 3 -496 2 25 
2 203 3 -262 2 20 2 112 3 -61 2 309 3 -239 2 1971 
2 437 3 -2364 2 262 3 -207 2 -237 2 213 3 6 2 -137 
2 27 3 162 2 -41 3 337 2 -461 2 -8 3 -44 2 166 
3 8 2 -11 2 -49 3 507 2 -146 3 546 2 4512 2 -2128 
3 -2737 2 -431 2 96 3 -91 2 -142 3 63 2 -50 2 -120 
3 281 2 333 3 68 2 -517 2 -38 3 -120 2 74 2 -12 
3 -93 2 59 3 16 2 -96 2 42 3 92 2 -86 3 50 
2 -110 2 73 3 -3 2 -28 2 -8 3 -9 2 88 3 -44 
2 154 2 -92 3 -137 2 -6 3 34 2 -4 2 -16 3 15 
2 -14 3 -12 2 29 2 -17 3 39 2 -59 2 98 3 -31 
2 -68 3 17 2 49 6128 6068 300 MP stroke
2 -20 3 -51 2 45 3 96 2 191 2 -141 3 -106 2 -78 
2 48 3 -29 2 -5 3 1 2 -2 2 -21 3 49 2 42 
3 29 2 -61 2 -23 3 -8 2 2 2 10 3 -14 2 -24 
3 20 2 1 2 -26 3 145 2 -26 3 -60 2 -11 2 -7 
3 5 2 4 3 -2 2 45 2 15 3 -27 2 689 2 -228 
3 -410 2 -79 3 -14 2 8 2 -6 3 -31 2 -6 3 17 
2 -2 2 -1 3 17 2 0 2 -12 3 -12 2 4 3 6 
2 -5 2 -23 3 22 2 -2 3 8 2 15 2 69 3 -87 
2 -2 2 -4 3 28 2 -26 3 7 2 -20 2 22 3 0 
2 -26 3 64 2 -60 2 24 3 18 2 -24 3 -8 2 -3 
2 46 3 -43 2 -15 2 20 3 66 2 -6 3 -50 2 18 
2 -35 3 -5 2 12 3 -1 2 -2 2 -6 3 10 2 -1 
2 0 3 -1 2 0 3 -2 2 3 2 -12 3 -6 2 28 
3 -19 2 -4 2 13 3 -9 2 17 2 -13 3 3 2 -4 
3 -5 2 -3 2 22 3 -15 2 -4 3 11 2 25 2 -40 
3 40 2 6 3 -39 2 -4 2 -9 3 19 2 -6 2 -9 
3 4 2 16 3 7 2 30 2 12 3 -54 2 -11 3 2 
2 7 2 -9 3 1 2 17 2 -3 3 -16 2 10 3 12 
2 -21 2 5 3 -9 2 2 3 3 2 8 2 -18 3 17 
2 -4 2 4 3 -5 2 -14 3 13 2 28 2 -26 3 5 
2 -8 3 1 2 -1 2 2 3 -6 2 -1 3 4 2 2 
2 2 3 -9 2 5 2 -1 3 -1 2 -3 3 12 2 -2 
2 7 3 17 2 233 3 -71 2 -141 2 -58 3 39 2 -5 
2 0 3 -14 2 -10 3 10 2 -5 2 -3 3 -2 2 -2 
3 5 2 -3 2 1 3 -1 2 5 2 -3 3 6 2 -5 
3 0 2 6 2 -13 3 0 2 11 3 -15 2 12 2 -2 
3 -1 2 -4 3 2 2 2 2 0 3 -5 2 4 2 5 
3 -3 2 -3 3 -2 2 9 2 -1 3 0 2 -12 3 15 
2 32 2 -4 3 150 2 -85 2 -95 3 1 2 0 3 -12 
2 9 2 -2 3 -12 2 4 3 5 2 -4 2 1 3 -5 
2 8 2 0 3 -8 2 5 3 5 2 -3 2 -4 3 2 
2 1 3 -1 2 0 2 -2 3 1 2 2 3 0 2 -2 
2 1 3 0 2 0 2 -1 3 2 2 -1 3 -3 2 4 
2 0 3 -3 2 1 3 1 2 2 2 1 3 -5 2 8 
2 11 3 -8 2 61 3 -32 2 -29 2 1 3 -15 2 2 
3 6 2 -6 2 -1 3 4 2 -2 2 0 3 -1 2 1 
3 3 2 -3 2 -1 3 1 2 2 3 -2 2 -2 2 3 
3 -1 2 1 3 0 5414 6143 300 MP stroke
2 -3 2 1 3 1 2 1 2 -1 3 -1 2 2 3 -2 
2 1 2 2 3 -2 2 -1 3 2 2 0 2 -1 3 2 
2 1 2 -2 3 -4 2 4 3 -1 2 0 2 2 3 -3 
2 1 3 9 2 -11 2 4 3 -2 2 -1 2 2 3 -2 
2 1 3 -1 2 -1 2 3 3 -1 2 0 3 0 2 0 
2 -3 3 4 2 -3 3 3 2 -2 2 2 3 -2 2 -1 
2 5 3 -6 2 2 3 1 2 -2 2 2 3 -2 2 0 
3 3 2 -3 2 1 3 0 2 0 2 0 3 -3 2 3 
3 -1 2 1 2 0 3 0 2 0 3 -2 2 2 2 0 
3 0 2 0 2 -1 3 1 2 1 3 -5 2 6 2 -1 
3 -2 2 1 3 1 2 0 2 1 3 -4 2 5 3 -7 
2 3 2 2 3 -4 2 4 2 6 3 -5 2 -3 3 3 
2 -1 2 -1 3 3 2 -4 3 1 2 -1 2 0 3 0 
2 -1 2 3 3 -2 2 1 3 0 2 0 2 0 3 0 
2 0 3 0 2 1 2 -2 3 1 2 -2 3 3 2 -2 
2 0 3 0 2 0 2 2 3 -5 2 4 3 1 2 -3 
2 0 3 4 2 -5 3 3 2 -1 2 -1 3 1 2 1 
2 -2 3 1 2 0 3 0 2 0 2 2 3 -4 2 3 
3 0 2 -3 2 3 3 -1 2 -2 2 3 3 -2 2 0 
3 1 2 -2 2 2 3 -1 2 0 3 0 2 0 2 3 
3 -7 2 9 3 -7 2 5 2 -5 3 5 2 -2 2 -1 
3 0 2 -1 3 3 2 -3 2 1 3 1 2 0 3 0 
2 -2 2 3 3 -1 2 1 2 -1 3 -1 2 1 3 0 
2 0 2 -1 3 1 2 -3 3 5 2 -2 2 -1 3 1 
2 -1 2 2 3 -2 2 -1 3 7 2 -7 2 4 3 -4 
2 5 3 -6 2 9 2 -2 3 2 2 -8 3 1 2 3 
2 -5 3 2 2 0 2 1 3 -1 2 1 3 -1 2 0 
2 1 3 1 2 -3 3 4 2 -4 2 5 3 1 2 -4 
2 -3 3 2 2 0 3 1 2 0 2 -2 3 1 2 -1 
3 3 2 -3 2 1 3 -1 2 3 2 -1 3 -1 2 1 
3 -2 2 1 2 0 3 0 2 0 3 0 2 0 2 0 
3 0 2 0 3 0 2 0 2 0 3 0 2 -1 2 2 
3 -1 2 0 3 0 2 0 2 0 3 -1 2 1 3 -1 
2 1 2 0 3 0 2 0 2 0 3 0 2 0 3 0 
2 0 2 -1 3 0 2 1 3 0 2 0 2 0 3 0 
2 0 2 0 3 -1 2 1 3 0 2 -1 2 2 3 -2 
2 -1 3 2 2 -1 2 0 3 1 2 -1 3 1 2 -1 
2 1 3 0 2 -1 4701 6148 300 MP stroke
2 2 3 -2 2 1 3 -1 2 1 2 -1 3 0 2 1 
3 0 2 0 2 -1 3 1 2 -1 2 0 3 1 2 -1 
3 0 2 0 2 0 3 1 2 0 3 -1 2 0 2 1 
3 -1 2 0 2 1 3 -1 2 1 3 -1 2 0 2 1 
3 -1 2 0 3 1 2 0 2 -1 3 0 2 0 3 1 
2 0 2 -1 3 0 2 0 2 0 3 0 2 0 3 0 
2 0 2 0 3 0 2 1 3 0 2 -1 2 0 3 0 
2 1 2 -1 3 0 2 0 3 0 2 0 2 0 3 0 
2 0 3 0 2 0 2 0 3 0 2 1 2 0 3 0 
2 -2 3 1 2 0 2 0 3 0 2 0 3 0 2 0 
2 -1 3 2 2 -1 3 0 2 0 2 0 3 0 2 0 
2 0 3 0 2 0 3 0 2 0 2 0 3 0 2 0 
3 0 2 0 2 0 3 0 2 0 2 0 3 0 2 0 
3 0 2 0 2 0 3 -1 2 2 3 -2 2 1 2 1 
3 -1 2 0 2 0 3 0 2 0 3 -1 2 1 2 0 
3 0 2 0 3 0 2 -1 2 1 3 0 2 0 3 0 
2 0 2 0 3 0 2 0 2 0 3 0 2 0 3 0 
2 0 2 0 3 0 2 0 3 0 2 0 2 0 3 0 
2 0 2 0 3 0 2 -1 3 1 2 0 2 -1 3 1 
2 -1 3 1 2 -1 2 1 3 -1 2 2 2 -2 3 1 
2 -1 3 1 2 0 2 0 3 -1 2 1 3 0 2 -1 
2 0 3 1 2 -1 3 0 2 1 2 -1 3 1 2 -1 
2 0 3 0 2 1 3 0 2 -1 2 1 3 0 2 0 
3 -1 2 1 2 -1 3 1 2 0 2 0 3 0 2 -1 
3 1 2 0 2 -1 3 0 2 0 3 0 2 0 2 1 
3 -1 2 1 2 -1 3 0 2 1 3 0 2 0 2 0 
3 -1 2 1 3 0 2 -1 2 1 3 -1 2 1 3 -1 
2 1 2 0 3 -1 2 0 2 1 3 -1 2 1 3 -1 
2 0 2 0 3 1 2 -1 3 0 2 0 2 0 3 0 
2 0 2 1 3 -1 2 0 3 0 2 0 2 0 3 1 
2 -1 3 0 2 0 2 0 3 1 2 -1 2 0 3 1 
2 -1 3 1 2 -1 2 0 3 0 2 0 3 0 2 1 
2 -1 3 1 2 -1 3 0 2 0 2 0 3 0 2 1 
2 -1 3 0 2 0 3 1 2 -1 2 0 3 0 2 0 
3 0 2 0 2 0 3 0 2 0 2 0 3 1 2 -1 
3 1 2 -1 2 1 3 -1 2 0 3 1 2 -1 2 0 
3 0 2 0 3 0 2 0 2 0 3 0 2 0 2 0 
3 0 2 0 3 1 3987 6148 300 MP stroke
2 0 2 -1 3 0 2 1 3 -1 2 1 2 -1 3 0 
2 0 2 0 3 0 2 0 3 0 2 0 2 0 3 0 
2 1 3 0 2 -1 2 0 3 0 2 0 2 0 3 0 
2 0 3 0 2 0 2 0 3 0 2 0 3 0 2 0 
2 0 3 0 2 0 3 0 2 0 2 1 3 -1 2 0 
2 0 3 0 2 0 3 0 2 0 2 0 3 0 2 0 
3 0 2 0 2 0 3 0 2 0 2 0 3 0 2 0 
3 0 2 0 2 0 3 1 2 -1 3 0 2 0 2 0 
3 0 2 0 2 0 3 0 2 0 3 0 2 0 2 0 
3 0 2 0 3 0 2 0 2 0 3 0 2 0 3 0 
2 0 2 0 3 0 2 0 2 0 3 0 2 0 3 0 
2 0 2 0 3 0 2 0 3 0 2 0 2 0 3 0 
2 0 2 0 3 0 2 0 3 0 2 0 2 0 3 0 
2 0 3 0 2 0 2 0 3 0 2 0 2 0 3 0 
2 0 3 0 2 0 2 0 3 0 2 0 3 0 2 0 
2 0 3 0 2 0 3 0 2 -1 2 1 3 0 2 0 
2 0 3 0 2 0 3 0 2 0 2 0 3 0 2 0 
3 0 2 0 2 0 3 0 2 0 2 0 3 0 2 0 
3 0 2 0 2 0 3 0 2 0 3 0 2 -1 2 1 
3 0 2 0 2 0 3 0 2 0 3 0 2 0 2 0 
3 0 2 0 3 0 2 0 2 -1 3 1 2 0 3 0 
2 0 2 0 3 0 2 0 2 0 3 0 2 0 3 0 
2 -1 2 1 3 0 2 -1 3 1 2 -1 2 1 3 0 
2 0 2 0 3 0 2 0 3 0 2 0 2 0 3 -1 
2 1 3 -1 2 1 2 0 3 0 2 0 2 0 3 0 
2 0 3 0 2 0 2 0 3 0 2 0 3 0 2 0 
2 0 3 0 2 0 3 0 2 0 2 0 3 0 2 0 
2 0 3 -1 2 1 3 -1 2 1 2 0 3 0 2 0 
3 0 2 0 2 0 3 0 2 0 2 0 3 0 2 0 
3 0 2 0 2 0 3 0 2 -1 3 1 2 -1 2 1 
3 -1 2 1 2 0 3 0 2 0 3 0 2 0 2 0 
3 0 2 0 3 0 2 -1 2 1 3 -1 2 1 3 0 
2 0 2 -1 3 1 2 0 2 -1 3 1 2 0 3 0 
2 0 2 0 3 -1 2 1 3 0 2 0 2 0 3 -1 
2 0 2 1 3 -1 2 1 3 -1 2 1 2 -1 3 1 
2 0 3 0 2 -1 2 1 3 -1 2 1 2 0 3 0 
2 0 3 0 2 0 2 -1 3 1 2 0 3 -1 2 0 
2 1 3 0 2 0 3274 6149 300 MP stroke
3 0 2 0 2 -1 3 1 2 0 2 -1 3 1 2 -1 
3 0 2 1 2 0 3 0 2 -1 3 0 2 0 2 1 
3 0 2 -1 2 1 3 0 2 0 3 0 2 0 2 0 
3 -1 2 1 3 0 2 -1 2 1 3 0 2 -1 2 1 
3 0 2 0 3 -1 2 0 2 0 3 1 2 -1 3 0 
2 1 2 -1 3 1 2 0 3 0 2 0 2 -1 3 1 
2 0 2 0 3 -1 2 0 3 0 2 0 2 1 3 0 
2 -1 3 1 2 -1 2 1 3 -1 2 1 2 0 3 -1 
2 0 3 0 2 0 2 0 3 1 2 0 3 0 2 -1 
2 0 3 1 2 -1 2 1 3 0 2 -1 3 1 2 0 
2 -1 3 0 2 0 3 0 2 0 2 1 3 0 2 -1 
3 0 2 1 2 -1 3 1 2 -1 2 0 3 0 2 1 
3 0 2 -1 2 0 3 1 2 0 3 -1 2 1 2 0 
3 0 2 0 2 -1 3 1 2 0 3 -1 2 0 2 0 
3 0 2 0 3 1 2 -1 2 0 3 0 2 0 2 0 
3 1 2 0 3 -1 2 0 2 1 3 -1 2 0 3 1 
2 -1 2 0 3 0 2 0 3 0 2 0 2 0 3 1 
2 -1 2 0 3 0 2 0 3 0 2 1 2 -1 3 0 
2 0 3 0 2 0 2 0 3 0 2 1 2 -1 3 0 
2 1 3 -1 2 1 2 0 3 -1 2 0 3 0 2 1 
2 0 3 0 2 -1 3 0 2 1 2 0 3 -1 2 1 
2 0 3 0 2 0 3 -1 2 0 2 1 3 -1 2 0 
3 0 2 0 2 0 3 1 2 0 2 0 3 -1 2 0 
3 1 2 0 2 0 3 -1 2 0 3 1 2 0 2 -1 
3 1 2 -1 2 0 3 1 2 -1 3 1 2 -1 2 1 
3 -1 2 1 3 -1 2 0 2 1 3 -1 2 0 3 0 
2 0 2 0 3 1 2 -1 2 0 3 1 2 0 3 -1 
2 0 2 0 3 1 2 0 3 -1 2 0 2 0 3 0 
2 1 2 -1 3 0 2 0 3 0 2 0 2 0 3 0 
2 0 3 0 2 0 2 0 3 0 2 0 2 1 3 -1 
2 1 3 -1 2 0 2 0 3 0 2 0 3 1 2 -1 
2 0 3 0 2 0 3 1 2 -1 2 0 3 0 2 0 
2 0 3 1 2 -1 3 0 2 1 2 0 3 -1 2 0 
3 0 2 0 2 0 3 0 2 0 2 0 3 0 2 0 
3 0 2 0 2 1 3 -1 2 0 3 0 2 0 2 0 
3 0 2 0 2 1 3 -1 2 1 3 -1 2 0 2 0 
3 0 2 0 3 0 2 0 2 0 3 0 2 0 3 0 
2 0 2 0 3 0 2560 6150 300 MP stroke
2 1 2 -1 3 0 2 0 3 0 2 1 2 -1 3 0 
2 0 3 0 2 1 2 -1 3 0 2 0 2 0 3 0 
2 0 3 0 2 0 2 0 3 1 2 -1 3 0 2 0 
2 0 3 0 2 0 2 0 3 0 2 0 3 0 2 0 
2 0 3 0 2 0 3 0 2 0 2 1 3 -1 2 0 
3 1 2 -1 2 0 3 0 2 0 2 0 3 0 2 1 
3 -1 2 0 2 0 3 0 2 0 3 0 2 0 2 0 
3 0 2 0 2 0 3 0 2 0 3 0 2 0 2 0 
3 0 2 0 3 0 2 0 2 0 3 0 2 0 2 0 
3 0 2 0 3 0 2 0 2 0 3 0 2 0 3 0 
2 1 2 -1 3 0 2 1 3 -1 2 0 2 0 3 0 
2 0 2 0 3 0 2 0 3 0 2 0 2 0 3 0 
2 0 3 0 2 0 2 0 3 0 2 0 2 0 3 0 
2 0 3 0 2 0 2 0 3 0 2 0 3 0 2 0 
2 0 3 0 2 0 2 0 3 0 2 0 3 0 2 0 
2 0 3 0 2 0 3 0 2 0 2 0 3 0 2 0 
3 0 2 0 2 0 3 1 2 -1 2 0 3 0 2 0 
3 0 2 0 2 0 3 0 2 0 3 0 2 0 2 0 
3 1 2 -1 2 0 3 0 2 0 3 0 2 0 2 0 
3 0 2 0 3 0 2 0 2 0 3 0 2 0 2 0 
3 0 2 0 3 0 2 0 2 0 3 0 2 0 3 0 
2 0 2 0 3 0 2 0 3 0 2 0 2 0 3 0 
2 0 2 0 3 0 2 0 3 0 2 0 2 0 3 0 
2 0 3 0 2 0 2 0 3 0 2 0 2 1 3 -1 
2 1 3 -1 2 0 2 0 3 0 2 0 3 0 2 0 
2 0 3 0 2 0 2 0 3 0 2 0 3 0 2 0 
2 0 3 0 2 0 3 0 2 0 2 0 3 0 2 0 
3 0 2 0 2 0 3 0 2 1 2 -1 3 0 2 0 
3 0 2 0 2 0 3 1 2 -1 3 0 2 0 2 0 
3 0 2 0 2 0 3 0 2 0 3 0 2 0 2 0 
3 0 2 0 3 1 2 -1 2 0 3 0 2 0 2 0 
3 0 2 0 3 0 2 0 2 0 3 0 2 0 3 0 
2 0 2 1 3 -1 2 0 3 0 2 1 2 -1 3 0 
2 0 2 0 3 0 2 0 3 0 2 1 2 -1 3 0 
2 0 3 0 2 0 2 0 3 0 2 0 2 0 3 0 
2 0 3 0 2 0 2 0 3 0 2 0 3 0 2 0 
2 0 3 0 2 0 2 0 3 0 2 0 3 0 2 0 
2 0 3 0 2 0 1847 6150 300 MP stroke
3 0 2 0 2 0 3 0 2 0 3 0 2 0 2 0 
3 0 2 0 2 0 3 0 2 0 3 1 2 -1 2 0 
3 0 2 0 3 0 2 0 2 0 3 0 2 0 2 0 
3 0 2 0 3 0 2 0 2 0 3 0 2 0 3 0 
2 0 2 0 3 0 2 0 3 0 2 0 2 0 3 0 
2 0 2 0 3 0 2 0 3 0 2 0 2 0 3 0 
2 0 3 0 2 0 2 0 3 0 2 0 2 0 3 0 
2 0 3 0 2 0 2 0 3 0 2 0 3 0 2 0 
2 0 3 0 2 0 2 0 3 0 2 0 3 0 2 0 
2 0 3 0 2 0 3 0 2 0 2 0 3 0 2 0 
3 0 2 0 2 0 3 0 2 0 2 0 3 0 2 0 
3 0 2 0 2 0 3 0 2 0 3 0 2 0 2 0 
3 0 2 0 2 0 3 0 2 0 3 0 2 0 2 0 
1 0 1598 6150 106 MP stroke
gr

c8
0 sg
4853  416 mt 
(|S\(j) s
%%IncludeResource: font Symbol
/Symbol /ISOLatin1Encoding 120 FMSR

5030  416 mt 
(W) s
%%IncludeResource: font Helvetica
/Helvetica /ISOLatin1Encoding 120 FMSR

5122  416 mt 
(\)| - modulo della trasformata del segnale distrurbato) s
1581 6196 mt 
( ) s
11106  561 mt 
( ) s
1 sg
0 206 844 0 0 -206 10219 785 4 MP
PP
-844 0 0 206 844 0 0 -206 10219 785 5 MP stroke
4 w
DO
SO
6 w
0 sg
10219  785 mt 11063  785 L
10219  579 mt 11063  579 L
10219  785 mt 10219  579 L
11063  785 mt 11063  579 L
10219  785 mt 11063  785 L
10219  785 mt 10219  579 L
10219  785 mt 11063  785 L
10219  579 mt 11063  579 L
10219  785 mt 10219  579 L
11063  785 mt 11063  579 L
10679  726 mt 
(|S\(j) s
%%IncludeResource: font Symbol
/Symbol /ISOLatin1Encoding 120 FMSR

10856  726 mt 
(W) s
%%IncludeResource: font Helvetica
/Helvetica /ISOLatin1Encoding 120 FMSR

10948  726 mt 
(\)|) s
gs 10219 579 845 207 rc
c8
354 0 10289 682 2 MP stroke
gr

c8

end %%Color Dict

eplot
%%EndObject

epage
end

showpage

%%Trailer
%%EOF
