%!PS-Adobe-3.0 EPSF-3.0
%%Creator: MATLAB, The Mathworks, Inc. Version 7.7.0.471 (R2008b). Operating System: Linux 2.6.26-1-686 #1 SMP Fri Mar 13 18:08:45 UTC 2009 i686.
%%Title: /home/salvix/Dev/UniPD/ens/hw1/matlab/X_f.eps
%%CreationDate: 10/23/2009  01:41:21
%%DocumentNeededFonts: Helvetica
%%DocumentProcessColors: Cyan Magenta Yellow Black
%%LanguageLevel: 2
%%Pages: 1
%%BoundingBox:  -214   132   810   709
%%EndComments

%%BeginProlog
% MathWorks dictionary
/MathWorks 160 dict begin
% definition operators
/bdef {bind def} bind def
/ldef {load def} bind def
/xdef {exch def} bdef
/xstore {exch store} bdef
% operator abbreviations
/c  /clip ldef
/cc /concat ldef
/cp /closepath ldef
/gr /grestore ldef
/gs /gsave ldef
/mt /moveto ldef
/np /newpath ldef
/cm /currentmatrix ldef
/sm /setmatrix ldef
/rm /rmoveto ldef
/rl /rlineto ldef
/s {show newpath} bdef
/sc {setcmykcolor} bdef
/sr /setrgbcolor ldef
/sg /setgray ldef
/w /setlinewidth ldef
/j /setlinejoin ldef
/cap /setlinecap ldef
/rc {rectclip} bdef
/rf {rectfill} bdef
% page state control
/pgsv () def
/bpage {/pgsv save def} bdef
/epage {pgsv restore} bdef
/bplot /gsave ldef
/eplot {stroke grestore} bdef
% orientation switch
/portraitMode 0 def /landscapeMode 1 def /rotateMode 2 def
% coordinate system mappings
/dpi2point 0 def
% font control
/FontSize 0 def
/FMS {/FontSize xstore findfont [FontSize 0 0 FontSize neg 0 0]
  makefont setfont} bdef
/reencode {exch dup where {pop load} {pop StandardEncoding} ifelse
  exch dup 3 1 roll findfont dup length dict begin
  { 1 index /FID ne {def}{pop pop} ifelse } forall
  /Encoding exch def currentdict end definefont pop} bdef
/isroman {findfont /CharStrings get /Agrave known} bdef
/FMSR {3 1 roll 1 index dup isroman {reencode} {pop pop} ifelse
  exch FMS} bdef
/csm {1 dpi2point div -1 dpi2point div scale neg translate
 dup landscapeMode eq {pop -90 rotate}
  {rotateMode eq {90 rotate} if} ifelse} bdef
% line types: solid, dotted, dashed, dotdash
/SO { [] 0 setdash } bdef
/DO { [.5 dpi2point mul 4 dpi2point mul] 0 setdash } bdef
/DA { [6 dpi2point mul] 0 setdash } bdef
/DD { [.5 dpi2point mul 4 dpi2point mul 6 dpi2point mul 4
  dpi2point mul] 0 setdash } bdef
% macros for lines and objects
/L {lineto stroke} bdef
/MP {3 1 roll moveto 1 sub {rlineto} repeat} bdef
/AP {{rlineto} repeat} bdef
/PDlw -1 def
/W {/PDlw currentlinewidth def setlinewidth} def
/PP {closepath eofill} bdef
/DP {closepath stroke} bdef
/MR {4 -2 roll moveto dup  0 exch rlineto exch 0 rlineto
  neg 0 exch rlineto closepath} bdef
/FR {MR stroke} bdef
/PR {MR fill} bdef
/L1i {{currentfile picstr readhexstring pop} image} bdef
/tMatrix matrix def
/MakeOval {newpath tMatrix currentmatrix pop translate scale
0 0 1 0 360 arc tMatrix setmatrix} bdef
/FO {MakeOval stroke} bdef
/PO {MakeOval fill} bdef
/PD {currentlinewidth 2 div 0 360 arc fill
   PDlw -1 eq not {PDlw w /PDlw -1 def} if} def
/FA {newpath tMatrix currentmatrix pop translate scale
  0 0 1 5 -2 roll arc tMatrix setmatrix stroke} bdef
/PA {newpath tMatrix currentmatrix pop	translate 0 0 moveto scale
  0 0 1 5 -2 roll arc closepath tMatrix setmatrix fill} bdef
/FAn {newpath tMatrix currentmatrix pop translate scale
  0 0 1 5 -2 roll arcn tMatrix setmatrix stroke} bdef
/PAn {newpath tMatrix currentmatrix pop translate 0 0 moveto scale
  0 0 1 5 -2 roll arcn closepath tMatrix setmatrix fill} bdef
/vradius 0 def /hradius 0 def /lry 0 def
/lrx 0 def /uly 0 def /ulx 0 def /rad 0 def
/MRR {/vradius xdef /hradius xdef /lry xdef /lrx xdef /uly xdef
  /ulx xdef newpath tMatrix currentmatrix pop ulx hradius add uly
  vradius add translate hradius vradius scale 0 0 1 180 270 arc 
  tMatrix setmatrix lrx hradius sub uly vradius add translate
  hradius vradius scale 0 0 1 270 360 arc tMatrix setmatrix
  lrx hradius sub lry vradius sub translate hradius vradius scale
  0 0 1 0 90 arc tMatrix setmatrix ulx hradius add lry vradius sub
  translate hradius vradius scale 0 0 1 90 180 arc tMatrix setmatrix
  closepath} bdef
/FRR {MRR stroke } bdef
/PRR {MRR fill } bdef
/MlrRR {/lry xdef /lrx xdef /uly xdef /ulx xdef /rad lry uly sub 2 div def
  newpath tMatrix currentmatrix pop ulx rad add uly rad add translate
  rad rad scale 0 0 1 90 270 arc tMatrix setmatrix lrx rad sub lry rad
  sub translate rad rad scale 0 0 1 270 90 arc tMatrix setmatrix
  closepath} bdef
/FlrRR {MlrRR stroke } bdef
/PlrRR {MlrRR fill } bdef
/MtbRR {/lry xdef /lrx xdef /uly xdef /ulx xdef /rad lrx ulx sub 2 div def
  newpath tMatrix currentmatrix pop ulx rad add uly rad add translate
  rad rad scale 0 0 1 180 360 arc tMatrix setmatrix lrx rad sub lry rad
  sub translate rad rad scale 0 0 1 0 180 arc tMatrix setmatrix
  closepath} bdef
/FtbRR {MtbRR stroke } bdef
/PtbRR {MtbRR fill } bdef
/stri 6 array def /dtri 6 array def
/smat 6 array def /dmat 6 array def
/tmat1 6 array def /tmat2 6 array def /dif 3 array def
/asub {/ind2 exch def /ind1 exch def dup dup
  ind1 get exch ind2 get sub exch } bdef
/tri_to_matrix {
  2 0 asub 3 1 asub 4 0 asub 5 1 asub
  dup 0 get exch 1 get 7 -1 roll astore } bdef
/compute_transform {
  dmat dtri tri_to_matrix tmat1 invertmatrix 
  smat stri tri_to_matrix tmat2 concatmatrix } bdef
/ds {stri astore pop} bdef
/dt {dtri astore pop} bdef
/db {2 copy /cols xdef /rows xdef mul dup 3 mul string
  currentfile 
  3 index 0 eq {/ASCIIHexDecode filter}
  {/ASCII85Decode filter 3 index 2 eq {/RunLengthDecode filter} if }
  ifelse exch readstring pop
  dup 0 3 index getinterval /rbmap xdef
  dup 2 index dup getinterval /gbmap xdef
  1 index dup 2 mul exch getinterval /bbmap xdef pop pop}bdef
/it {gs np dtri aload pop moveto lineto lineto cp c
  cols rows 8 compute_transform 
  rbmap gbmap bbmap true 3 colorimage gr}bdef
/il {newpath moveto lineto stroke}bdef
currentdict end def
%%EndProlog

%%BeginSetup
MathWorks begin

0 cap

end
%%EndSetup

%%Page: 1 1
%%BeginPageSetup
%%PageBoundingBox:  -214   132   810   709
MathWorks begin
bpage
%%EndPageSetup

%%BeginObject: obj1
bplot

/dpi2point 12 def
portraitMode -2568 8508 csm

    0     0 12289  6914 rc
85 dict begin %Colortable dictionary
/c0 { 0.000000 0.000000 0.000000 sr} bdef
/c1 { 1.000000 1.000000 1.000000 sr} bdef
/c2 { 0.900000 0.000000 0.000000 sr} bdef
/c3 { 0.000000 0.820000 0.000000 sr} bdef
/c4 { 0.000000 0.000000 0.800000 sr} bdef
/c5 { 0.910000 0.820000 0.320000 sr} bdef
/c6 { 1.000000 0.260000 0.820000 sr} bdef
/c7 { 0.000000 0.820000 0.820000 sr} bdef
c0
1 j
1 sg
   0    0 12290 6915 rf
6 w
0 5634 9524 0 0 -5634 1598 6153 4 MP
PP
-9524 0 0 5634 9524 0 0 -5634 1598 6153 5 MP stroke
4 w
DO
0 sg
2030 6153 mt 2030  519 L
2030  519 mt 2030  519 L
3113 6153 mt 3113  519 L
3113  519 mt 3113  519 L
4195 6153 mt 4195  519 L
4195  519 mt 4195  519 L
5277 6153 mt 5277  519 L
5277  519 mt 5277  519 L
6360 6153 mt 6360  519 L
6360  519 mt 6360  519 L
7442 6153 mt 7442  519 L
7442  519 mt 7442  519 L
8524 6153 mt 8524  519 L
8524  519 mt 8524  519 L
9606 6153 mt 9606  519 L
9606  519 mt 9606  519 L
10689 6153 mt 10689  519 L
10689  519 mt 10689  519 L
1598 6153 mt 11122 6153 L
11122 6153 mt 11122 6153 L
1598 5558 mt 11122 5558 L
11122 5558 mt 11122 5558 L
1598 4963 mt 11122 4963 L
11122 4963 mt 11122 4963 L
1598 4368 mt 11122 4368 L
11122 4368 mt 11122 4368 L
1598 3773 mt 11122 3773 L
11122 3773 mt 11122 3773 L
1598 3178 mt 11122 3178 L
11122 3178 mt 11122 3178 L
1598 2583 mt 11122 2583 L
11122 2583 mt 11122 2583 L
1598 1988 mt 11122 1988 L
11122 1988 mt 11122 1988 L
1598 1393 mt 11122 1393 L
11122 1393 mt 11122 1393 L
1598  798 mt 11122  798 L
11122  798 mt 11122  798 L
SO
6 w
1598 6153 mt 11122 6153 L
1598  519 mt 11122  519 L
1598 6153 mt 1598  519 L
11122 6153 mt 11122  519 L
1598 6153 mt 11122 6153 L
1598 6153 mt 1598  519 L
2030 6153 mt 2030 6057 L
2030  519 mt 2030  614 L
%%IncludeResource: font Helvetica
/Helvetica /ISOLatin1Encoding 120 FMSR

1927 6298 mt 
(-2) s
3113 6153 mt 3113 6057 L
3113  519 mt 3113  614 L
2960 6298 mt 
(-1.5) s
4195 6153 mt 4195 6057 L
4195  519 mt 4195  614 L
4092 6298 mt 
(-1) s
5277 6153 mt 5277 6057 L
5277  519 mt 5277  614 L
5124 6298 mt 
(-0.5) s
6360 6153 mt 6360 6057 L
6360  519 mt 6360  614 L
6327 6298 mt 
(0) s
7442 6153 mt 7442 6057 L
7442  519 mt 7442  614 L
7359 6298 mt 
(0.5) s
8524 6153 mt 8524 6057 L
8524  519 mt 8524  614 L
8491 6298 mt 
(1) s
9606 6153 mt 9606 6057 L
9606  519 mt 9606  614 L
9523 6298 mt 
(1.5) s
10689 6153 mt 10689 6057 L
10689  519 mt 10689  614 L
10656 6298 mt 
(2) s
10852 6500 mt 
(x 10) s
%%IncludeResource: font Helvetica
/Helvetica /ISOLatin1Encoding 80 FMSR

11078 6426 mt 
(4) s
1598 6153 mt 1693 6153 L
11122 6153 mt 11026 6153 L
%%IncludeResource: font Helvetica
/Helvetica /ISOLatin1Encoding 120 FMSR

1497 6197 mt 
(0) s
1598 5558 mt 1693 5558 L
11122 5558 mt 11026 5558 L
1363 5602 mt 
(200) s
1598 4963 mt 1693 4963 L
11122 4963 mt 11026 4963 L
1363 5007 mt 
(400) s
1598 4368 mt 1693 4368 L
11122 4368 mt 11026 4368 L
1363 4412 mt 
(600) s
1598 3773 mt 1693 3773 L
11122 3773 mt 11026 3773 L
1363 3817 mt 
(800) s
1598 3178 mt 1693 3178 L
11122 3178 mt 11026 3178 L
1297 3222 mt 
(1000) s
1598 2583 mt 1693 2583 L
11122 2583 mt 11026 2583 L
1297 2627 mt 
(1200) s
1598 1988 mt 1693 1988 L
11122 1988 mt 11026 1988 L
1297 2032 mt 
(1400) s
1598 1393 mt 1693 1393 L
11122 1393 mt 11026 1393 L
1297 1437 mt 
(1600) s
1598  798 mt 1693  798 L
11122  798 mt 11026  798 L
1297  842 mt 
(1800) s
1598 6153 mt 11122 6153 L
1598  519 mt 11122  519 L
1598 6153 mt 1598  519 L
11122 6153 mt 11122  519 L
gs 1598 519 9525 5635 rc
/c8 { 0.000000 0.000000 1.000000 sr} bdef
c8
3 0 2 0 2 0 3 0 2 0 3 0 2 0 2 0 
3 0 2 0 2 0 3 0 2 0 3 0 2 0 2 0 
3 0 2 0 3 0 2 0 2 0 3 0 2 0 2 0 
3 0 2 0 3 0 2 0 2 0 3 0 2 0 3 0 
2 0 2 0 3 0 2 0 3 0 2 0 2 0 3 0 
2 0 2 0 3 0 2 0 3 0 2 0 2 0 3 0 
2 0 3 0 2 0 2 0 3 0 2 0 2 0 3 0 
2 0 3 0 2 0 2 0 3 0 2 0 3 0 2 0 
2 0 3 0 2 0 2 0 3 0 2 0 3 0 2 0 
2 0 3 0 2 0 3 0 2 0 2 0 3 0 2 0 
3 0 2 0 2 0 3 0 2 0 2 0 3 0 2 0 
3 0 2 0 2 0 3 0 2 0 3 0 2 0 2 0 
3 0 2 0 2 0 3 0 2 0 3 0 2 0 2 0 
3 0 2 0 3 0 2 0 2 0 3 0 2 0 3 0 
2 0 2 0 3 0 2 0 2 0 3 0 2 0 3 0 
2 0 2 0 3 0 2 0 3 0 2 0 2 0 3 0 
2 0 2 0 3 0 2 0 3 0 2 0 2 0 3 0 
2 0 3 0 2 0 2 0 3 0 2 0 2 0 3 0 
2 0 3 0 2 0 2 0 3 0 2 0 3 0 2 0 
2 0 3 0 2 0 3 0 2 0 2 0 3 0 2 0 
2 0 3 0 2 0 3 0 2 0 2 0 3 0 2 0 
3 0 2 0 2 0 3 0 2 0 2 0 3 0 2 0 
3 0 2 0 2 0 3 0 2 0 3 0 2 0 2 0 
3 0 2 0 2 0 3 0 2 0 3 0 2 0 2 0 
3 0 2 0 3 0 2 0 2 0 3 0 2 0 3 0 
2 0 2 0 3 0 2 0 2 0 3 0 2 0 3 0 
2 0 2 0 3 0 2 0 3 0 2 0 2 0 3 0 
2 0 2 0 3 0 2 0 3 0 2 0 2 0 3 0 
2 0 3 0 2 0 2 0 3 0 2 0 2 0 3 0 
2 0 3 0 2 0 2 0 3 0 2 0 3 0 2 0 
2 0 3 0 2 0 3 0 2 0 2 0 3 0 2 0 
2 0 3 0 2 0 3 0 2 0 2 0 3 0 2 0 
3 0 2 0 2 0 3 0 2 0 2 0 3 0 2 0 
3 0 2 0 2 0 3 0 2 0 3 0 2 0 2 0 
3 0 2 0 2 0 3 0 2 0 3 0 2 0 2 0 
3 0 2 0 3 0 2 0 2 0 3 0 2 0 3 0 
2 0 2 0 3 0 2 0 2 0 3 0 2 0 3 0 
2 0 2 0 3 0 10409 6151 300 MP stroke
2 0 3 0 2 0 2 0 3 0 2 0 2 0 3 0 
2 0 3 0 2 0 2 0 3 0 2 0 3 0 2 0 
2 0 3 0 2 0 2 0 3 0 2 0 3 0 2 0 
2 0 3 0 2 0 3 0 2 0 2 0 3 0 2 0 
3 0 2 0 2 0 3 0 2 0 2 0 3 0 2 0 
3 0 2 0 2 0 3 0 2 0 3 0 2 0 2 0 
3 0 2 0 2 0 3 0 2 0 3 0 2 0 2 0 
3 0 2 0 3 0 2 0 2 0 3 0 2 0 2 0 
3 0 2 0 3 0 2 0 2 0 3 0 2 0 3 0 
2 0 2 0 3 0 2 0 3 0 2 0 2 0 3 0 
2 0 2 0 3 0 2 0 3 0 2 0 2 0 3 0 
2 0 3 0 2 0 2 0 3 0 2 0 2 0 3 0 
2 0 3 0 2 0 2 0 3 0 2 0 3 0 2 0 
2 0 3 0 2 0 2 0 3 0 2 0 3 0 2 0 
2 0 3 0 2 0 3 0 2 0 2 0 3 0 2 0 
3 0 2 0 2 0 3 0 2 0 2 0 3 0 2 0 
3 0 2 0 2 0 3 0 2 0 3 0 2 0 2 0 
3 0 2 0 2 0 3 0 2 0 3 0 2 0 2 0 
3 0 2 0 3 0 2 0 2 0 3 0 2 0 2 0 
3 0 2 0 3 0 2 0 2 0 3 0 2 0 3 0 
2 0 2 0 3 0 2 0 3 0 2 0 2 0 3 0 
2 0 2 0 3 0 2 0 3 0 2 0 2 0 3 0 
2 0 3 0 2 0 2 0 3 0 2 0 2 0 3 0 
2 0 3 0 2 0 2 0 3 0 2 0 3 0 2 0 
2 0 3 0 2 0 2 0 3 0 2 0 3 0 2 0 
2 0 3 0 2 0 3 0 2 0 2 0 3 0 2 0 
3 0 2 0 2 0 3 0 2 0 2 0 3 0 2 0 
3 0 2 0 2 0 3 0 2 0 3 0 2 0 2 0 
3 0 2 0 2 0 3 0 2 0 3 0 2 0 2 0 
3 0 2 0 3 0 2 0 2 0 3 0 2 0 2 0 
3 0 2 0 3 0 2 0 2 0 3 0 2 0 3 0 
2 0 2 0 3 0 2 0 3 0 2 0 2 0 3 0 
2 0 2 0 3 0 2 0 3 0 2 0 2 0 3 0 
2 0 3 0 2 0 2 0 3 0 2 0 2 0 3 0 
2 0 3 0 2 0 2 0 3 0 2 0 3 0 2 0 
2 0 3 0 2 0 3 0 2 0 2 0 3 0 2 0 
2 0 3 0 2 0 3 0 2 0 2 0 3 0 2 0 
3 0 2 0 2 0 9696 6151 300 MP stroke
3 0 2 0 2 0 3 0 2 0 3 0 2 0 2 0 
3 0 2 0 3 0 2 0 2 0 3 0 2 0 2 0 
3 0 2 0 3 0 2 0 2 0 3 0 2 0 3 0 
2 0 2 0 3 0 2 0 3 0 2 0 2 0 3 0 
2 0 2 0 3 0 2 0 3 0 2 0 2 0 3 0 
2 0 3 0 2 0 2 0 3 0 2 0 2 0 3 0 
2 0 3 0 2 0 2 0 3 0 2 0 3 1 2 -1 
2 0 3 0 2 0 2 0 3 0 2 0 3 0 2 0 
2 0 3 0 2 0 3 0 2 0 2 0 3 0 2 0 
3 0 2 0 2 0 3 0 2 0 2 0 3 1 2 -1 
3 0 2 0 2 1 3 0 2 0 3 -1 2 0 2 0 
3 0 2 0 2 0 3 0 2 0 3 1 2 0 2 -1 
3 0 2 0 3 0 2 1 2 -1 3 0 2 0 2 0 
3 1 2 -1 3 0 2 0 2 0 3 1 2 0 3 -1 
2 1 2 0 3 0 2 0 3 0 2 0 2 -1 3 1 
2 -1 2 0 3 1 2 0 3 -1 2 1 2 -1 3 1 
2 -1 3 1 2 -1 2 0 3 1 2 0 2 0 3 0 
2 -1 3 1 2 0 2 0 3 0 2 0 3 -1 2 1 
2 0 3 0 2 0 2 0 3 0 2 0 3 0 2 -1 
2 1 3 0 2 0 3 0 2 0 2 0 3 0 2 0 
3 0 2 0 2 0 3 0 2 0 2 0 3 0 2 0 
3 0 2 0 2 0 3 0 2 0 3 0 2 0 2 0 
3 0 2 0 2 0 3 0 2 0 3 0 2 0 2 0 
3 0 2 0 3 0 2 0 2 0 3 0 2 0 2 0 
3 0 2 0 3 0 2 0 2 0 3 0 2 0 3 0 
2 0 2 0 3 0 2 0 3 0 2 0 2 0 3 0 
2 0 2 0 3 0 2 0 3 0 2 0 2 0 3 0 
2 0 3 0 2 0 2 0 3 0 2 0 2 0 3 0 
2 0 3 0 2 0 2 0 3 0 2 0 3 0 2 0 
2 0 3 0 2 0 2 0 3 0 2 0 3 0 2 0 
2 0 3 0 2 0 3 0 2 0 2 0 3 0 2 0 
3 0 2 0 2 0 3 0 2 0 2 0 3 0 2 0 
3 0 2 0 2 0 3 0 2 0 3 0 2 0 2 0 
3 0 2 0 2 0 3 0 2 0 3 0 2 0 2 0 
3 0 2 0 3 0 2 0 2 0 3 0 2 0 2 0 
3 0 2 0 3 0 2 0 2 0 3 0 2 0 3 0 
2 0 2 0 3 0 2 0 3 0 2 0 2 0 3 0 
2 0 2 0 3 0 8982 6150 300 MP stroke
2 0 3 0 2 0 2 0 3 0 2 0 3 0 2 0 
2 0 3 0 2 0 2 0 3 0 2 0 3 0 2 0 
2 0 3 0 2 0 3 0 2 0 2 0 3 0 2 0 
2 0 3 0 2 0 3 0 2 0 2 0 3 0 2 0 
3 0 2 0 2 0 3 0 2 0 3 0 2 0 2 0 
3 0 2 0 2 0 3 0 2 0 3 0 2 0 2 0 
3 0 2 0 3 0 2 0 2 0 3 0 2 0 2 0 
3 0 2 0 3 0 2 0 2 0 3 0 2 0 3 0 
2 0 2 0 3 0 2 0 2 0 3 0 2 0 3 0 
2 0 2 0 3 0 2 0 3 0 2 0 2 0 3 0 
2 0 3 0 2 0 2 0 3 0 2 0 2 0 3 0 
2 0 3 0 2 0 2 0 3 0 2 0 3 0 2 0 
2 0 3 0 2 0 2 0 3 0 2 0 3 0 2 0 
2 0 3 0 2 0 3 0 2 0 2 0 3 0 2 0 
2 0 3 0 2 0 3 0 2 0 2 0 3 0 2 0 
3 0 2 0 2 0 3 0 2 0 3 0 2 0 2 0 
3 0 2 0 2 0 3 0 2 0 3 0 2 0 2 0 
3 0 2 0 3 0 2 0 2 0 3 0 2 0 2 0 
3 0 2 0 3 0 2 0 2 0 3 0 2 0 3 0 
2 0 2 0 3 0 2 0 3 0 2 0 2 0 3 0 
2 0 2 0 3 0 2 0 3 0 2 0 2 0 3 0 
2 0 3 0 2 0 2 0 3 0 2 0 2 0 3 0 
2 0 3 0 2 0 2 0 3 0 2 0 3 0 2 0 
2 0 3 0 2 0 2 0 3 0 2 0 3 0 2 0 
2 0 3 0 2 0 3 0 2 0 2 0 3 0 2 0 
3 0 2 0 2 0 3 0 2 0 2 0 3 0 2 0 
3 0 2 0 2 0 3 0 2 0 3 0 2 0 2 0 
3 0 2 0 2 0 3 0 2 0 3 0 2 0 2 0 
3 0 2 0 3 0 2 0 2 0 3 0 2 0 2 0 
3 0 2 0 3 0 2 0 2 0 3 0 2 0 3 0 
2 0 2 0 3 0 2 0 3 0 2 0 2 0 3 0 
2 0 2 0 3 0 2 0 3 0 2 0 2 0 3 0 
2 0 3 0 2 0 2 0 3 0 2 0 2 0 3 0 
2 0 3 0 2 0 2 0 3 0 2 0 3 0 2 0 
2 0 3 0 2 0 2 0 3 0 2 0 3 0 2 0 
2 0 3 0 2 0 3 0 2 0 2 0 3 0 2 0 
3 0 2 0 2 0 3 0 2 0 2 0 3 1 2 -1 
3 0 2 0 2 0 8269 6150 300 MP stroke
3 0 2 0 3 0 2 0 2 0 3 0 2 0 2 0 
3 0 2 0 3 0 2 0 2 0 3 0 2 0 3 0 
2 0 2 0 3 0 2 0 2 0 3 0 2 1 3 -1 
2 0 2 0 3 0 2 0 3 0 2 0 2 1 3 -1 
2 1 3 0 2 0 2 -1 3 0 2 0 2 0 3 1 
2 -1 3 1 2 0 2 0 3 0 2 0 3 -1 2 1 
2 0 3 0 2 0 2 0 3 0 2 0 3 0 2 0 
2 0 3 0 2 0 3 0 2 0 2 0 3 0 2 0 
2 0 3 0 2 0 3 0 2 0 2 0 3 0 2 0 
3 0 2 0 2 0 3 0 2 0 3 0 2 0 2 0 
3 0 2 0 2 0 3 0 2 0 3 0 2 0 2 0 
3 0 2 0 3 0 2 0 2 0 3 0 2 0 2 0 
3 0 2 0 3 0 2 0 2 0 3 0 2 0 3 0 
2 0 2 0 3 0 2 0 2 0 3 0 2 0 3 0 
2 0 2 0 3 0 2 0 3 0 2 0 2 0 3 0 
2 0 3 0 2 0 2 0 3 0 2 0 2 0 3 0 
2 0 3 0 2 0 2 0 3 0 2 0 3 0 2 0 
2 0 3 0 2 0 2 0 3 0 2 0 3 0 2 0 
2 0 3 0 2 0 3 0 2 0 2 0 3 0 2 0 
2 0 3 0 2 0 3 0 2 0 2 0 3 0 2 0 
3 0 2 0 2 0 3 0 2 0 3 0 2 0 2 0 
3 0 2 0 2 0 3 0 2 0 3 0 2 0 2 0 
3 0 2 0 3 0 2 0 2 1 3 -1 2 0 2 1 
3 -1 2 0 3 0 2 0 2 0 3 0 2 0 3 0 
2 0 2 0 3 0 2 1 2 -1 3 0 2 1 3 -2 
2 2 2 -1 3 1 2 -1 3 1 2 -1 2 1 3 -1 
2 0 3 1 2 -1 2 0 3 0 2 0 2 1 3 -1 
2 0 3 0 2 0 2 0 3 0 2 0 3 0 2 1 
2 -1 3 1 2 -1 2 0 3 0 2 1 3 -1 2 0 
2 1 3 -1 2 0 3 0 2 1 2 0 3 -1 2 1 
2 -1 3 1 2 -1 3 1 2 -1 2 0 3 0 2 0 
3 1 2 -1 2 1 3 -1 2 1 3 0 2 -1 2 1 
3 0 2 -1 2 1 3 0 2 -1 3 1 2 0 2 0 
3 0 2 0 3 0 2 0 2 0 3 0 2 0 2 0 
3 0 2 0 3 0 2 0 2 0 3 0 2 -1 3 1 
2 0 2 0 3 0 2 0 2 0 3 0 2 0 3 0 
2 0 2 0 3 0 2 0 3 0 2 0 2 0 3 0 
2 0 3 0 2 0 7555 6148 300 MP stroke
2 0 3 0 2 0 2 0 3 0 2 1 3 -1 2 0 
2 0 3 0 2 0 3 1 2 -1 2 0 3 0 2 0 
2 0 3 1 2 -1 3 0 2 0 2 0 3 0 2 0 
3 0 2 1 2 -2 3 1 2 0 3 0 2 0 2 0 
3 0 2 0 2 0 3 0 2 0 3 0 2 0 2 0 
3 0 2 0 3 0 2 0 2 0 3 0 2 0 2 1 
3 -1 2 0 3 1 2 -1 2 1 3 0 2 -1 3 1 
2 -1 2 0 3 1 2 -1 2 1 3 -1 2 1 3 -1 
2 1 2 0 3 0 2 0 3 0 2 -1 2 1 3 0 
2 0 3 0 2 0 2 0 3 0 2 -2 2 3 3 -1 
2 0 3 0 2 0 2 0 3 0 2 -1 3 1 2 0 
2 0 3 0 2 0 2 0 3 0 2 0 3 0 2 0 
2 0 3 0 2 0 3 0 2 0 2 0 3 0 2 0 
2 0 3 0 2 0 3 0 2 0 2 0 3 0 2 0 
3 0 2 0 2 1 3 -1 2 0 3 0 2 0 2 1 
3 -1 2 0 2 1 3 -1 2 0 3 2 2 -2 2 1 
3 10 2 -13 3 5 2 -1 2 -2 3 1 2 0 2 0 
3 0 2 -1 3 1 2 0 2 -1 3 1 2 0 3 0 
2 0 2 0 3 0 2 0 2 0 3 0 2 0 3 0 
2 0 2 0 3 0 2 0 3 0 2 0 2 1 3 -1 
2 -1 3 1 2 1 2 -2 3 1 2 0 2 1 3 -1 
2 -1 3 1 2 2 2 -5 3 3 2 2 3 -5 2 11 
2 19 3 -25 2 5 2 -5 3 -2 2 2 3 0 2 0 
2 -1 3 0 2 0 3 1 2 -1 2 0 3 0 2 0 
2 0 3 0 2 1 3 0 2 0 2 -2 3 3 2 -2 
3 0 2 2 2 -1 3 0 2 1 3 -1 2 0 2 -1 
3 1 2 0 2 0 3 -1 2 1 3 0 2 0 2 1 
3 -1 2 2 3 1 2 -1 2 3 3 -8 2 7 2 25 
3 -1 2 -26 3 -6 2 1 2 3 3 -1 2 1 3 0 
2 0 2 -2 3 3 2 -1 2 0 3 0 2 0 3 1 
2 -1 2 1 3 -1 2 2 3 -1 2 3 2 -7 3 2 
2 2 3 1 2 -1 2 0 3 -2 2 2 2 0 3 -1 
2 -2 3 3 2 -2 2 5 3 -6 2 2 3 3 2 1 
2 -4 3 1 2 1 2 -2 3 1 2 -5 3 14 2 -9 
2 0 3 3 2 -3 3 0 2 0 2 2 3 -3 2 1 
2 0 3 2 2 5 3 -7 2 7 2 -6 3 0 2 1 
3 2 2 -4 2 1 3 1 2 1 3 -3 2 3 2 -1 
3 1 2 -2 2 0 6842 6142 300 MP stroke
3 4 2 -4 3 1 2 1 2 0 3 0 2 -5 3 6 
2 0 2 0 3 -1 2 1 2 0 3 0 2 -1 3 -3 
2 9 2 -3 3 -10 2 19 3 -14 2 0 2 -2 3 12 
2 -7 2 -2 3 1 2 7 3 -4 2 -6 2 13 3 -12 
2 4 3 1 2 -2 2 3 3 -1 2 3 3 -3 2 1 
2 0 3 11 2 -20 2 7 3 2 2 0 3 -3 2 3 
2 1 3 0 2 -3 3 4 2 0 2 -8 3 6 2 1 
2 1 3 -3 2 1 3 6 2 -4 2 -8 3 8 2 17 
3 49 2 49 2 -114 3 5 2 4 2 -4 3 -2 2 0 
3 2 2 -3 2 4 3 11 2 -17 3 -2 2 4 2 2 
3 -3 2 2 3 3 2 1 2 -2 3 2 2 4 2 6 
3 -26 2 16 3 -3 2 -2 2 3 3 2 2 -1 3 4 
2 -2 2 -2 3 9 2 8 2 8 3 -15 2 -7 3 8 
2 5 2 -7 3 -4 2 6 3 12 2 -18 2 -3 3 7 
2 7 2 -4 3 2 2 5 3 -6 2 6 2 4 3 -9 
2 5 3 20 2 18 2 -41 3 25 2 -11 3 3 2 -3 
2 13 3 -1 2 -2 2 6 3 8 2 2 3 -1 2 -4 
2 13 3 12 2 -12 3 17 2 15 2 -1 3 12 2 27 
2 44 3 -153 2 151 3 -4 2 2 2 66 3 28 2 59 
3 154 2 121 2 364 3 1741 2 2901 2 -4520 3 -358 2 -200 
3 -132 2 -101 2 -73 3 21 2 -49 3 -32 2 -3 2 13 
3 -89 2 -4 3 11 2 -9 2 -24 3 0 2 15 2 -31 
3 -47 2 78 3 272 2 52 2 -322 3 30 2 -37 3 10 
2 -18 2 -14 3 45 2 -29 2 -7 3 57 2 -135 3 63 
2 12 2 -10 3 3 2 -10 3 7 2 2 2 -4 3 -1 
2 1 3 0 2 0 2 -1 3 1 2 4 2 -2 3 -7 
2 10 3 -3 2 10 2 -12 3 -63 2 135 3 -57 2 7 
2 29 3 -45 2 14 2 18 3 -10 2 37 3 -30 2 322 
2 -52 3 -272 2 -78 3 47 2 31 2 -15 3 0 2 24 
2 9 3 -11 2 4 3 89 2 -13 2 3 3 32 2 49 
3 -21 2 73 2 101 3 132 2 200 3 358 2 4520 2 -2901 
3 -1741 2 -364 2 -121 3 -154 2 -59 3 -28 2 -66 2 -2 
3 4 2 -151 3 153 2 -44 2 -27 3 -12 2 1 2 -15 
3 -17 2 12 3 -12 2 -13 2 4 3 1 2 -2 3 -8 
2 -6 2 2 3 1 2 -13 2 3 3 -3 2 11 3 -25 
2 41 2 -18 3 -20 2 -5 3 9 2 -4 2 -6 3 6 
2 -5 3 -2 2 4 2 -7 3 -7 2 3 2 18 3 -12 
2 -6 3 4 2 7 6128 6111 300 MP stroke
2 -5 3 -8 2 7 3 15 2 -8 2 -8 3 -9 2 2 
2 2 3 -4 2 1 3 -2 2 -3 2 2 3 3 2 -16 
3 26 2 -6 2 -4 3 -2 2 2 2 -1 3 -3 2 -2 
3 3 2 -2 2 -4 3 2 2 17 3 -11 2 -4 2 3 
3 -2 2 0 3 2 2 4 2 -4 3 -5 2 114 2 -49 
3 -49 2 -17 3 -8 2 8 2 4 3 -6 2 -1 3 3 
2 -1 2 -1 3 -6 2 8 2 0 3 -4 2 3 3 0 
2 -1 2 -3 3 3 2 0 3 -2 2 -7 2 20 3 -11 
2 0 2 -1 3 3 2 -3 3 1 2 -3 2 2 3 -1 
2 -4 3 12 2 -13 2 6 3 4 2 -7 3 -1 2 2 
2 7 3 -12 2 2 2 0 3 14 2 -19 3 10 2 3 
2 -9 3 3 2 1 3 0 2 0 2 -1 3 1 2 0 
2 0 3 -6 2 5 3 0 2 0 2 -1 3 -1 2 4 
3 -4 2 0 2 2 3 -1 2 1 2 -3 3 3 2 -1 
3 -1 2 -1 2 4 3 -2 2 -1 3 0 2 6 2 -7 
3 7 2 -5 3 -2 2 0 2 -1 3 3 2 -2 2 0 
3 0 2 3 3 -3 2 0 2 9 3 -14 2 5 3 -1 
2 2 2 -1 3 -1 2 4 2 -1 3 -3 2 -2 3 6 
2 -5 2 2 3 -3 2 2 3 1 2 0 2 -2 3 2 
2 0 2 1 3 -1 2 -2 3 -2 2 7 2 -3 3 1 
2 -2 3 1 2 -1 2 1 3 -1 2 0 3 0 2 0 
2 1 3 -3 2 2 2 0 3 0 2 -1 3 1 2 -3 
2 -1 3 6 2 26 3 1 2 -25 2 -7 3 8 2 -3 
2 1 3 -1 2 -2 3 1 2 -1 2 0 3 0 2 -1 
3 1 2 0 2 0 3 -1 2 1 2 0 3 1 2 -1 
3 0 2 1 2 -2 3 0 2 2 3 -3 2 2 2 0 
3 0 2 -1 3 0 2 0 2 0 3 0 2 0 2 1 
3 -1 2 0 3 0 2 1 2 0 3 0 2 -2 3 2 
2 5 2 -5 3 25 2 -19 2 -11 3 5 2 -2 3 -3 
2 5 2 -2 3 -1 2 1 3 1 2 -1 2 0 3 -1 
2 2 2 -1 3 -1 2 1 3 1 2 -1 2 0 3 0 
2 0 3 0 2 0 2 0 3 0 2 0 3 0 2 0 
2 0 3 0 2 0 2 0 3 0 2 0 3 -1 2 1 
2 0 3 -1 2 1 3 0 2 0 2 0 3 -1 2 2 
2 1 3 -5 2 13 3 -10 2 -1 2 2 3 -2 2 0 
3 1 2 -1 2 0 3 1 2 -1 2 0 3 0 2 0 
3 1 2 -1 2 0 3 0 2 0 3 0 2 0 2 0 
3 0 2 0 3 0 5414 6147 300 MP stroke
2 0 2 0 3 0 2 0 2 0 3 0 2 0 3 0 
2 0 2 0 3 0 2 0 3 0 2 0 2 0 3 0 
2 0 2 0 3 -1 2 1 3 0 2 0 2 0 3 0 
2 0 3 1 2 -3 2 2 3 0 2 0 2 0 3 0 
2 0 3 0 2 -1 2 1 3 0 2 0 3 0 2 0 
2 -1 3 1 2 -1 3 1 2 -1 2 1 3 -1 2 0 
2 1 3 -1 2 1 3 0 2 -1 2 1 3 -1 2 0 
3 1 2 -1 2 0 3 0 2 0 2 0 3 0 2 0 
3 0 2 0 2 0 3 0 2 0 3 0 2 0 2 0 
3 0 2 0 2 0 3 0 2 0 3 -1 2 2 2 -1 
3 0 2 0 3 0 2 0 2 0 3 0 2 1 3 -1 
2 0 2 0 3 0 2 0 2 1 3 -1 2 0 3 0 
2 0 2 0 3 1 2 -1 3 0 2 0 2 0 3 0 
2 0 2 0 3 0 2 0 3 0 2 0 2 0 3 0 
2 0 3 0 2 0 2 0 3 0 2 0 3 0 2 0 
2 0 3 0 2 0 2 0 3 -1 2 1 3 0 2 0 
2 0 3 0 2 0 3 0 2 0 2 0 3 0 2 0 
2 0 3 0 2 0 3 0 2 0 2 0 3 -1 2 1 
3 0 2 -1 2 1 3 0 2 -1 2 1 3 0 2 -1 
3 1 2 -1 2 1 3 -1 2 0 3 0 2 0 2 1 
3 -1 2 1 3 -1 2 1 2 -1 3 1 2 0 2 -1 
3 0 2 0 3 1 2 -1 2 0 3 1 2 -1 3 0 
2 0 2 1 3 -1 2 1 2 -1 3 0 2 0 3 0 
2 0 2 0 3 0 2 0 3 1 2 -1 2 0 3 0 
2 0 2 1 3 -1 2 0 3 1 2 -1 2 1 3 -1 
2 1 3 -1 2 1 2 -2 3 2 2 -1 3 0 2 1 
2 -1 3 0 2 0 2 0 3 0 2 0 3 0 2 0 
2 0 3 0 2 0 3 1 2 -1 2 0 3 1 2 -1 
2 0 3 0 2 0 3 0 2 0 2 0 3 0 2 0 
3 0 2 0 2 0 3 0 2 0 2 0 3 0 2 0 
3 0 2 0 2 0 3 0 2 0 3 0 2 0 2 0 
3 0 2 0 3 0 2 0 2 0 3 0 2 0 2 0 
3 0 2 0 3 0 2 0 2 0 3 0 2 0 3 0 
2 0 2 0 3 0 2 0 2 0 3 0 2 0 3 0 
2 0 2 0 3 0 2 0 3 0 2 0 2 0 3 0 
2 0 2 0 3 0 2 0 3 0 2 0 2 0 3 0 
2 0 3 0 2 0 2 0 3 0 2 0 3 0 2 0 
2 0 3 0 2 0 4701 6149 300 MP stroke
2 0 3 0 2 0 3 0 2 0 2 0 3 0 2 0 
3 0 2 0 2 0 3 0 2 0 2 0 3 0 2 0 
3 0 2 0 2 0 3 0 2 0 3 0 2 0 2 0 
3 0 2 0 2 0 3 0 2 0 3 0 2 0 2 0 
3 0 2 0 3 0 2 0 2 0 3 0 2 0 3 0 
2 0 2 0 3 0 2 0 2 0 3 0 2 0 3 0 
2 0 2 0 3 0 2 0 3 0 2 0 2 0 3 0 
2 0 2 -1 3 1 2 0 3 0 2 0 2 0 3 -1 
2 1 3 -1 2 0 2 0 3 0 2 1 2 0 3 0 
2 -1 3 1 2 -1 2 0 3 0 2 0 3 0 2 0 
2 0 3 1 2 -1 3 0 2 0 2 0 3 0 2 0 
2 0 3 0 2 0 3 0 2 0 2 0 3 0 2 0 
3 0 2 0 2 0 3 0 2 0 2 0 3 0 2 0 
3 0 2 0 2 0 3 0 2 1 3 -1 2 0 2 0 
3 0 2 0 2 0 3 0 2 0 3 0 2 0 2 0 
3 0 2 0 3 0 2 0 2 0 3 0 2 0 3 0 
2 0 2 0 3 0 2 0 2 0 3 0 2 0 3 0 
2 0 2 0 3 0 2 0 3 0 2 0 2 0 3 0 
2 0 2 0 3 0 2 0 3 0 2 0 2 0 3 0 
2 0 3 0 2 0 2 0 3 0 2 0 2 0 3 0 
2 0 3 0 2 0 2 0 3 0 2 0 3 0 2 0 
2 0 3 0 2 0 3 0 2 0 2 0 3 0 2 0 
2 0 3 0 2 0 3 0 2 0 2 0 3 0 2 0 
3 0 2 0 2 0 3 0 2 0 2 0 3 0 2 0 
3 0 2 0 2 0 3 0 2 0 3 0 2 0 2 0 
3 0 2 0 2 0 3 0 2 0 3 0 2 0 2 0 
3 0 2 0 3 0 2 0 2 0 3 0 2 0 3 0 
2 0 2 0 3 0 2 0 2 0 3 0 2 0 3 0 
2 0 2 0 3 0 2 0 3 0 2 0 2 0 3 0 
2 0 2 0 3 0 2 0 3 0 2 0 2 0 3 0 
2 0 3 0 2 0 2 0 3 0 2 0 2 0 3 0 
2 0 3 0 2 0 2 0 3 0 2 0 3 0 2 0 
2 0 3 0 2 0 3 0 2 0 2 0 3 0 2 0 
2 0 3 0 2 0 3 0 2 0 2 0 3 0 2 0 
3 0 2 0 2 0 3 0 2 0 2 0 3 0 2 0 
3 0 2 0 2 0 3 0 2 0 3 0 2 0 2 0 
3 0 2 0 3 0 2 0 2 0 3 0 2 0 2 0 
3 0 2 0 3 0 3987 6150 300 MP stroke
2 0 2 0 3 0 2 0 3 0 2 0 2 0 3 0 
2 0 2 0 3 0 2 0 3 0 2 0 2 0 3 0 
2 0 3 0 2 0 2 0 3 0 2 0 2 0 3 0 
2 0 3 0 2 0 2 0 3 0 2 0 3 0 2 0 
2 0 3 0 2 0 3 0 2 0 2 0 3 0 2 0 
2 0 3 0 2 0 3 0 2 0 2 0 3 0 2 0 
3 0 2 0 2 0 3 0 2 0 2 0 3 0 2 0 
3 0 2 0 2 0 3 0 2 0 3 0 2 0 2 0 
3 0 2 0 2 0 3 0 2 0 3 0 2 0 2 0 
3 0 2 0 3 0 2 0 2 0 3 0 2 0 3 0 
2 0 2 0 3 0 2 0 2 0 3 0 2 0 3 0 
2 0 2 0 3 0 2 0 3 0 2 0 2 0 3 0 
2 0 2 0 3 0 2 0 3 0 2 0 2 0 3 0 
2 0 3 0 2 0 2 0 3 0 2 0 2 0 3 0 
2 0 3 0 2 0 2 0 3 0 2 0 3 0 2 0 
2 0 3 0 2 0 3 0 2 0 2 0 3 0 2 0 
2 0 3 0 2 0 3 0 2 0 2 0 3 0 2 0 
3 0 2 0 2 0 3 0 2 0 2 0 3 0 2 0 
3 0 2 0 2 0 3 0 2 0 3 0 2 0 2 0 
3 0 2 0 2 0 3 0 2 0 3 0 2 0 2 0 
3 0 2 0 3 0 2 0 2 0 3 0 2 0 3 0 
2 0 2 0 3 0 2 0 2 0 3 0 2 0 3 0 
2 0 2 0 3 0 2 0 3 0 2 0 2 0 3 0 
2 0 2 0 3 0 2 0 3 0 2 0 2 0 3 0 
2 0 3 0 2 0 2 0 3 0 2 0 2 0 3 0 
2 0 3 0 2 0 2 0 3 0 2 0 3 0 2 0 
2 0 3 0 2 0 3 0 2 0 2 0 3 0 2 0 
2 0 3 0 2 0 3 0 2 0 2 0 3 0 2 0 
3 0 2 0 2 0 3 0 2 0 2 0 3 0 2 0 
3 0 2 0 2 0 3 0 2 0 3 0 2 0 2 0 
3 0 2 0 2 0 3 0 2 0 3 0 2 0 2 0 
3 0 2 0 3 0 2 -1 2 1 3 0 2 0 3 0 
2 0 2 0 3 0 2 0 2 -1 3 1 2 0 3 0 
2 0 2 0 3 -1 2 1 3 0 2 0 2 0 3 -1 
2 0 2 1 3 -1 2 1 3 -1 2 1 2 -1 3 1 
2 0 3 -1 2 0 2 1 3 -1 2 1 2 0 3 0 
2 0 3 0 2 0 2 -1 3 1 2 0 3 -1 2 0 
2 0 3 0 2 1 3274 6150 300 MP stroke
3 -1 2 0 2 0 3 0 2 1 2 -1 3 0 2 0 
3 0 2 1 2 0 3 -1 2 0 3 0 2 0 2 0 
3 0 2 0 2 0 3 1 2 0 3 0 2 -1 2 0 
3 0 2 1 3 -1 2 0 2 0 3 0 2 0 2 0 
3 0 2 0 3 0 2 0 2 0 3 0 2 0 3 0 
2 0 2 0 3 0 2 0 3 0 2 0 2 0 3 0 
2 0 2 1 3 -1 2 0 3 0 2 0 2 0 3 0 
2 0 3 0 2 0 2 0 3 0 2 0 2 0 3 0 
2 0 3 0 2 0 2 0 3 0 2 0 3 0 2 0 
2 0 3 0 2 0 2 0 3 0 2 0 3 0 2 0 
2 0 3 0 2 0 3 0 2 0 2 0 3 0 2 0 
3 0 2 0 2 0 3 0 2 0 2 0 3 0 2 0 
3 0 2 0 2 0 3 0 2 0 3 0 2 0 2 0 
3 0 2 0 2 0 3 0 2 0 3 0 2 0 2 0 
3 0 2 0 3 0 2 0 2 0 3 0 2 0 2 0 
3 0 2 0 3 0 2 0 2 0 3 0 2 0 3 0 
2 0 2 0 3 0 2 0 3 0 2 0 2 0 3 0 
2 0 2 0 3 0 2 0 3 0 2 0 2 0 3 0 
2 0 3 0 2 0 2 0 3 0 2 0 2 0 3 0 
2 0 3 0 2 0 2 0 3 0 2 0 3 0 2 0 
2 0 3 0 2 0 3 0 2 0 2 0 3 0 2 0 
2 0 3 0 2 0 3 0 2 0 2 0 3 0 2 0 
3 0 2 0 2 0 3 0 2 0 2 0 3 0 2 0 
3 0 2 0 2 0 3 0 2 0 3 0 2 0 2 0 
3 0 2 0 2 0 3 0 2 0 3 0 2 0 2 0 
3 0 2 0 3 0 2 0 2 0 3 0 2 0 3 0 
2 0 2 0 3 0 2 0 2 0 3 0 2 0 3 0 
2 0 2 0 3 0 2 0 3 0 2 0 2 0 3 0 
2 0 2 0 3 0 2 0 3 0 2 0 2 0 3 0 
2 0 3 0 2 0 2 0 3 0 2 0 2 0 3 0 
2 0 3 0 2 0 2 0 3 0 2 0 3 0 2 0 
2 0 3 0 2 0 3 0 2 0 2 0 3 0 2 0 
2 0 3 0 2 0 3 0 2 0 2 0 3 0 2 0 
3 0 2 0 2 0 3 0 2 0 2 0 3 0 2 0 
3 0 2 0 2 0 3 0 2 0 3 0 2 0 2 0 
3 0 2 0 2 0 3 0 2 0 3 0 2 0 2 0 
3 0 2 0 3 0 2 0 2 0 3 0 2 0 3 0 
2 0 2 0 3 0 2560 6151 300 MP stroke
2 0 2 0 3 0 2 0 3 0 2 0 2 0 3 0 
2 0 3 0 2 0 2 0 3 0 2 0 2 0 3 0 
2 0 3 0 2 0 2 0 3 0 2 0 3 0 2 0 
2 0 3 0 2 0 2 0 3 0 2 0 3 0 2 0 
2 0 3 0 2 0 3 0 2 0 2 0 3 0 2 0 
3 0 2 0 2 0 3 0 2 0 2 0 3 0 2 0 
3 0 2 0 2 0 3 0 2 0 3 0 2 0 2 0 
3 0 2 0 2 0 3 0 2 0 3 0 2 0 2 0 
3 0 2 0 3 0 2 0 2 0 3 0 2 0 2 0 
3 0 2 0 3 0 2 0 2 0 3 0 2 0 3 0 
2 0 2 0 3 0 2 0 3 0 2 0 2 0 3 0 
2 0 2 0 3 0 2 0 3 0 2 0 2 0 3 0 
2 0 3 0 2 0 2 0 3 0 2 0 2 0 3 0 
2 0 3 0 2 0 2 0 3 0 2 0 3 0 2 0 
2 0 3 0 2 0 2 0 3 0 2 0 3 0 2 0 
2 0 3 0 2 0 3 0 2 0 2 0 3 0 2 0 
3 0 2 0 2 0 3 0 2 0 2 0 3 0 2 0 
3 0 2 0 2 0 3 0 2 0 3 0 2 0 2 0 
3 0 2 0 2 0 3 0 2 0 3 0 2 0 2 0 
3 0 2 0 3 0 2 0 2 0 3 0 2 0 2 0 
3 0 2 0 3 0 2 0 2 0 3 0 2 0 3 0 
2 0 2 0 3 0 2 0 3 0 2 0 2 0 3 0 
2 0 2 0 3 0 2 0 3 0 2 0 2 0 3 0 
2 0 3 0 2 0 2 0 3 0 2 0 2 0 3 0 
2 0 3 0 2 0 2 0 3 0 2 0 3 0 2 0 
2 0 3 0 2 0 2 0 3 0 2 0 3 0 2 0 
2 0 3 0 2 0 3 0 2 0 2 0 3 0 2 0 
3 0 2 0 2 0 3 0 2 0 2 0 3 0 2 0 
3 0 2 0 2 0 3 0 2 0 3 0 2 0 2 0 
3 0 2 0 2 0 3 0 2 0 3 0 2 0 2 0 
3 0 2 0 3 0 2 0 2 0 3 0 2 0 2 0 
3 0 2 0 3 0 2 0 2 0 3 0 2 0 3 0 
2 0 2 0 3 0 2 0 3 0 2 0 2 0 3 0 
2 0 2 0 3 0 2 0 3 0 2 0 2 0 3 0 
2 0 3 0 2 0 2 0 3 0 2 0 2 0 3 0 
2 0 3 0 2 0 2 0 3 0 2 0 3 0 2 0 
2 0 3 0 2 0 2 0 3 0 2 0 3 0 2 0 
2 0 3 0 2 0 1847 6151 300 MP stroke
3 0 2 0 2 0 3 0 2 0 3 0 2 0 2 0 
3 0 2 0 2 0 3 0 2 0 3 0 2 0 2 0 
3 0 2 0 3 0 2 0 2 0 3 0 2 0 2 0 
3 0 2 0 3 0 2 0 2 0 3 0 2 0 3 0 
2 0 2 0 3 0 2 0 3 0 2 0 2 0 3 0 
2 0 2 0 3 0 2 0 3 0 2 0 2 0 3 0 
2 0 3 0 2 0 2 0 3 0 2 0 2 0 3 0 
2 0 3 0 2 0 2 0 3 0 2 0 3 0 2 0 
2 0 3 0 2 0 2 0 3 0 2 0 3 0 2 0 
2 0 3 0 2 0 3 0 2 0 2 0 3 0 2 0 
3 0 2 0 2 0 3 0 2 0 2 0 3 0 2 0 
3 0 2 0 2 0 3 0 2 0 3 0 2 0 2 0 
3 0 2 0 2 0 3 0 2 0 3 0 2 0 2 0 
1 0 1598 6151 106 MP stroke
gr

c8
0 sg
4890  416 mt 
(|X\(j) s
%%IncludeResource: font Symbol
/Symbol /ISOLatin1Encoding 120 FMSR

5067  416 mt 
(W) s
%%IncludeResource: font Helvetica
/Helvetica /ISOLatin1Encoding 120 FMSR

5159  416 mt 
(\)| - modulo della trasformata del segnale originario) s
1581 6196 mt 
( ) s
11106  561 mt 
( ) s
1 sg
0 206 844 0 0 -206 10219 785 4 MP
PP
-844 0 0 206 844 0 0 -206 10219 785 5 MP stroke
4 w
DO
SO
6 w
0 sg
10219  785 mt 11063  785 L
10219  579 mt 11063  579 L
10219  785 mt 10219  579 L
11063  785 mt 11063  579 L
10219  785 mt 11063  785 L
10219  785 mt 10219  579 L
10219  785 mt 11063  785 L
10219  579 mt 11063  579 L
10219  785 mt 10219  579 L
11063  785 mt 11063  579 L
10674  726 mt 
(|X\(j) s
%%IncludeResource: font Symbol
/Symbol /ISOLatin1Encoding 120 FMSR

10851  726 mt 
(W) s
%%IncludeResource: font Helvetica
/Helvetica /ISOLatin1Encoding 120 FMSR

10943  726 mt 
(\)|) s
gs 10219 579 845 207 rc
c8
350 0 10288 682 2 MP stroke
gr

c8

end %%Color Dict

eplot
%%EndObject

epage
end

showpage

%%Trailer
%%EOF
