%!PS-Adobe-3.0 EPSF-3.0
%%Creator: MATLAB, The Mathworks, Inc. Version 7.7.0.471 (R2008b). Operating System: Linux 2.6.26-1-686 #1 SMP Fri Mar 13 18:08:45 UTC 2009 i686.
%%Title: /home/salvix/Dev/UniPD/ens/hw1/matlab/x_n.eps
%%CreationDate: 10/23/2009  01:41:40
%%DocumentNeededFonts: Helvetica
%%DocumentProcessColors: Cyan Magenta Yellow Black
%%LanguageLevel: 2
%%Pages: 1
%%BoundingBox:    73   252   521   589
%%EndComments

%%BeginProlog
% MathWorks dictionary
/MathWorks 160 dict begin
% definition operators
/bdef {bind def} bind def
/ldef {load def} bind def
/xdef {exch def} bdef
/xstore {exch store} bdef
% operator abbreviations
/c  /clip ldef
/cc /concat ldef
/cp /closepath ldef
/gr /grestore ldef
/gs /gsave ldef
/mt /moveto ldef
/np /newpath ldef
/cm /currentmatrix ldef
/sm /setmatrix ldef
/rm /rmoveto ldef
/rl /rlineto ldef
/s {show newpath} bdef
/sc {setcmykcolor} bdef
/sr /setrgbcolor ldef
/sg /setgray ldef
/w /setlinewidth ldef
/j /setlinejoin ldef
/cap /setlinecap ldef
/rc {rectclip} bdef
/rf {rectfill} bdef
% page state control
/pgsv () def
/bpage {/pgsv save def} bdef
/epage {pgsv restore} bdef
/bplot /gsave ldef
/eplot {stroke grestore} bdef
% orientation switch
/portraitMode 0 def /landscapeMode 1 def /rotateMode 2 def
% coordinate system mappings
/dpi2point 0 def
% font control
/FontSize 0 def
/FMS {/FontSize xstore findfont [FontSize 0 0 FontSize neg 0 0]
  makefont setfont} bdef
/reencode {exch dup where {pop load} {pop StandardEncoding} ifelse
  exch dup 3 1 roll findfont dup length dict begin
  { 1 index /FID ne {def}{pop pop} ifelse } forall
  /Encoding exch def currentdict end definefont pop} bdef
/isroman {findfont /CharStrings get /Agrave known} bdef
/FMSR {3 1 roll 1 index dup isroman {reencode} {pop pop} ifelse
  exch FMS} bdef
/csm {1 dpi2point div -1 dpi2point div scale neg translate
 dup landscapeMode eq {pop -90 rotate}
  {rotateMode eq {90 rotate} if} ifelse} bdef
% line types: solid, dotted, dashed, dotdash
/SO { [] 0 setdash } bdef
/DO { [.5 dpi2point mul 4 dpi2point mul] 0 setdash } bdef
/DA { [6 dpi2point mul] 0 setdash } bdef
/DD { [.5 dpi2point mul 4 dpi2point mul 6 dpi2point mul 4
  dpi2point mul] 0 setdash } bdef
% macros for lines and objects
/L {lineto stroke} bdef
/MP {3 1 roll moveto 1 sub {rlineto} repeat} bdef
/AP {{rlineto} repeat} bdef
/PDlw -1 def
/W {/PDlw currentlinewidth def setlinewidth} def
/PP {closepath eofill} bdef
/DP {closepath stroke} bdef
/MR {4 -2 roll moveto dup  0 exch rlineto exch 0 rlineto
  neg 0 exch rlineto closepath} bdef
/FR {MR stroke} bdef
/PR {MR fill} bdef
/L1i {{currentfile picstr readhexstring pop} image} bdef
/tMatrix matrix def
/MakeOval {newpath tMatrix currentmatrix pop translate scale
0 0 1 0 360 arc tMatrix setmatrix} bdef
/FO {MakeOval stroke} bdef
/PO {MakeOval fill} bdef
/PD {currentlinewidth 2 div 0 360 arc fill
   PDlw -1 eq not {PDlw w /PDlw -1 def} if} def
/FA {newpath tMatrix currentmatrix pop translate scale
  0 0 1 5 -2 roll arc tMatrix setmatrix stroke} bdef
/PA {newpath tMatrix currentmatrix pop	translate 0 0 moveto scale
  0 0 1 5 -2 roll arc closepath tMatrix setmatrix fill} bdef
/FAn {newpath tMatrix currentmatrix pop translate scale
  0 0 1 5 -2 roll arcn tMatrix setmatrix stroke} bdef
/PAn {newpath tMatrix currentmatrix pop translate 0 0 moveto scale
  0 0 1 5 -2 roll arcn closepath tMatrix setmatrix fill} bdef
/vradius 0 def /hradius 0 def /lry 0 def
/lrx 0 def /uly 0 def /ulx 0 def /rad 0 def
/MRR {/vradius xdef /hradius xdef /lry xdef /lrx xdef /uly xdef
  /ulx xdef newpath tMatrix currentmatrix pop ulx hradius add uly
  vradius add translate hradius vradius scale 0 0 1 180 270 arc 
  tMatrix setmatrix lrx hradius sub uly vradius add translate
  hradius vradius scale 0 0 1 270 360 arc tMatrix setmatrix
  lrx hradius sub lry vradius sub translate hradius vradius scale
  0 0 1 0 90 arc tMatrix setmatrix ulx hradius add lry vradius sub
  translate hradius vradius scale 0 0 1 90 180 arc tMatrix setmatrix
  closepath} bdef
/FRR {MRR stroke } bdef
/PRR {MRR fill } bdef
/MlrRR {/lry xdef /lrx xdef /uly xdef /ulx xdef /rad lry uly sub 2 div def
  newpath tMatrix currentmatrix pop ulx rad add uly rad add translate
  rad rad scale 0 0 1 90 270 arc tMatrix setmatrix lrx rad sub lry rad
  sub translate rad rad scale 0 0 1 270 90 arc tMatrix setmatrix
  closepath} bdef
/FlrRR {MlrRR stroke } bdef
/PlrRR {MlrRR fill } bdef
/MtbRR {/lry xdef /lrx xdef /uly xdef /ulx xdef /rad lrx ulx sub 2 div def
  newpath tMatrix currentmatrix pop ulx rad add uly rad add translate
  rad rad scale 0 0 1 180 360 arc tMatrix setmatrix lrx rad sub lry rad
  sub translate rad rad scale 0 0 1 0 180 arc tMatrix setmatrix
  closepath} bdef
/FtbRR {MtbRR stroke } bdef
/PtbRR {MtbRR fill } bdef
/stri 6 array def /dtri 6 array def
/smat 6 array def /dmat 6 array def
/tmat1 6 array def /tmat2 6 array def /dif 3 array def
/asub {/ind2 exch def /ind1 exch def dup dup
  ind1 get exch ind2 get sub exch } bdef
/tri_to_matrix {
  2 0 asub 3 1 asub 4 0 asub 5 1 asub
  dup 0 get exch 1 get 7 -1 roll astore } bdef
/compute_transform {
  dmat dtri tri_to_matrix tmat1 invertmatrix 
  smat stri tri_to_matrix tmat2 concatmatrix } bdef
/ds {stri astore pop} bdef
/dt {dtri astore pop} bdef
/db {2 copy /cols xdef /rows xdef mul dup 3 mul string
  currentfile 
  3 index 0 eq {/ASCIIHexDecode filter}
  {/ASCII85Decode filter 3 index 2 eq {/RunLengthDecode filter} if }
  ifelse exch readstring pop
  dup 0 3 index getinterval /rbmap xdef
  dup 2 index dup getinterval /gbmap xdef
  1 index dup 2 mul exch getinterval /bbmap xdef pop pop}bdef
/it {gs np dtri aload pop moveto lineto lineto cp c
  cols rows 8 compute_transform 
  rbmap gbmap bbmap true 3 colorimage gr}bdef
/il {newpath moveto lineto stroke}bdef
currentdict end def
%%EndProlog

%%BeginSetup
MathWorks begin

0 cap

end
%%EndSetup

%%Page: 1 1
%%BeginPageSetup
%%PageBoundingBox:    73   252   521   589
MathWorks begin
bpage
%%EndPageSetup

%%BeginObject: obj1
bplot

/dpi2point 12 def
portraitMode 0876 7068 csm

    0     0  5376  4034 rc
85 dict begin %Colortable dictionary
/c0 { 0.000000 0.000000 0.000000 sr} bdef
/c1 { 1.000000 1.000000 1.000000 sr} bdef
/c2 { 0.900000 0.000000 0.000000 sr} bdef
/c3 { 0.000000 0.820000 0.000000 sr} bdef
/c4 { 0.000000 0.000000 0.800000 sr} bdef
/c5 { 0.910000 0.820000 0.320000 sr} bdef
/c6 { 1.000000 0.260000 0.820000 sr} bdef
/c7 { 0.000000 0.820000 0.820000 sr} bdef
c0
1 j
1 sg
   0    0 5377 4035 rf
6 w
0 3287 4166 0 0 -3287 699 3590 4 MP
PP
-4166 0 0 3287 4166 0 0 -3287 699 3590 5 MP stroke
4 w
DO
0 sg
 699 3590 mt  699  303 L
 699  303 mt  699  303 L
1115 3590 mt 1115  303 L
1115  303 mt 1115  303 L
1532 3590 mt 1532  303 L
1532  303 mt 1532  303 L
1948 3590 mt 1948  303 L
1948  303 mt 1948  303 L
2365 3590 mt 2365  303 L
2365  303 mt 2365  303 L
2782 3590 mt 2782  303 L
2782  303 mt 2782  303 L
3198 3590 mt 3198  303 L
3198  303 mt 3198  303 L
3615 3590 mt 3615  303 L
3615  303 mt 3615  303 L
4031 3590 mt 4031  303 L
4031  303 mt 4031  303 L
4448 3590 mt 4448  303 L
4448  303 mt 4448  303 L
4865 3590 mt 4865  303 L
4865  303 mt 4865  303 L
 699 3590 mt 4865 3590 L
4865 3590 mt 4865 3590 L
 699 3042 mt 4865 3042 L
4865 3042 mt 4865 3042 L
 699 2494 mt 4865 2494 L
4865 2494 mt 4865 2494 L
 699 1946 mt 4865 1946 L
4865 1946 mt 4865 1946 L
 699 1398 mt 4865 1398 L
4865 1398 mt 4865 1398 L
 699  850 mt 4865  850 L
4865  850 mt 4865  850 L
 699  303 mt 4865  303 L
4865  303 mt 4865  303 L
SO
6 w
 699 3590 mt 4865 3590 L
 699  303 mt 4865  303 L
 699 3590 mt  699  303 L
4865 3590 mt 4865  303 L
 699 3590 mt 4865 3590 L
 699 3590 mt  699  303 L
 699 3590 mt  699 3548 L
 699  303 mt  699  344 L
%%IncludeResource: font Helvetica
/Helvetica /ISOLatin1Encoding 120 FMSR

 666 3735 mt 
(0) s
1115 3590 mt 1115 3548 L
1115  303 mt 1115  344 L
1049 3735 mt 
(50) s
1532 3590 mt 1532 3548 L
1532  303 mt 1532  344 L
1432 3735 mt 
(100) s
1948 3590 mt 1948 3548 L
1948  303 mt 1948  344 L
1848 3735 mt 
(150) s
2365 3590 mt 2365 3548 L
2365  303 mt 2365  344 L
2265 3735 mt 
(200) s
2782 3590 mt 2782 3548 L
2782  303 mt 2782  344 L
2682 3735 mt 
(250) s
3198 3590 mt 3198 3548 L
3198  303 mt 3198  344 L
3098 3735 mt 
(300) s
3615 3590 mt 3615 3548 L
3615  303 mt 3615  344 L
3515 3735 mt 
(350) s
4031 3590 mt 4031 3548 L
4031  303 mt 4031  344 L
3931 3735 mt 
(400) s
4448 3590 mt 4448 3548 L
4448  303 mt 4448  344 L
4348 3735 mt 
(450) s
4865 3590 mt 4865 3548 L
4865  303 mt 4865  344 L
4765 3735 mt 
(500) s
 699 3590 mt  740 3590 L
4865 3590 mt 4823 3590 L
 428 3634 mt 
(-1.5) s
 699 3042 mt  740 3042 L
4865 3042 mt 4823 3042 L
 528 3086 mt 
(-1) s
 699 2494 mt  740 2494 L
4865 2494 mt 4823 2494 L
 428 2538 mt 
(-0.5) s
 699 1946 mt  740 1946 L
4865 1946 mt 4823 1946 L
 598 1990 mt 
(0) s
 699 1398 mt  740 1398 L
4865 1398 mt 4823 1398 L
 498 1442 mt 
(0.5) s
 699  850 mt  740  850 L
4865  850 mt 4823  850 L
 598  894 mt 
(1) s
 699  303 mt  740  303 L
4865  303 mt 4823  303 L
 498  347 mt 
(1.5) s
 699 3590 mt 4865 3590 L
 699  303 mt 4865  303 L
 699 3590 mt  699  303 L
4865 3590 mt 4865  303 L
gs 699 303 4167 3288 rc
/c8 { 0.000000 0.000000 1.000000 sr} bdef
c8
8 -80 8 -79 9 -78 8 -79 8 -77 9 -76 8 -76 8 -74 
9 -74 8 -72 8 -70 9 -68 8 -65 8 -61 9 -59 8 -54 
8 -51 9 -46 8 -41 8 -36 9 -31 8 -25 8 -20 9 -14 
8 -8 8 -3 9 3 8 8 8 12 9 19 8 26 8 31 
9 40 8 45 8 53 9 59 8 61 8 67 9 69 8 72 
8 74 9 74 8 76 8 77 9 77 8 78 8 77 9 78 
8 76 8 74 9 72 8 71 8 67 9 66 8 63 8 60 
9 59 8 55 8 54 9 50 8 46 8 42 9 38 8 33 
8 29 9 23 8 18 8 14 9 9 8 2 8 -3 9 -9 
8 -14 8 -22 9 -27 8 -36 8 -41 9 -48 8 -53 8 -60 
9 -63 8 -69 8 -72 9 -76 8 -80 8 -79 9 -83 8 -83 
8 -85 9 -84 8 -85 8 -84 9 -83 8 -82 8 -81 9 -76 
8 -75 8 -70 9 -67 8 -62 8 -58 9 -53 8 -46 8 -42 
9 -37 8 -32 8 -28 9 -23 8 -20 8 -15 9 -11 8 -7 
8 -2 9 1 8 7 8 12 9 19 8 27 8 34 9 40 
8 48 8 54 9 58 8 64 8 67 9 70 8 73 8 75 
9 77 8 79 8 81 9 81 8 83 8 84 9 83 8 83 
8 83 9 81 8 79 8 77 9 74 8 71 8 68 9 65 
8 63 8 57 9 55 8 49 8 47 9 40 8 37 8 32 
9 26 8 21 8 17 9 10 8 4 8 -2 9 -9 8 -15 
8 -22 9 -28 8 -35 8 -41 9 -48 8 -55 8 -59 9 -66 
8 -70 8 -73 9 -77 8 -79 8 -82 9 -83 8 -85 8 -87 
9 -87 8 -87 8 -87 9 -87 8 -85 8 -84 9 -81 8 -77 
8 -74 9 -72 8 -68 8 -65 9 -62 8 -58 8 -56 9 -50 
8 -47 8 -42 9 -37 8 -31 8 -25 9 -21 8 -14 8 -10 
9 -3 8 3 8 9 9 16 8 23 8 29 9 36 8 43 
8 47 9 52 8 57 8 61 9 64 8 70 8 75 9 78 
8 85 8 87 9 91 8 93 8 94 9 93 8 92 8 91 
9 87 8 85 8 82 9 80 8 77 8 74 9 71 8 68 
8 64 9 60 8 56 8 52 9 47 8 43 8 37 9 31 
8 26 8 18 9 14 8 6 8 0 9 -7 8 -13 8 -19 
8 -26 9 -31 8 -37 8 -42 9 -49 8 -53 8 -59 9 -63 
8 -69 8 -73 9 -76 8 -79 8 -82 9 -85 8 -87 8 -88 
9 -88 8 -90 8 -89 9 -87 8 -86 8 -81 9 -80 8 -76 
8 -73 9 -70 8 -67 8 -63 9 -59 8 -56 8 -52 9 -49 
8 -45 8 -43 9 -38 8 -37 8 -31 9 -29 8 -24 8 -17 
9 -13 8 -6 8 1 9 9 8 16 8 23 9 31 8 38 
8 44 9 49 8 55 2365 2911 300 MP stroke
8 61 9 64 8 71 8 74 9 78 8 79 8 82 9 82 
8 81 8 83 9 82 8 81 8 81 9 80 8 79 8 79 
9 77 8 76 8 75 9 72 8 70 8 67 9 63 8 58 
8 53 9 48 8 42 8 36 9 31 8 26 8 22 9 17 
8 14 8 10 9 6 8 1 8 -5 9 -10 8 -16 8 -22 
9 -29 8 -35 8 -41 9 -47 8 -52 8 -56 9 -61 8 -66 
8 -69 9 -73 8 -75 8 -78 9 -77 8 -80 8 -79 9 -80 
8 -79 8 -79 9 -77 8 -77 8 -75 9 -74 8 -72 8 -68 
9 -67 8 -62 8 -59 9 -56 8 -53 8 -49 9 -46 8 -42 
8 -39 9 -35 8 -30 8 -24 9 -19 8 -12 8 -5 9 0 
8 7 8 13 9 19 8 24 8 31 9 37 8 43 8 47 
9 53 8 59 8 64 9 68 8 71 8 74 9 75 8 78 
8 78 9 79 8 79 8 78 9 79 8 76 8 77 9 75 
8 75 8 71 9 71 8 67 8 65 9 62 8 60 8 55 
9 52 8 47 8 44 9 39 8 36 8 31 9 27 8 22 
8 17 9 11 8 5 8 -1 9 -9 8 -16 8 -23 9 -29 
8 -35 8 -42 9 -47 8 -53 8 -56 9 -62 8 -65 8 -70 
9 -73 8 -76 8 -79 9 -82 8 -84 8 -86 9 -86 8 -86 
8 -88 9 -86 8 -86 8 -83 9 -80 8 -78 8 -73 9 -70 
8 -65 8 -62 9 -57 8 -53 8 -51 9 -46 8 -44 8 -40 
9 -35 8 -30 8 -25 9 -18 8 -12 8 -5 9 2 8 8 
8 15 9 22 8 28 8 33 9 39 8 45 8 48 9 55 
8 59 8 64 9 68 8 72 8 75 9 78 8 80 8 83 
9 83 8 86 8 85 9 86 8 86 8 86 9 85 8 84 
8 82 9 80 8 77 8 74 9 72 8 66 8 63 8 58 
699 1039 201 MP stroke
gr

c8
0 sg
2748 3878 mt 
(n) s
 346 2050 mt  -90 rotate
(x\(n\)) s
90 rotate
1029  154 mt 
(x\(n\) - Segnale audio distrubato \(campioni da 10.000T) s
%%IncludeResource: font Helvetica
/Helvetica /ISOLatin1Encoding 96 FMSR

3895  214 mt 
(s) s
%%IncludeResource: font Helvetica
/Helvetica /ISOLatin1Encoding 120 FMSR

3943  154 mt 
( a 10500T) s
%%IncludeResource: font Helvetica
/Helvetica /ISOLatin1Encoding 96 FMSR

4483  214 mt 
(s) s
%%IncludeResource: font Helvetica
/Helvetica /ISOLatin1Encoding 120 FMSR

4531  154 mt 
(\)) s
 682 3633 mt 
( ) s
4849  345 mt 
( ) s
1 sg
0 188 713 0 0 -188 4093 551 4 MP
PP
-713 0 0 188 713 0 0 -188 4093 551 5 MP stroke
4 w
DO
SO
6 w
0 sg
4093  551 mt 4806  551 L
4093  363 mt 4806  363 L
4093  551 mt 4093  363 L
4806  551 mt 4806  363 L
4093  551 mt 4806  551 L
4093  551 mt 4093  363 L
4093  551 mt 4806  551 L
4093  363 mt 4806  363 L
4093  551 mt 4093  363 L
4806  551 mt 4806  363 L
4554  500 mt 
(x\(n\)) s
gs 4093 363 714 189 rc
c8
354 0 4163 457 2 MP stroke
gr

c8

end %%Color Dict

eplot
%%EndObject

epage
end

showpage

%%Trailer
%%EOF
