%!PS-Adobe-3.0 EPSF-3.0
%%Creator: MATLAB, The Mathworks, Inc. Version 7.7.0.471 (R2008b). Operating System: Linux 2.6.26-1-686 #1 SMP Fri Mar 13 18:08:45 UTC 2009 i686.
%%Title: /home/salvix/Dev/UniPD/ens/hw1/figures/Y_f.eps
%%CreationDate: 10/23/2009  01:32:25
%%DocumentNeededFonts: Helvetica
%%DocumentProcessColors: Cyan Magenta Yellow Black
%%LanguageLevel: 2
%%Pages: 1
%%BoundingBox:  -214   132   810   709
%%EndComments

%%BeginProlog
% MathWorks dictionary
/MathWorks 160 dict begin
% definition operators
/bdef {bind def} bind def
/ldef {load def} bind def
/xdef {exch def} bdef
/xstore {exch store} bdef
% operator abbreviations
/c  /clip ldef
/cc /concat ldef
/cp /closepath ldef
/gr /grestore ldef
/gs /gsave ldef
/mt /moveto ldef
/np /newpath ldef
/cm /currentmatrix ldef
/sm /setmatrix ldef
/rm /rmoveto ldef
/rl /rlineto ldef
/s {show newpath} bdef
/sc {setcmykcolor} bdef
/sr /setrgbcolor ldef
/sg /setgray ldef
/w /setlinewidth ldef
/j /setlinejoin ldef
/cap /setlinecap ldef
/rc {rectclip} bdef
/rf {rectfill} bdef
% page state control
/pgsv () def
/bpage {/pgsv save def} bdef
/epage {pgsv restore} bdef
/bplot /gsave ldef
/eplot {stroke grestore} bdef
% orientation switch
/portraitMode 0 def /landscapeMode 1 def /rotateMode 2 def
% coordinate system mappings
/dpi2point 0 def
% font control
/FontSize 0 def
/FMS {/FontSize xstore findfont [FontSize 0 0 FontSize neg 0 0]
  makefont setfont} bdef
/reencode {exch dup where {pop load} {pop StandardEncoding} ifelse
  exch dup 3 1 roll findfont dup length dict begin
  { 1 index /FID ne {def}{pop pop} ifelse } forall
  /Encoding exch def currentdict end definefont pop} bdef
/isroman {findfont /CharStrings get /Agrave known} bdef
/FMSR {3 1 roll 1 index dup isroman {reencode} {pop pop} ifelse
  exch FMS} bdef
/csm {1 dpi2point div -1 dpi2point div scale neg translate
 dup landscapeMode eq {pop -90 rotate}
  {rotateMode eq {90 rotate} if} ifelse} bdef
% line types: solid, dotted, dashed, dotdash
/SO { [] 0 setdash } bdef
/DO { [.5 dpi2point mul 4 dpi2point mul] 0 setdash } bdef
/DA { [6 dpi2point mul] 0 setdash } bdef
/DD { [.5 dpi2point mul 4 dpi2point mul 6 dpi2point mul 4
  dpi2point mul] 0 setdash } bdef
% macros for lines and objects
/L {lineto stroke} bdef
/MP {3 1 roll moveto 1 sub {rlineto} repeat} bdef
/AP {{rlineto} repeat} bdef
/PDlw -1 def
/W {/PDlw currentlinewidth def setlinewidth} def
/PP {closepath eofill} bdef
/DP {closepath stroke} bdef
/MR {4 -2 roll moveto dup  0 exch rlineto exch 0 rlineto
  neg 0 exch rlineto closepath} bdef
/FR {MR stroke} bdef
/PR {MR fill} bdef
/L1i {{currentfile picstr readhexstring pop} image} bdef
/tMatrix matrix def
/MakeOval {newpath tMatrix currentmatrix pop translate scale
0 0 1 0 360 arc tMatrix setmatrix} bdef
/FO {MakeOval stroke} bdef
/PO {MakeOval fill} bdef
/PD {currentlinewidth 2 div 0 360 arc fill
   PDlw -1 eq not {PDlw w /PDlw -1 def} if} def
/FA {newpath tMatrix currentmatrix pop translate scale
  0 0 1 5 -2 roll arc tMatrix setmatrix stroke} bdef
/PA {newpath tMatrix currentmatrix pop	translate 0 0 moveto scale
  0 0 1 5 -2 roll arc closepath tMatrix setmatrix fill} bdef
/FAn {newpath tMatrix currentmatrix pop translate scale
  0 0 1 5 -2 roll arcn tMatrix setmatrix stroke} bdef
/PAn {newpath tMatrix currentmatrix pop translate 0 0 moveto scale
  0 0 1 5 -2 roll arcn closepath tMatrix setmatrix fill} bdef
/vradius 0 def /hradius 0 def /lry 0 def
/lrx 0 def /uly 0 def /ulx 0 def /rad 0 def
/MRR {/vradius xdef /hradius xdef /lry xdef /lrx xdef /uly xdef
  /ulx xdef newpath tMatrix currentmatrix pop ulx hradius add uly
  vradius add translate hradius vradius scale 0 0 1 180 270 arc 
  tMatrix setmatrix lrx hradius sub uly vradius add translate
  hradius vradius scale 0 0 1 270 360 arc tMatrix setmatrix
  lrx hradius sub lry vradius sub translate hradius vradius scale
  0 0 1 0 90 arc tMatrix setmatrix ulx hradius add lry vradius sub
  translate hradius vradius scale 0 0 1 90 180 arc tMatrix setmatrix
  closepath} bdef
/FRR {MRR stroke } bdef
/PRR {MRR fill } bdef
/MlrRR {/lry xdef /lrx xdef /uly xdef /ulx xdef /rad lry uly sub 2 div def
  newpath tMatrix currentmatrix pop ulx rad add uly rad add translate
  rad rad scale 0 0 1 90 270 arc tMatrix setmatrix lrx rad sub lry rad
  sub translate rad rad scale 0 0 1 270 90 arc tMatrix setmatrix
  closepath} bdef
/FlrRR {MlrRR stroke } bdef
/PlrRR {MlrRR fill } bdef
/MtbRR {/lry xdef /lrx xdef /uly xdef /ulx xdef /rad lrx ulx sub 2 div def
  newpath tMatrix currentmatrix pop ulx rad add uly rad add translate
  rad rad scale 0 0 1 180 360 arc tMatrix setmatrix lrx rad sub lry rad
  sub translate rad rad scale 0 0 1 0 180 arc tMatrix setmatrix
  closepath} bdef
/FtbRR {MtbRR stroke } bdef
/PtbRR {MtbRR fill } bdef
/stri 6 array def /dtri 6 array def
/smat 6 array def /dmat 6 array def
/tmat1 6 array def /tmat2 6 array def /dif 3 array def
/asub {/ind2 exch def /ind1 exch def dup dup
  ind1 get exch ind2 get sub exch } bdef
/tri_to_matrix {
  2 0 asub 3 1 asub 4 0 asub 5 1 asub
  dup 0 get exch 1 get 7 -1 roll astore } bdef
/compute_transform {
  dmat dtri tri_to_matrix tmat1 invertmatrix 
  smat stri tri_to_matrix tmat2 concatmatrix } bdef
/ds {stri astore pop} bdef
/dt {dtri astore pop} bdef
/db {2 copy /cols xdef /rows xdef mul dup 3 mul string
  currentfile 
  3 index 0 eq {/ASCIIHexDecode filter}
  {/ASCII85Decode filter 3 index 2 eq {/RunLengthDecode filter} if }
  ifelse exch readstring pop
  dup 0 3 index getinterval /rbmap xdef
  dup 2 index dup getinterval /gbmap xdef
  1 index dup 2 mul exch getinterval /bbmap xdef pop pop}bdef
/it {gs np dtri aload pop moveto lineto lineto cp c
  cols rows 8 compute_transform 
  rbmap gbmap bbmap true 3 colorimage gr}bdef
/il {newpath moveto lineto stroke}bdef
currentdict end def
%%EndProlog

%%BeginSetup
MathWorks begin

0 cap

end
%%EndSetup

%%Page: 1 1
%%BeginPageSetup
%%PageBoundingBox:  -214   132   810   709
MathWorks begin
bpage
%%EndPageSetup

%%BeginObject: obj1
bplot

/dpi2point 12 def
portraitMode -2568 8508 csm

    0     0 12289  6914 rc
85 dict begin %Colortable dictionary
/c0 { 0.000000 0.000000 0.000000 sr} bdef
/c1 { 1.000000 1.000000 1.000000 sr} bdef
/c2 { 0.900000 0.000000 0.000000 sr} bdef
/c3 { 0.000000 0.820000 0.000000 sr} bdef
/c4 { 0.000000 0.000000 0.800000 sr} bdef
/c5 { 0.910000 0.820000 0.320000 sr} bdef
/c6 { 1.000000 0.260000 0.820000 sr} bdef
/c7 { 0.000000 0.820000 0.820000 sr} bdef
c0
1 j
1 sg
   0    0 12290 6915 rf
6 w
0 5634 9524 0 0 -5634 1598 6153 4 MP
PP
-9524 0 0 5634 9524 0 0 -5634 1598 6153 5 MP stroke
4 w
DO
0 sg
2030 6153 mt 2030  519 L
2030  519 mt 2030  519 L
3113 6153 mt 3113  519 L
3113  519 mt 3113  519 L
4195 6153 mt 4195  519 L
4195  519 mt 4195  519 L
5277 6153 mt 5277  519 L
5277  519 mt 5277  519 L
6360 6153 mt 6360  519 L
6360  519 mt 6360  519 L
7442 6153 mt 7442  519 L
7442  519 mt 7442  519 L
8524 6153 mt 8524  519 L
8524  519 mt 8524  519 L
9606 6153 mt 9606  519 L
9606  519 mt 9606  519 L
10689 6153 mt 10689  519 L
10689  519 mt 10689  519 L
1598 6153 mt 11122 6153 L
11122 6153 mt 11122 6153 L
1598 5171 mt 11122 5171 L
11122 5171 mt 11122 5171 L
1598 4190 mt 11122 4190 L
11122 4190 mt 11122 4190 L
1598 3208 mt 11122 3208 L
11122 3208 mt 11122 3208 L
1598 2227 mt 11122 2227 L
11122 2227 mt 11122 2227 L
1598 1245 mt 11122 1245 L
11122 1245 mt 11122 1245 L
SO
6 w
1598 6153 mt 11122 6153 L
1598  519 mt 11122  519 L
1598 6153 mt 1598  519 L
11122 6153 mt 11122  519 L
1598 6153 mt 11122 6153 L
1598 6153 mt 1598  519 L
2030 6153 mt 2030 6057 L
2030  519 mt 2030  614 L
%%IncludeResource: font Helvetica
/Helvetica /ISOLatin1Encoding 120 FMSR

1927 6298 mt 
(-2) s
3113 6153 mt 3113 6057 L
3113  519 mt 3113  614 L
2960 6298 mt 
(-1.5) s
4195 6153 mt 4195 6057 L
4195  519 mt 4195  614 L
4092 6298 mt 
(-1) s
5277 6153 mt 5277 6057 L
5277  519 mt 5277  614 L
5124 6298 mt 
(-0.5) s
6360 6153 mt 6360 6057 L
6360  519 mt 6360  614 L
6327 6298 mt 
(0) s
7442 6153 mt 7442 6057 L
7442  519 mt 7442  614 L
7359 6298 mt 
(0.5) s
8524 6153 mt 8524 6057 L
8524  519 mt 8524  614 L
8491 6298 mt 
(1) s
9606 6153 mt 9606 6057 L
9606  519 mt 9606  614 L
9523 6298 mt 
(1.5) s
10689 6153 mt 10689 6057 L
10689  519 mt 10689  614 L
10656 6298 mt 
(2) s
10852 6500 mt 
(x 10) s
%%IncludeResource: font Helvetica
/Helvetica /ISOLatin1Encoding 80 FMSR

11078 6426 mt 
(4) s
1598 6153 mt 1693 6153 L
11122 6153 mt 11026 6153 L
%%IncludeResource: font Helvetica
/Helvetica /ISOLatin1Encoding 120 FMSR

1497 6197 mt 
(0) s
1598 5171 mt 1693 5171 L
11122 5171 mt 11026 5171 L
1363 5215 mt 
(100) s
1598 4190 mt 1693 4190 L
11122 4190 mt 11026 4190 L
1363 4234 mt 
(200) s
1598 3208 mt 1693 3208 L
11122 3208 mt 11026 3208 L
1363 3252 mt 
(300) s
1598 2227 mt 1693 2227 L
11122 2227 mt 11026 2227 L
1363 2271 mt 
(400) s
1598 1245 mt 1693 1245 L
11122 1245 mt 11026 1245 L
1363 1289 mt 
(500) s
1598 6153 mt 11122 6153 L
1598  519 mt 11122  519 L
1598 6153 mt 1598  519 L
11122 6153 mt 11122  519 L
gs 1598 519 9525 5635 rc
/c8 { 0.000000 0.000000 1.000000 sr} bdef
c8
3 0 2 1 2 0 3 0 2 -1 3 0 2 0 2 0 
3 0 2 1 2 0 3 -1 2 0 3 0 2 0 2 1 
3 -1 2 1 3 -1 2 1 2 -1 3 0 2 0 2 0 
3 0 2 0 3 0 2 0 2 0 3 0 2 1 3 -1 
2 1 2 -1 3 0 2 0 3 0 2 1 2 -1 3 1 
2 0 2 0 3 0 2 -1 3 0 2 1 2 -1 3 0 
2 0 3 1 2 0 2 -1 3 1 2 -1 2 0 3 0 
2 0 3 1 2 -1 2 1 3 0 2 -1 3 0 2 0 
2 0 3 0 2 0 2 0 3 0 2 0 3 1 2 -1 
2 0 3 0 2 1 3 -1 2 1 2 0 3 -1 2 0 
3 1 2 0 2 -1 3 1 2 0 2 0 3 0 2 -1 
3 1 2 -1 2 1 3 -1 2 1 3 -1 2 0 2 0 
3 0 2 0 2 0 3 0 2 0 3 1 2 -1 2 0 
3 0 2 0 3 1 2 0 2 -1 3 0 2 1 3 -1 
2 0 2 0 3 0 2 0 2 0 3 1 2 0 3 -1 
2 0 2 0 3 0 2 1 3 0 2 -1 2 0 3 1 
2 0 2 0 3 -1 2 0 3 0 2 1 2 0 3 -1 
2 1 3 -1 2 0 2 0 3 1 2 0 2 0 3 -1 
2 0 3 1 2 0 2 0 3 0 2 -1 3 1 2 -1 
2 1 3 -1 2 1 3 0 2 -1 2 0 3 1 2 -1 
2 1 3 -1 2 1 3 0 2 -1 2 0 3 0 2 1 
3 0 2 0 2 -1 3 0 2 1 2 -1 3 1 2 0 
3 0 2 0 2 0 3 0 2 -1 3 1 2 0 2 -1 
3 0 2 0 2 0 3 0 2 1 3 -1 2 1 2 -1 
3 0 2 0 3 0 2 1 2 -1 3 0 2 1 3 -1 
2 0 2 1 3 -1 2 0 2 0 3 0 2 1 3 0 
2 -1 2 0 3 1 2 -1 3 1 2 0 2 0 3 0 
2 -1 2 0 3 0 2 0 3 0 2 0 2 0 3 0 
2 1 3 -1 2 0 2 0 3 0 2 0 2 0 3 0 
2 0 3 1 2 -1 2 1 3 0 2 -1 3 0 2 0 
2 0 3 0 2 0 3 0 2 0 2 1 3 -1 2 0 
2 1 3 0 2 0 3 0 2 0 2 -1 3 1 2 -1 
3 0 2 0 2 1 3 0 2 -1 2 0 3 0 2 1 
3 -1 2 0 2 0 3 0 2 0 3 1 2 0 2 0 
3 -1 2 0 2 1 3 -1 2 0 3 0 2 1 2 0 
3 0 2 -1 3 0 2 1 2 -1 3 0 2 0 3 0 
2 0 2 0 3 0 2 1 2 0 3 -1 2 0 3 1 
2 -1 2 1 3 0 10409 6151 300 MP stroke
2 -1 3 0 2 1 2 -1 3 0 2 0 2 0 3 0 
2 0 3 1 2 -1 2 0 3 1 2 0 3 0 2 -1 
2 1 3 -1 2 0 2 0 3 1 2 -1 3 1 2 0 
2 -1 3 0 2 0 3 0 2 0 2 0 3 1 2 -1 
3 0 2 1 2 0 3 0 2 -1 2 1 3 -1 2 0 
3 1 2 -1 2 1 3 -1 2 0 3 1 2 -1 2 0 
3 0 2 0 2 1 3 0 2 -1 3 1 2 0 2 -1 
3 1 2 -1 3 1 2 -1 2 1 3 -1 2 1 2 0 
3 -1 2 1 3 0 2 0 2 -1 3 0 2 0 3 1 
2 -1 2 0 3 0 2 0 3 0 2 1 2 0 3 -1 
2 0 2 0 3 0 2 1 3 -1 2 1 2 0 3 0 
2 -1 3 0 2 1 2 -1 3 0 2 1 2 -1 3 1 
2 0 3 0 2 0 2 -1 3 0 2 0 3 0 2 1 
2 -1 3 0 2 1 2 -1 3 0 2 0 3 0 2 0 
2 0 3 0 2 0 3 0 2 1 2 0 3 0 2 -1 
3 1 2 0 2 0 3 -1 2 1 2 0 3 0 2 -1 
3 1 2 -1 2 0 3 1 2 -1 3 0 2 1 2 0 
3 -1 2 0 2 0 3 1 2 0 3 0 2 0 2 0 
3 -1 2 1 3 0 2 -1 2 0 3 1 2 0 2 0 
3 -1 2 0 3 1 2 -1 2 1 3 -1 2 1 3 -1 
2 0 2 1 3 0 2 0 3 0 2 -1 2 1 3 0 
2 0 2 0 3 0 2 0 3 0 2 -1 2 1 3 0 
2 0 3 0 2 0 2 -1 3 0 2 0 2 0 3 1 
2 0 3 0 2 0 2 0 3 0 2 0 3 -1 2 0 
2 1 3 0 2 -1 2 1 3 -1 2 1 3 0 2 -1 
2 0 3 1 2 -1 3 1 2 0 2 0 3 0 2 0 
3 -1 2 1 2 0 3 -1 2 1 2 0 3 0 2 -1 
3 1 2 0 2 0 3 0 2 -1 3 1 2 0 2 0 
3 0 2 0 2 -1 3 1 2 -1 3 1 2 0 2 0 
3 0 2 0 3 0 2 0 2 0 3 0 2 0 2 -1 
3 0 2 1 3 0 2 0 2 0 3 0 2 0 3 0 
2 0 2 0 3 0 2 0 3 0 2 0 2 0 3 0 
2 -1 2 0 3 0 2 0 3 0 2 1 2 -1 3 1 
2 -1 3 1 2 0 2 0 3 -1 2 0 2 1 3 0 
2 0 3 0 2 -1 2 1 3 -1 2 0 3 1 2 -1 
2 1 3 0 2 0 3 0 2 0 2 0 3 -1 2 1 
2 0 3 0 2 -1 3 1 2 0 2 0 3 0 2 0 
3 -1 2 1 2 0 9696 6151 300 MP stroke
3 0 2 0 2 -1 3 1 2 0 3 -1 2 1 2 0 
3 0 2 0 3 0 2 0 2 0 3 0 2 0 2 -1 
3 0 2 1 3 0 2 0 2 0 3 -1 2 0 3 1 
2 0 2 0 3 -1 2 1 3 0 2 0 2 0 3 -1 
2 1 2 0 3 0 2 0 3 0 2 0 2 0 3 -1 
2 0 3 1 2 0 2 0 3 0 2 0 2 0 3 0 
2 0 3 0 2 0 2 0 3 -1 2 1 3 0 2 0 
2 0 3 -1 2 1 2 0 3 0 2 0 3 -1 2 1 
2 -1 3 1 2 0 3 0 2 0 2 0 3 0 2 0 
3 0 2 0 2 0 3 0 2 0 2 0 3 0 2 0 
3 0 2 0 2 0 3 0 2 0 3 0 2 -1 2 1 
3 0 2 0 2 0 3 -1 2 1 3 0 2 0 2 -1 
3 1 2 0 3 0 2 0 2 0 3 0 2 0 2 0 
3 0 2 0 3 0 2 0 2 -1 3 1 2 0 3 0 
2 0 2 0 3 0 2 0 3 0 2 0 2 0 3 0 
2 0 2 0 3 0 2 0 3 -1 2 1 2 0 3 0 
2 0 3 0 2 0 2 0 3 0 2 0 2 0 3 0 
2 0 3 0 2 0 2 0 3 0 2 0 3 0 2 0 
2 0 3 0 2 0 2 0 3 0 2 0 3 0 2 -1 
2 1 3 0 2 0 3 0 2 0 2 0 3 0 2 0 
3 0 2 0 2 0 3 0 2 0 2 0 3 0 2 0 
3 0 2 0 2 0 3 0 2 0 3 0 2 0 2 0 
3 0 2 0 2 0 3 0 2 0 3 0 2 0 2 0 
3 0 2 -1 3 1 2 0 2 0 3 0 2 0 2 0 
3 0 2 0 3 0 2 0 2 0 3 0 2 0 3 0 
2 0 2 0 3 0 2 0 3 0 2 0 2 0 3 0 
2 0 2 0 3 0 2 -1 3 1 2 0 2 0 3 0 
2 0 3 0 2 0 2 0 3 0 2 0 2 0 3 0 
2 0 3 0 2 0 2 0 3 0 2 0 3 0 2 0 
2 0 3 0 2 0 2 0 3 0 2 0 3 -1 2 1 
2 0 3 0 2 0 3 0 2 0 2 0 3 0 2 0 
3 0 2 0 2 0 3 0 2 -1 2 1 3 0 2 0 
3 0 2 0 2 0 3 0 2 0 3 0 2 0 2 0 
3 0 2 0 2 0 3 0 2 0 3 0 2 0 2 0 
3 0 2 0 3 0 2 0 2 0 3 0 2 0 2 0 
3 0 2 0 3 0 2 0 2 0 3 0 2 0 3 0 
2 0 2 0 3 0 2 0 3 0 2 0 2 0 3 0 
2 0 2 0 3 0 8982 6151 300 MP stroke
2 0 3 0 2 0 2 0 3 0 2 0 3 0 2 0 
2 0 3 0 2 0 2 0 3 0 2 0 3 0 2 0 
2 0 3 0 2 0 3 0 2 0 2 0 3 0 2 0 
2 0 3 0 2 0 3 0 2 0 2 0 3 0 2 0 
3 0 2 0 2 0 3 0 2 0 3 0 2 0 2 0 
3 0 2 0 2 0 3 0 2 0 3 0 2 0 2 0 
3 0 2 0 3 0 2 0 2 0 3 0 2 0 2 0 
3 0 2 0 3 0 2 0 2 0 3 0 2 0 3 0 
2 0 2 0 3 0 2 0 2 0 3 0 2 0 3 0 
2 0 2 0 3 0 2 0 3 0 2 0 2 0 3 0 
2 0 3 0 2 0 2 0 3 0 2 0 2 0 3 0 
2 0 3 0 2 0 2 0 3 0 2 0 3 0 2 0 
2 0 3 0 2 0 2 0 3 0 2 0 3 0 2 0 
2 0 3 0 2 0 3 0 2 0 2 0 3 0 2 0 
2 0 3 0 2 0 3 0 2 0 2 0 3 0 2 0 
3 0 2 0 2 0 3 0 2 0 3 0 2 0 2 0 
3 0 2 0 2 0 3 0 2 0 3 0 2 0 2 0 
3 0 2 0 3 0 2 0 2 0 3 0 2 0 2 0 
3 0 2 0 3 0 2 0 2 0 3 0 2 0 3 0 
2 0 2 0 3 0 2 0 3 0 2 0 2 0 3 0 
2 0 2 0 3 0 2 0 3 0 2 0 2 0 3 0 
2 0 3 0 2 0 2 0 3 0 2 0 2 0 3 0 
2 0 3 0 2 0 2 0 3 0 2 0 3 0 2 0 
2 0 3 0 2 0 2 0 3 0 2 0 3 0 2 0 
2 0 3 0 2 0 3 0 2 0 2 0 3 0 2 0 
3 0 2 0 2 0 3 0 2 0 2 0 3 0 2 0 
3 0 2 0 2 0 3 0 2 0 3 0 2 0 2 0 
3 0 2 0 2 0 3 0 2 0 3 0 2 0 2 0 
3 0 2 0 3 0 2 0 2 0 3 0 2 0 2 0 
3 0 2 0 3 0 2 0 2 0 3 0 2 0 3 0 
2 0 2 0 3 0 2 0 3 0 2 0 2 0 3 0 
2 0 2 0 3 0 2 0 3 0 2 0 2 0 3 0 
2 0 3 0 2 0 2 0 3 0 2 0 2 0 3 0 
2 0 3 0 2 0 2 0 3 0 2 0 3 0 2 0 
2 0 3 0 2 0 2 0 3 0 2 0 3 0 2 0 
2 0 3 0 2 0 3 0 2 0 2 0 3 0 2 0 
3 0 2 0 2 0 3 1 2 -1 2 0 3 1 2 -1 
3 0 2 0 2 0 8269 6151 300 MP stroke
3 0 2 0 3 0 2 0 2 0 3 0 2 0 2 0 
3 0 2 0 3 0 2 0 2 0 3 0 2 0 3 0 
2 0 2 0 3 0 2 0 2 0 3 0 2 0 3 0 
2 0 2 0 3 0 2 0 3 0 2 0 2 0 3 0 
2 1 3 -1 2 0 2 0 3 0 2 0 2 0 3 0 
2 0 3 0 2 0 2 0 3 0 2 0 3 0 2 1 
2 -1 3 0 2 0 2 1 3 -1 2 0 3 0 2 0 
2 0 3 0 2 0 3 0 2 0 2 0 3 0 2 0 
2 0 3 0 2 0 3 0 2 1 2 -1 3 0 2 0 
3 1 2 -1 2 0 3 0 2 0 3 1 2 -1 2 0 
3 1 2 -1 2 0 3 0 2 1 3 -1 2 0 2 0 
3 0 2 0 3 0 2 0 2 0 3 0 2 0 2 0 
3 0 2 0 3 0 2 1 2 -1 3 1 2 -1 3 1 
2 -1 2 1 3 0 2 -1 2 1 3 -1 2 0 3 0 
2 0 2 1 3 -1 2 0 3 1 2 -1 2 1 3 0 
2 -1 3 0 2 1 2 -1 3 0 2 1 2 0 3 0 
2 -1 3 0 2 1 2 0 3 0 2 0 3 -1 2 1 
2 -1 3 0 2 1 2 -1 3 1 2 -1 3 1 2 0 
2 0 3 0 2 0 3 0 2 -1 2 1 3 0 2 0 
2 0 3 -1 2 0 3 1 2 -1 2 0 3 1 2 0 
3 -1 2 1 2 -1 3 1 2 0 3 0 2 1 2 -2 
3 1 2 -1 2 2 3 -2 2 1 3 -1 2 1 2 0 
3 0 2 -1 3 0 2 1 2 2 3 -1 2 -1 2 2 
3 -3 2 2 3 -1 2 0 2 0 3 0 2 0 3 0 
2 0 2 -1 3 0 2 2 2 -1 3 -1 2 4 3 1 
2 -1 2 -3 3 2 2 -3 3 2 2 -1 2 2 3 -3 
2 1 3 1 2 -2 2 1 3 0 2 0 2 1 3 -3 
2 2 3 0 2 0 2 0 3 0 2 -1 3 1 2 1 
2 -1 3 0 2 -1 2 1 3 0 2 0 3 0 2 -1 
2 1 3 -1 2 1 3 0 2 1 2 0 3 -3 2 3 
2 -3 3 4 2 -4 3 3 2 -2 2 1 3 0 2 0 
3 0 2 -1 2 1 3 0 2 0 3 1 2 -2 2 1 
3 0 2 0 2 1 3 -1 2 -1 3 2 2 -1 2 0 
3 0 2 0 3 0 2 0 2 0 3 0 2 0 2 1 
3 -2 2 2 3 -1 2 -1 2 2 3 0 2 -2 3 2 
2 -1 2 0 3 0 2 0 2 1 3 -1 2 1 3 -1 
2 1 2 -1 3 1 2 -1 3 1 2 -1 2 0 3 0 
2 0 3 1 2 -1 7555 6150 300 MP stroke
2 0 3 0 2 0 2 0 3 1 2 1 3 -2 2 1 
2 0 3 -1 2 2 3 2 2 -4 2 -1 3 2 2 -2 
2 1 3 2 2 -3 3 2 2 0 2 -1 3 1 2 -1 
3 1 2 0 2 -3 3 3 2 0 3 -1 2 0 2 1 
3 -1 2 0 2 -1 3 1 2 1 3 -1 2 0 2 0 
3 0 2 -1 3 2 2 0 2 -1 3 0 2 0 2 1 
3 -1 2 0 3 1 2 -1 2 1 3 0 2 -1 3 2 
2 -2 2 0 3 1 2 -1 2 1 3 -1 2 1 3 -1 
2 1 2 0 3 0 2 0 3 0 2 -1 2 0 3 1 
2 0 3 0 2 -1 2 1 3 1 2 0 2 4 3 -5 
2 0 3 1 2 -2 2 1 3 0 2 0 3 0 2 1 
2 1 3 -3 2 1 2 1 3 -2 2 1 3 1 2 -1 
2 -1 3 1 2 -1 3 0 2 1 2 0 3 0 2 -1 
2 1 3 0 2 0 3 0 2 -1 2 1 3 1 2 0 
3 -2 2 1 2 1 3 -1 2 0 3 -1 2 1 2 1 
3 -1 2 -1 2 3 3 -1 2 -4 3 9 2 3 2 11 
3 19 2 -33 3 2 2 -3 2 -3 3 -1 2 0 2 0 
3 -1 2 0 3 1 2 1 2 -2 3 1 2 0 3 -1 
2 1 2 -1 3 0 2 0 2 1 3 0 2 0 3 -2 
2 2 2 -1 3 1 2 1 3 -2 2 1 2 2 3 -2 
2 -3 3 3 2 1 2 -2 3 0 2 -1 2 3 3 -1 
2 -4 3 5 2 4 2 -3 3 2 2 2 3 3 2 45 
2 47 3 -82 2 4 2 -15 3 -8 2 5 3 -1 2 2 
2 -5 3 1 2 0 3 3 2 -2 2 -3 3 2 2 0 
2 -1 3 1 2 0 3 0 2 2 2 -6 3 8 2 -7 
3 3 2 5 2 -5 3 3 2 0 3 -3 2 2 2 -4 
3 2 2 0 2 0 3 -1 2 2 3 0 2 1 2 2 
3 -2 2 4 3 5 2 -1 2 6 3 -18 2 24 2 74 
3 38 2 -116 3 -8 2 -4 2 1 3 -6 2 -3 3 3 
2 -1 2 1 3 0 2 1 2 -3 3 1 2 0 3 0 
2 1 2 1 3 -2 2 4 3 -2 2 10 2 -11 3 -3 
2 3 3 4 2 -6 2 2 3 -5 2 5 2 -1 3 -5 
2 3 3 0 2 7 2 6 3 -10 2 4 3 3 2 -1 
2 -12 3 2 2 4 2 -5 3 9 2 3 3 21 2 4 
2 -27 3 6 2 -7 3 -3 2 -3 2 9 3 -7 2 -3 
2 0 3 31 2 -11 3 -18 2 22 2 -22 3 -2 2 8 
3 5 2 -16 2 2 3 9 2 -3 3 8 2 -5 2 -5 
3 10 2 -11 2 -2 6842 6148 300 MP stroke
3 13 2 -9 3 0 2 1 2 0 3 -2 2 12 3 -7 
2 6 2 -5 3 -4 2 4 2 -4 3 2 2 1 3 -8 
2 21 2 -1 3 16 2 7 3 -25 2 -16 2 1 3 27 
2 -21 2 7 3 -15 2 21 3 0 2 -16 2 25 3 -28 
2 2 3 17 2 -14 2 4 3 4 2 1 3 -2 2 0 
2 -2 3 35 2 -22 2 -23 3 8 2 1 3 -3 2 0 
2 5 3 3 2 -16 3 12 2 -2 2 18 3 -23 2 18 
2 -3 3 -4 2 -11 3 22 2 12 2 -10 3 -16 2 68 
3 213 2 95 2 -332 3 -18 2 -1 2 -12 3 -9 2 0 
3 7 2 -11 2 12 3 35 2 -5 3 -37 2 -9 2 11 
3 -5 2 -3 3 9 2 6 2 -9 3 4 2 11 2 19 
3 -20 2 -16 3 7 2 -18 2 6 3 7 2 -4 3 6 
2 7 2 -10 3 52 2 118 2 -91 3 -42 2 -18 3 3 
2 19 2 -12 3 -18 2 2 3 45 2 -48 2 -30 3 30 
2 41 2 -26 3 1 2 16 3 -25 2 18 2 24 3 -35 
2 9 3 92 2 11 2 -141 3 82 2 -30 3 9 2 -19 
2 39 3 -13 2 19 2 -23 3 56 2 -37 3 11 2 -8 
2 10 3 49 2 -43 3 23 2 46 2 -1 3 -7 2 81 
2 94 3 -55 2 -2 3 57 2 -101 2 142 3 33 2 50 
3 329 2 87 2 303 3 426 2 4009 2 -4157 3 -290 2 -310 
3 -138 2 -230 2 -144 3 120 2 -95 3 -79 2 17 2 36 
3 -161 2 -91 3 67 2 -11 2 7 3 -81 2 84 2 -22 
3 -64 2 84 3 1141 2 -56 2 -1023 3 68 2 -113 3 36 
2 -51 2 -36 3 140 2 -87 2 -26 3 198 2 -268 3 29 
2 43 2 -35 3 10 2 -32 3 25 2 8 2 -13 3 -2 
2 1 3 -1 2 1 2 -1 3 2 2 13 2 -8 3 -25 
2 32 3 -10 2 35 2 -43 3 -29 2 268 3 -198 2 26 
2 87 3 -140 2 36 2 51 3 -36 2 113 3 -68 2 1023 
2 56 3 -1141 2 -84 3 64 2 22 2 -84 3 81 2 -7 
2 11 3 -67 2 91 3 161 2 -36 2 -17 3 79 2 95 
3 -120 2 144 2 230 3 138 2 310 3 290 2 4157 2 -4009 
3 -426 2 -303 2 -87 3 -329 2 -50 3 -33 2 -142 2 101 
3 -57 2 2 3 55 2 -94 2 -81 3 7 2 1 2 -46 
3 -23 2 43 3 -49 2 -10 2 8 3 -11 2 37 3 -56 
2 23 2 -19 3 13 2 -39 2 19 3 -9 2 30 3 -82 
2 141 2 -11 3 -92 2 -9 3 35 2 -24 2 -18 3 25 
2 -16 3 -1 2 26 2 -41 3 -30 2 30 2 48 3 -45 
2 -2 3 18 2 12 6128 6089 300 MP stroke
2 -19 3 -3 2 18 3 42 2 91 2 -118 3 -52 2 10 
2 -7 3 -6 2 4 3 -7 2 -6 2 18 3 -7 2 16 
3 20 2 -19 2 -11 3 -4 2 9 2 -6 3 -9 2 3 
3 5 2 -11 2 9 3 37 2 5 3 -35 2 -12 2 11 
3 -7 2 0 3 9 2 12 2 1 3 18 2 332 2 -95 
3 -213 2 -68 3 16 2 10 2 -12 3 -22 2 11 3 4 
2 3 2 -18 3 23 2 -18 2 2 3 -12 2 16 3 -3 
2 -5 2 0 3 3 2 -1 3 -8 2 23 2 22 3 -35 
2 2 2 0 3 2 2 -1 3 -4 2 -4 2 14 3 -17 
2 -2 3 28 2 -25 2 16 3 0 2 -21 3 15 2 -7 
2 21 3 -27 2 -1 2 16 3 25 2 -7 3 -16 2 1 
2 -21 3 8 2 -1 3 -2 2 4 2 -4 3 4 2 5 
2 -6 3 7 2 -12 3 2 2 0 2 -1 3 0 2 9 
3 -13 2 2 2 11 3 -10 2 5 2 5 3 -8 2 3 
3 -9 2 -2 2 16 3 -5 2 -8 3 2 2 22 2 -22 
3 18 2 11 3 -31 2 0 2 3 3 7 2 -9 2 3 
3 3 2 7 3 -6 2 27 2 -4 3 -21 2 -3 3 -9 
2 5 2 -4 3 -2 2 12 2 1 3 -3 2 -4 3 10 
2 -6 2 -7 3 0 2 -3 3 5 2 1 2 -5 3 5 
2 -2 2 6 3 -4 2 -3 3 3 2 11 2 -10 3 2 
2 -4 3 2 2 -1 2 -1 3 0 2 0 3 -1 2 3 
2 -1 3 0 2 -1 2 1 3 -3 2 3 3 6 2 -1 
2 4 3 8 2 116 3 -38 2 -74 2 -24 3 18 2 -6 
2 1 3 -5 2 -4 3 2 2 -2 2 -1 3 0 2 -2 
3 1 2 0 2 0 3 -2 2 4 2 -2 3 3 2 0 
3 -3 2 5 2 -5 3 -3 2 7 3 -8 2 6 2 -2 
3 0 2 0 3 -1 2 1 2 0 3 -2 2 3 2 2 
3 -3 2 0 3 -1 2 5 2 -2 3 1 2 -5 3 8 
2 15 2 -4 3 82 2 -47 2 -45 3 -3 2 -2 3 -2 
2 3 2 -4 3 -5 2 4 3 1 2 -3 2 1 3 0 
2 2 2 -1 3 -3 2 3 3 2 2 -2 2 -1 3 2 
2 -1 3 -1 2 1 2 -2 3 2 2 0 3 0 2 -1 
2 0 3 0 2 1 2 -1 3 1 2 0 3 -1 2 2 
2 -1 3 -1 2 0 3 1 2 0 2 0 3 1 2 3 
2 3 3 -2 2 33 3 -19 2 -11 2 -3 3 -9 2 4 
3 1 2 -3 2 1 3 1 2 -1 2 -1 3 1 2 0 
3 1 2 -1 2 -1 3 2 2 0 3 -1 2 -1 2 1 
3 0 2 0 3 0 5414 6149 300 MP stroke
2 -1 2 1 3 0 2 0 2 -1 3 0 2 1 3 -1 
2 1 2 1 3 -1 2 -1 3 2 2 -1 2 -1 3 3 
2 -1 2 -1 3 0 2 0 3 0 2 -1 2 2 3 -1 
2 0 3 5 2 -4 2 0 3 -1 2 -1 2 1 3 0 
2 0 3 -1 2 0 2 1 3 0 2 0 3 0 2 0 
2 -1 3 1 2 -1 3 1 2 -1 2 1 3 -1 2 0 
2 2 3 -2 2 1 3 0 2 -1 2 1 3 -1 2 0 
3 1 2 -1 2 0 3 0 2 1 2 0 3 -2 2 1 
3 0 2 0 2 0 3 1 2 -1 3 -1 2 1 2 0 
3 1 2 -1 2 0 3 1 2 0 3 -3 2 3 2 0 
3 -1 2 1 3 -1 2 1 2 0 3 -2 2 3 3 -2 
2 -1 2 2 3 -2 2 1 2 4 3 -2 2 -2 3 1 
2 0 2 -1 3 2 2 -1 3 -1 2 0 2 0 3 0 
2 0 2 1 3 -1 2 0 3 0 2 0 2 1 3 -1 
2 1 3 -1 2 1 2 -1 3 1 2 -1 3 1 2 -1 
2 0 3 0 2 0 2 1 3 -2 2 2 3 0 2 -2 
2 1 3 1 2 -2 3 2 2 -1 2 0 3 0 2 0 
2 0 3 0 2 0 3 0 2 0 2 1 3 -2 2 1 
3 1 2 -1 2 0 3 0 2 -1 2 2 3 -1 2 0 
3 0 2 -1 2 1 3 0 2 0 3 0 2 -1 2 2 
3 -3 2 4 3 -4 2 3 2 -3 3 3 2 0 2 -1 
3 0 2 -1 3 1 2 -1 2 1 3 0 2 0 3 0 
2 -1 2 1 3 0 2 1 2 -1 3 -1 2 1 3 0 
2 0 2 0 3 0 2 -2 3 3 2 -1 2 0 3 0 
2 -1 2 2 3 -1 2 -1 3 3 2 -2 2 1 3 -2 
2 3 3 -2 2 3 2 1 3 -1 2 -4 3 1 2 1 
2 -2 3 0 2 1 2 0 3 0 2 0 3 0 2 0 
2 0 3 1 2 -2 3 3 2 -2 2 1 3 1 2 -2 
2 -1 3 0 2 1 3 0 2 0 2 -1 3 1 2 -1 
3 2 2 -2 2 1 3 -1 2 2 2 -1 3 0 2 0 
3 -1 2 1 2 -1 3 1 2 0 3 -1 2 0 2 1 
3 -1 2 0 3 1 2 0 2 0 3 0 2 -1 2 1 
3 0 2 0 3 0 2 0 2 0 3 -1 2 1 3 -1 
2 1 2 -1 3 0 2 1 2 -1 3 1 2 0 3 0 
2 0 2 -1 3 0 2 1 3 0 2 0 2 -1 3 0 
2 1 2 -1 3 0 2 1 3 0 2 -1 2 1 3 -1 
2 0 3 1 2 -1 2 0 3 0 2 0 3 1 2 -1 
2 1 3 0 2 -1 4701 6151 300 MP stroke
2 1 3 -1 2 1 3 -1 2 1 2 -1 3 0 2 0 
3 0 2 0 2 0 3 0 2 0 2 0 3 0 2 0 
3 0 2 0 2 0 3 1 2 -1 3 0 2 0 2 1 
3 -1 2 0 2 1 3 -1 2 0 3 0 2 0 2 1 
3 -1 2 0 3 0 2 1 2 -1 3 0 2 0 3 0 
2 0 2 0 3 0 2 0 2 0 3 0 2 0 3 0 
2 0 2 0 3 0 2 0 3 1 2 -1 2 0 3 0 
2 1 2 -1 3 0 2 0 3 0 2 0 2 0 3 0 
2 0 3 0 2 0 2 0 3 0 2 0 2 0 3 1 
2 -1 3 0 2 0 2 0 3 0 2 0 3 0 2 0 
2 0 3 0 2 0 3 0 2 0 2 0 3 0 2 0 
2 0 3 0 2 0 3 0 2 0 2 0 3 0 2 0 
3 0 2 0 2 0 3 0 2 0 2 0 3 0 2 0 
3 0 2 0 2 0 3 0 2 1 3 -1 2 0 2 1 
3 -1 2 0 2 0 3 0 2 0 3 0 2 0 2 0 
3 0 2 0 3 0 2 0 2 0 3 0 2 0 3 0 
2 0 2 0 3 0 2 0 2 0 3 0 2 0 3 0 
2 0 2 0 3 0 2 0 3 0 2 0 2 0 3 0 
2 0 2 0 3 0 2 0 3 0 2 0 2 0 3 0 
2 0 3 0 2 0 2 0 3 0 2 0 2 0 3 0 
2 0 3 0 2 0 2 0 3 0 2 0 3 0 2 0 
2 0 3 0 2 0 3 0 2 0 2 0 3 0 2 0 
2 0 3 0 2 0 3 0 2 0 2 0 3 0 2 0 
3 0 2 0 2 0 3 0 2 0 2 0 3 0 2 0 
3 0 2 0 2 0 3 0 2 0 3 0 2 0 2 0 
3 0 2 0 2 0 3 0 2 0 3 0 2 0 2 0 
3 0 2 0 3 0 2 0 2 0 3 0 2 0 3 0 
2 0 2 0 3 0 2 0 2 0 3 0 2 0 3 0 
2 0 2 0 3 0 2 0 3 0 2 0 2 0 3 0 
2 0 2 0 3 0 2 0 3 0 2 0 2 0 3 0 
2 0 3 0 2 0 2 0 3 0 2 0 2 0 3 0 
2 0 3 0 2 0 2 0 3 0 2 0 3 0 2 0 
2 0 3 0 2 0 3 0 2 0 2 0 3 0 2 0 
2 0 3 0 2 0 3 0 2 0 2 0 3 0 2 0 
3 0 2 0 2 0 3 0 2 0 2 0 3 0 2 0 
3 0 2 0 2 0 3 0 2 0 3 0 2 0 2 0 
3 0 2 0 3 0 2 0 2 0 3 0 2 0 2 0 
3 0 2 0 3 0 3987 6151 300 MP stroke
2 0 2 0 3 0 2 0 3 0 2 0 2 0 3 0 
2 0 2 0 3 0 2 0 3 0 2 0 2 0 3 0 
2 0 3 0 2 0 2 0 3 0 2 0 2 0 3 0 
2 0 3 0 2 0 2 0 3 0 2 0 3 0 2 0 
2 0 3 0 2 0 3 0 2 0 2 0 3 0 2 0 
2 0 3 0 2 0 3 0 2 0 2 0 3 0 2 0 
3 0 2 0 2 0 3 0 2 0 2 0 3 0 2 0 
3 0 2 0 2 0 3 0 2 0 3 0 2 0 2 0 
3 0 2 0 2 0 3 0 2 0 3 0 2 0 2 0 
3 0 2 0 3 0 2 0 2 0 3 0 2 0 3 0 
2 0 2 0 3 0 2 0 2 0 3 0 2 0 3 0 
2 0 2 0 3 0 2 0 3 0 2 0 2 0 3 0 
2 0 2 0 3 0 2 0 3 0 2 0 2 0 3 0 
2 0 3 0 2 0 2 0 3 0 2 0 2 0 3 0 
2 0 3 0 2 0 2 0 3 0 2 0 3 0 2 0 
2 0 3 0 2 0 3 0 2 0 2 0 3 0 2 0 
2 0 3 0 2 0 3 0 2 0 2 0 3 0 2 0 
3 0 2 0 2 0 3 0 2 0 2 0 3 0 2 0 
3 0 2 0 2 0 3 0 2 0 3 0 2 -1 2 1 
3 0 2 0 2 0 3 0 2 0 3 0 2 0 2 0 
3 0 2 0 3 0 2 0 2 -1 3 1 2 0 3 0 
2 0 2 0 3 0 2 0 2 0 3 0 2 0 3 0 
2 0 2 0 3 0 2 0 3 0 2 0 2 0 3 0 
2 0 2 0 3 0 2 0 3 0 2 0 2 0 3 -1 
2 1 3 0 2 0 2 0 3 0 2 0 2 0 3 0 
2 0 3 0 2 0 2 0 3 0 2 0 3 0 2 0 
2 0 3 0 2 0 3 0 2 0 2 0 3 0 2 0 
2 0 3 -1 2 1 3 0 2 0 2 0 3 0 2 0 
3 0 2 0 2 0 3 0 2 0 2 0 3 0 2 0 
3 0 2 0 2 0 3 0 2 0 3 0 2 0 2 0 
3 0 2 0 2 0 3 0 2 0 3 0 2 0 2 0 
3 0 2 0 3 0 2 -1 2 1 3 0 2 0 3 0 
2 0 2 0 3 0 2 0 2 0 3 0 2 0 3 0 
2 0 2 0 3 0 2 0 3 0 2 0 2 0 3 0 
2 0 2 0 3 0 2 0 3 0 2 0 2 -1 3 1 
2 0 3 0 2 0 2 0 3 0 2 0 2 0 3 0 
2 0 3 0 2 0 2 0 3 0 2 0 3 -1 2 1 
2 0 3 0 2 0 3274 6151 300 MP stroke
3 0 2 0 2 0 3 0 2 0 2 0 3 0 2 0 
3 -1 2 1 2 0 3 0 2 -1 3 1 2 0 2 0 
3 0 2 -1 2 1 3 0 2 0 3 0 2 0 2 0 
3 0 2 0 3 0 2 0 2 0 3 0 2 0 2 0 
3 0 2 0 3 0 2 0 2 0 3 0 2 0 3 -1 
2 1 2 -1 3 1 2 0 3 0 2 0 2 -1 3 1 
2 0 2 0 3 0 2 -1 3 1 2 0 2 0 3 0 
2 0 3 0 2 0 2 0 3 0 2 0 2 0 3 -1 
2 0 3 1 2 0 2 0 3 0 2 0 3 0 2 0 
2 -1 3 1 2 0 2 0 3 0 2 -1 3 1 2 0 
2 0 3 -1 2 0 3 1 2 0 2 0 3 0 2 -1 
3 0 2 1 2 0 3 0 2 0 2 0 3 0 2 0 
3 0 2 0 2 -1 3 1 2 0 3 -1 2 1 2 0 
3 0 2 0 2 -1 3 1 2 0 3 0 2 0 2 0 
3 -1 2 1 3 0 2 0 2 -1 3 1 2 0 2 0 
3 0 2 0 3 0 2 -1 2 1 3 -1 2 0 3 1 
2 -1 2 1 3 0 2 0 3 0 2 -1 2 0 3 1 
2 0 2 0 3 -1 2 1 3 -1 2 1 2 -1 3 0 
2 0 3 0 2 0 2 1 3 0 2 0 2 0 3 0 
2 0 3 0 2 0 2 0 3 0 2 0 3 0 2 0 
2 0 3 0 2 -1 3 0 2 1 2 0 3 0 2 0 
2 0 3 0 2 0 3 0 2 0 2 0 3 -1 2 1 
3 -1 2 1 2 0 3 0 2 0 2 0 3 -1 2 1 
3 0 2 0 2 0 3 -1 2 1 3 0 2 0 2 -1 
3 1 2 0 2 -1 3 1 2 0 3 0 2 0 2 0 
3 -1 2 1 3 -1 2 0 2 1 3 0 2 -1 3 1 
2 -1 2 1 3 0 2 -1 2 0 3 1 2 0 3 0 
2 0 2 0 3 0 2 0 3 -1 2 0 2 0 3 0 
2 1 2 0 3 0 2 0 3 0 2 -1 2 1 3 0 
2 0 3 0 2 0 2 0 3 0 2 -1 2 1 3 0 
2 0 3 0 2 -1 2 0 3 1 2 -1 3 1 2 -1 
2 1 3 -1 2 0 3 1 2 0 2 0 3 -1 2 0 
2 1 3 0 2 -1 3 1 2 0 2 0 3 0 2 0 
3 -1 2 0 2 0 3 1 2 0 2 -1 3 0 2 1 
3 -1 2 0 2 1 3 -1 2 1 3 0 2 0 2 -1 
3 1 2 0 2 0 3 -1 2 1 3 0 2 0 2 -1 
3 0 2 0 3 0 2 0 2 0 3 0 2 0 3 0 
2 1 2 -1 3 0 2560 6152 300 MP stroke
2 1 2 -1 3 0 2 0 3 0 2 1 2 0 3 0 
2 0 3 -1 2 1 2 -1 3 0 2 1 2 -1 3 0 
2 1 3 0 2 0 2 -1 3 1 2 -1 3 0 2 0 
2 0 3 1 2 0 2 -1 3 0 2 0 3 0 2 0 
2 1 3 -1 2 0 3 0 2 1 2 0 3 0 2 -1 
3 1 2 0 2 -1 3 1 2 -1 2 1 3 -1 2 1 
3 -1 2 1 2 0 3 -1 2 1 3 0 2 -1 2 0 
3 0 2 0 2 1 3 -1 2 0 3 1 2 -1 2 1 
3 -1 2 0 3 1 2 -1 2 1 3 0 2 0 2 -1 
3 0 2 1 3 -1 2 0 2 0 3 0 2 0 3 0 
2 1 2 0 3 -1 2 1 3 -1 2 0 2 0 3 1 
2 -1 2 1 3 0 2 0 3 -1 2 0 2 1 3 -1 
2 0 3 0 2 0 2 0 3 0 2 1 2 -1 3 0 
2 1 3 0 2 -1 2 1 3 -1 2 0 3 1 2 0 
2 -1 3 0 2 0 2 0 3 0 2 0 3 0 2 1 
2 -1 3 0 2 1 3 0 2 0 2 -1 3 0 2 0 
3 1 2 -1 2 0 3 1 2 0 2 0 3 -1 2 0 
3 0 2 0 2 0 3 1 2 -1 3 0 2 0 2 1 
3 0 2 -1 2 0 3 0 2 1 3 -1 2 1 2 0 
3 0 2 0 3 0 2 -1 2 0 3 1 2 -1 2 0 
3 0 2 0 3 0 2 0 2 0 3 0 2 1 3 0 
2 -1 2 1 3 -1 2 0 3 0 2 0 2 0 3 0 
2 0 2 0 3 1 2 -1 3 0 2 0 2 0 3 0 
2 0 3 0 2 0 2 1 3 0 2 0 2 0 3 -1 
2 1 3 -1 2 0 2 1 3 0 2 -1 3 0 2 0 
2 0 3 1 2 -1 2 0 3 1 2 -1 3 0 2 1 
2 -1 3 0 2 0 3 0 2 1 2 -1 3 1 2 -1 
3 0 2 0 2 0 3 0 2 1 2 0 3 -1 2 1 
3 0 2 0 2 0 3 0 2 0 3 -1 2 1 2 -1 
3 0 2 1 2 0 3 0 2 -1 3 0 2 0 2 1 
3 0 2 -1 3 1 2 -1 2 1 3 -1 2 0 2 1 
3 0 2 -1 3 1 2 -1 2 1 3 -1 2 1 3 0 
2 0 2 0 3 -1 2 0 3 1 2 0 2 0 3 -1 
2 0 2 0 3 1 2 -1 3 1 2 0 2 -1 3 0 
2 0 3 1 2 0 2 0 3 -1 2 0 2 1 3 0 
2 -1 3 0 2 0 2 0 3 1 2 0 3 -1 2 0 
2 0 3 0 2 0 2 0 3 1 2 -1 3 0 2 1 
2 0 3 -1 2 0 1847 6152 300 MP stroke
3 0 2 0 2 1 3 -1 2 0 3 0 2 0 2 0 
3 0 2 0 2 0 3 1 2 -1 3 1 2 -1 2 1 
3 -1 2 1 3 0 2 0 2 0 3 -1 2 1 2 0 
3 -1 2 0 3 1 2 0 2 -1 3 1 2 -1 3 0 
2 0 2 1 3 -1 2 0 3 0 2 0 2 0 3 0 
2 0 2 0 3 0 2 1 3 0 2 -1 2 1 3 -1 
2 0 3 0 2 0 2 1 3 -1 2 1 2 0 3 -1 
2 0 3 0 2 1 2 -1 3 0 2 1 3 0 2 0 
2 0 3 -1 2 1 2 -1 3 0 2 0 3 0 2 1 
2 -1 3 1 2 -1 3 0 2 0 2 0 3 0 2 0 
3 0 2 0 2 0 3 0 2 1 2 -1 3 1 2 -1 
3 1 2 -1 2 0 3 0 2 0 3 1 2 0 2 -1 
3 0 2 0 2 0 3 0 2 1 3 0 2 0 2 -1 
1 0 1598 6152 106 MP stroke
gr

c8
0 sg
4422  416 mt 
(|Y\(j) s
%%IncludeResource: font Symbol
/Symbol /ISOLatin1Encoding 120 FMSR

4599  416 mt 
(W) s
%%IncludeResource: font Helvetica
/Helvetica /ISOLatin1Encoding 120 FMSR

4691  416 mt 
(\)| - modulo della trasformata del segnale distrurbato dopo \
il filtraggio) s
1581 6196 mt 
( ) s
11106  561 mt 
( ) s
1 sg
0 206 844 0 0 -206 10219 785 4 MP
PP
-844 0 0 206 844 0 0 -206 10219 785 5 MP stroke
4 w
DO
SO
6 w
0 sg
10219  785 mt 11063  785 L
10219  579 mt 11063  579 L
10219  785 mt 10219  579 L
11063  785 mt 11063  579 L
10219  785 mt 11063  785 L
10219  785 mt 10219  579 L
10219  785 mt 11063  785 L
10219  579 mt 11063  579 L
10219  785 mt 10219  579 L
11063  785 mt 11063  579 L
10674  726 mt 
(|Y\(j) s
%%IncludeResource: font Symbol
/Symbol /ISOLatin1Encoding 120 FMSR

10851  726 mt 
(W) s
%%IncludeResource: font Helvetica
/Helvetica /ISOLatin1Encoding 120 FMSR

10943  726 mt 
(\)|) s
gs 10219 579 845 207 rc
c8
350 0 10288 682 2 MP stroke
gr

c8

end %%Color Dict

eplot
%%EndObject

epage
end

showpage

%%Trailer
%%EOF
