%!PS-Adobe-3.0 EPSF-3.0
%%Creator: MATLAB, The Mathworks, Inc. Version 7.7.0.471 (R2008b). Operating System: Linux 2.6.26-1-686 #1 SMP Fri Mar 13 18:08:45 UTC 2009 i686.
%%Title: /home/salvix/Dev/UniPD/ens/hw1/matlab/y_n.eps
%%CreationDate: 10/23/2009  01:41:32
%%DocumentNeededFonts: Helvetica
%%DocumentProcessColors: Cyan Magenta Yellow Black
%%LanguageLevel: 2
%%Pages: 1
%%BoundingBox:    73   252   521   589
%%EndComments

%%BeginProlog
% MathWorks dictionary
/MathWorks 160 dict begin
% definition operators
/bdef {bind def} bind def
/ldef {load def} bind def
/xdef {exch def} bdef
/xstore {exch store} bdef
% operator abbreviations
/c  /clip ldef
/cc /concat ldef
/cp /closepath ldef
/gr /grestore ldef
/gs /gsave ldef
/mt /moveto ldef
/np /newpath ldef
/cm /currentmatrix ldef
/sm /setmatrix ldef
/rm /rmoveto ldef
/rl /rlineto ldef
/s {show newpath} bdef
/sc {setcmykcolor} bdef
/sr /setrgbcolor ldef
/sg /setgray ldef
/w /setlinewidth ldef
/j /setlinejoin ldef
/cap /setlinecap ldef
/rc {rectclip} bdef
/rf {rectfill} bdef
% page state control
/pgsv () def
/bpage {/pgsv save def} bdef
/epage {pgsv restore} bdef
/bplot /gsave ldef
/eplot {stroke grestore} bdef
% orientation switch
/portraitMode 0 def /landscapeMode 1 def /rotateMode 2 def
% coordinate system mappings
/dpi2point 0 def
% font control
/FontSize 0 def
/FMS {/FontSize xstore findfont [FontSize 0 0 FontSize neg 0 0]
  makefont setfont} bdef
/reencode {exch dup where {pop load} {pop StandardEncoding} ifelse
  exch dup 3 1 roll findfont dup length dict begin
  { 1 index /FID ne {def}{pop pop} ifelse } forall
  /Encoding exch def currentdict end definefont pop} bdef
/isroman {findfont /CharStrings get /Agrave known} bdef
/FMSR {3 1 roll 1 index dup isroman {reencode} {pop pop} ifelse
  exch FMS} bdef
/csm {1 dpi2point div -1 dpi2point div scale neg translate
 dup landscapeMode eq {pop -90 rotate}
  {rotateMode eq {90 rotate} if} ifelse} bdef
% line types: solid, dotted, dashed, dotdash
/SO { [] 0 setdash } bdef
/DO { [.5 dpi2point mul 4 dpi2point mul] 0 setdash } bdef
/DA { [6 dpi2point mul] 0 setdash } bdef
/DD { [.5 dpi2point mul 4 dpi2point mul 6 dpi2point mul 4
  dpi2point mul] 0 setdash } bdef
% macros for lines and objects
/L {lineto stroke} bdef
/MP {3 1 roll moveto 1 sub {rlineto} repeat} bdef
/AP {{rlineto} repeat} bdef
/PDlw -1 def
/W {/PDlw currentlinewidth def setlinewidth} def
/PP {closepath eofill} bdef
/DP {closepath stroke} bdef
/MR {4 -2 roll moveto dup  0 exch rlineto exch 0 rlineto
  neg 0 exch rlineto closepath} bdef
/FR {MR stroke} bdef
/PR {MR fill} bdef
/L1i {{currentfile picstr readhexstring pop} image} bdef
/tMatrix matrix def
/MakeOval {newpath tMatrix currentmatrix pop translate scale
0 0 1 0 360 arc tMatrix setmatrix} bdef
/FO {MakeOval stroke} bdef
/PO {MakeOval fill} bdef
/PD {currentlinewidth 2 div 0 360 arc fill
   PDlw -1 eq not {PDlw w /PDlw -1 def} if} def
/FA {newpath tMatrix currentmatrix pop translate scale
  0 0 1 5 -2 roll arc tMatrix setmatrix stroke} bdef
/PA {newpath tMatrix currentmatrix pop	translate 0 0 moveto scale
  0 0 1 5 -2 roll arc closepath tMatrix setmatrix fill} bdef
/FAn {newpath tMatrix currentmatrix pop translate scale
  0 0 1 5 -2 roll arcn tMatrix setmatrix stroke} bdef
/PAn {newpath tMatrix currentmatrix pop translate 0 0 moveto scale
  0 0 1 5 -2 roll arcn closepath tMatrix setmatrix fill} bdef
/vradius 0 def /hradius 0 def /lry 0 def
/lrx 0 def /uly 0 def /ulx 0 def /rad 0 def
/MRR {/vradius xdef /hradius xdef /lry xdef /lrx xdef /uly xdef
  /ulx xdef newpath tMatrix currentmatrix pop ulx hradius add uly
  vradius add translate hradius vradius scale 0 0 1 180 270 arc 
  tMatrix setmatrix lrx hradius sub uly vradius add translate
  hradius vradius scale 0 0 1 270 360 arc tMatrix setmatrix
  lrx hradius sub lry vradius sub translate hradius vradius scale
  0 0 1 0 90 arc tMatrix setmatrix ulx hradius add lry vradius sub
  translate hradius vradius scale 0 0 1 90 180 arc tMatrix setmatrix
  closepath} bdef
/FRR {MRR stroke } bdef
/PRR {MRR fill } bdef
/MlrRR {/lry xdef /lrx xdef /uly xdef /ulx xdef /rad lry uly sub 2 div def
  newpath tMatrix currentmatrix pop ulx rad add uly rad add translate
  rad rad scale 0 0 1 90 270 arc tMatrix setmatrix lrx rad sub lry rad
  sub translate rad rad scale 0 0 1 270 90 arc tMatrix setmatrix
  closepath} bdef
/FlrRR {MlrRR stroke } bdef
/PlrRR {MlrRR fill } bdef
/MtbRR {/lry xdef /lrx xdef /uly xdef /ulx xdef /rad lrx ulx sub 2 div def
  newpath tMatrix currentmatrix pop ulx rad add uly rad add translate
  rad rad scale 0 0 1 180 360 arc tMatrix setmatrix lrx rad sub lry rad
  sub translate rad rad scale 0 0 1 0 180 arc tMatrix setmatrix
  closepath} bdef
/FtbRR {MtbRR stroke } bdef
/PtbRR {MtbRR fill } bdef
/stri 6 array def /dtri 6 array def
/smat 6 array def /dmat 6 array def
/tmat1 6 array def /tmat2 6 array def /dif 3 array def
/asub {/ind2 exch def /ind1 exch def dup dup
  ind1 get exch ind2 get sub exch } bdef
/tri_to_matrix {
  2 0 asub 3 1 asub 4 0 asub 5 1 asub
  dup 0 get exch 1 get 7 -1 roll astore } bdef
/compute_transform {
  dmat dtri tri_to_matrix tmat1 invertmatrix 
  smat stri tri_to_matrix tmat2 concatmatrix } bdef
/ds {stri astore pop} bdef
/dt {dtri astore pop} bdef
/db {2 copy /cols xdef /rows xdef mul dup 3 mul string
  currentfile 
  3 index 0 eq {/ASCIIHexDecode filter}
  {/ASCII85Decode filter 3 index 2 eq {/RunLengthDecode filter} if }
  ifelse exch readstring pop
  dup 0 3 index getinterval /rbmap xdef
  dup 2 index dup getinterval /gbmap xdef
  1 index dup 2 mul exch getinterval /bbmap xdef pop pop}bdef
/it {gs np dtri aload pop moveto lineto lineto cp c
  cols rows 8 compute_transform 
  rbmap gbmap bbmap true 3 colorimage gr}bdef
/il {newpath moveto lineto stroke}bdef
currentdict end def
%%EndProlog

%%BeginSetup
MathWorks begin

0 cap

end
%%EndSetup

%%Page: 1 1
%%BeginPageSetup
%%PageBoundingBox:    73   252   521   589
MathWorks begin
bpage
%%EndPageSetup

%%BeginObject: obj1
bplot

/dpi2point 12 def
portraitMode 0876 7068 csm

    0     0  5376  4034 rc
85 dict begin %Colortable dictionary
/c0 { 0.000000 0.000000 0.000000 sr} bdef
/c1 { 1.000000 1.000000 1.000000 sr} bdef
/c2 { 0.900000 0.000000 0.000000 sr} bdef
/c3 { 0.000000 0.820000 0.000000 sr} bdef
/c4 { 0.000000 0.000000 0.800000 sr} bdef
/c5 { 0.910000 0.820000 0.320000 sr} bdef
/c6 { 1.000000 0.260000 0.820000 sr} bdef
/c7 { 0.000000 0.820000 0.820000 sr} bdef
c0
1 j
1 sg
   0    0 5377 4035 rf
6 w
0 3288 4166 0 0 -3288 699 3590 4 MP
PP
-4166 0 0 3288 4166 0 0 -3288 699 3590 5 MP stroke
4 w
DO
0 sg
 699 3590 mt  699  302 L
 699  302 mt  699  302 L
1115 3590 mt 1115  302 L
1115  302 mt 1115  302 L
1532 3590 mt 1532  302 L
1532  302 mt 1532  302 L
1948 3590 mt 1948  302 L
1948  302 mt 1948  302 L
2365 3590 mt 2365  302 L
2365  302 mt 2365  302 L
2782 3590 mt 2782  302 L
2782  302 mt 2782  302 L
3198 3590 mt 3198  302 L
3198  302 mt 3198  302 L
3615 3590 mt 3615  302 L
3615  302 mt 3615  302 L
4031 3590 mt 4031  302 L
4031  302 mt 4031  302 L
4448 3590 mt 4448  302 L
4448  302 mt 4448  302 L
4865 3590 mt 4865  302 L
4865  302 mt 4865  302 L
 699 3590 mt 4865 3590 L
4865 3590 mt 4865 3590 L
 699 3224 mt 4865 3224 L
4865 3224 mt 4865 3224 L
 699 2859 mt 4865 2859 L
4865 2859 mt 4865 2859 L
 699 2494 mt 4865 2494 L
4865 2494 mt 4865 2494 L
 699 2129 mt 4865 2129 L
4865 2129 mt 4865 2129 L
 699 1763 mt 4865 1763 L
4865 1763 mt 4865 1763 L
 699 1398 mt 4865 1398 L
4865 1398 mt 4865 1398 L
 699 1033 mt 4865 1033 L
4865 1033 mt 4865 1033 L
 699  668 mt 4865  668 L
4865  668 mt 4865  668 L
 699  302 mt 4865  302 L
4865  302 mt 4865  302 L
SO
6 w
 699 3590 mt 4865 3590 L
 699  302 mt 4865  302 L
 699 3590 mt  699  302 L
4865 3590 mt 4865  302 L
 699 3590 mt 4865 3590 L
 699 3590 mt  699  302 L
 699 3590 mt  699 3548 L
 699  302 mt  699  344 L
%%IncludeResource: font Helvetica
/Helvetica /ISOLatin1Encoding 120 FMSR

 666 3735 mt 
(0) s
1115 3590 mt 1115 3548 L
1115  302 mt 1115  344 L
1049 3735 mt 
(50) s
1532 3590 mt 1532 3548 L
1532  302 mt 1532  344 L
1432 3735 mt 
(100) s
1948 3590 mt 1948 3548 L
1948  302 mt 1948  344 L
1848 3735 mt 
(150) s
2365 3590 mt 2365 3548 L
2365  302 mt 2365  344 L
2265 3735 mt 
(200) s
2782 3590 mt 2782 3548 L
2782  302 mt 2782  344 L
2682 3735 mt 
(250) s
3198 3590 mt 3198 3548 L
3198  302 mt 3198  344 L
3098 3735 mt 
(300) s
3615 3590 mt 3615 3548 L
3615  302 mt 3615  344 L
3515 3735 mt 
(350) s
4031 3590 mt 4031 3548 L
4031  302 mt 4031  344 L
3931 3735 mt 
(400) s
4448 3590 mt 4448 3548 L
4448  302 mt 4448  344 L
4348 3735 mt 
(450) s
4865 3590 mt 4865 3548 L
4865  302 mt 4865  344 L
4765 3735 mt 
(500) s
 699 3590 mt  740 3590 L
4865 3590 mt 4823 3590 L
 428 3634 mt 
(-0.2) s
 699 3224 mt  740 3224 L
4865 3224 mt 4823 3224 L
 361 3268 mt 
(-0.15) s
 699 2859 mt  740 2859 L
4865 2859 mt 4823 2859 L
 428 2903 mt 
(-0.1) s
 699 2494 mt  740 2494 L
4865 2494 mt 4823 2494 L
 361 2538 mt 
(-0.05) s
 699 2129 mt  740 2129 L
4865 2129 mt 4823 2129 L
 598 2173 mt 
(0) s
 699 1763 mt  740 1763 L
4865 1763 mt 4823 1763 L
 431 1807 mt 
(0.05) s
 699 1398 mt  740 1398 L
4865 1398 mt 4823 1398 L
 498 1442 mt 
(0.1) s
 699 1033 mt  740 1033 L
4865 1033 mt 4823 1033 L
 431 1077 mt 
(0.15) s
 699  668 mt  740  668 L
4865  668 mt 4823  668 L
 498  712 mt 
(0.2) s
 699  302 mt  740  302 L
4865  302 mt 4823  302 L
 431  346 mt 
(0.25) s
 699 3590 mt 4865 3590 L
 699  302 mt 4865  302 L
 699 3590 mt  699  302 L
4865 3590 mt 4865  302 L
gs 699 303 4167 3288 rc
/c8 { 0.000000 0.000000 1.000000 sr} bdef
c8
8 7 8 16 9 30 8 33 8 41 9 45 8 43 8 45 
9 37 8 34 8 34 9 25 8 27 8 24 9 16 8 22 
8 16 9 13 8 15 8 10 9 9 8 14 8 10 9 9 
8 9 8 4 9 2 8 -3 8 -11 9 -7 8 -4 8 2 
9 18 8 22 8 36 9 45 8 36 8 40 9 33 8 21 
8 16 9 0 8 -7 8 -14 9 -23 8 -29 8 -35 9 -38 
8 -51 8 -58 9 -68 8 -72 8 -82 9 -79 8 -79 8 -79 
9 -72 8 -65 8 -58 9 -49 8 -46 8 -41 9 -36 8 -33 
8 -29 9 -24 8 -22 8 -12 9 -9 8 -7 8 -5 9 -6 
8 -3 8 -13 9 -9 8 -25 8 -31 9 -37 8 -42 8 -50 
9 -47 8 -55 8 -50 9 -53 8 -50 8 -36 9 -36 8 -29 
8 -25 9 -15 8 -10 8 -6 9 3 8 13 8 12 9 29 
8 36 8 47 9 57 8 67 8 78 9 88 8 103 8 105 
9 112 8 110 8 107 9 103 8 89 8 85 9 74 8 59 
8 53 9 36 8 39 8 28 9 37 8 48 8 56 9 65 
8 73 8 82 9 79 8 81 8 74 9 67 8 55 8 44 
9 41 8 28 8 27 9 18 8 14 8 8 9 2 8 -4 
8 -9 9 -17 8 -23 8 -31 9 -43 8 -45 8 -49 9 -52 
8 -52 8 -56 9 -55 8 -58 8 -51 9 -59 8 -48 8 -52 
9 -46 8 -48 8 -41 9 -39 8 -46 8 -44 9 -51 8 -52 
8 -60 9 -61 8 -71 8 -72 9 -77 8 -91 8 -86 9 -97 
8 -95 8 -87 9 -85 8 -80 8 -70 9 -65 8 -54 8 -52 
9 -46 8 -31 8 -29 9 -22 8 -10 8 0 9 14 8 27 
8 40 9 45 8 54 8 52 9 54 8 56 8 47 9 56 
8 49 8 53 9 53 8 58 8 59 9 54 8 58 8 49 
9 54 8 54 8 58 9 63 8 67 8 76 9 79 8 84 
8 77 9 79 8 75 8 66 9 65 8 69 8 71 9 75 
8 93 8 92 9 99 8 95 8 90 9 77 8 64 8 45 
9 27 8 13 8 -6 9 -11 8 -21 8 -27 9 -32 8 -39 
8 -41 9 -43 8 -51 8 -47 9 -47 8 -53 8 -52 9 -60 
8 -57 8 -72 9 -69 8 -77 8 -78 9 -85 8 -86 8 -93 
8 -92 9 -87 8 -93 8 -90 9 -91 8 -92 8 -94 9 -88 
8 -95 8 -91 9 -89 8 -85 8 -80 9 -77 8 -74 8 -66 
9 -60 8 -57 8 -39 9 -27 8 -17 8 10 9 21 8 34 
8 51 9 58 8 61 8 68 9 74 8 76 8 76 9 69 
8 70 8 52 9 50 8 29 8 25 9 10 8 2 8 4 
9 0 8 5 8 12 9 25 8 27 8 45 9 53 8 60 
8 66 9 68 8 71 2365 2106 300 MP stroke
8 71 9 72 8 79 8 79 9 75 8 67 8 57 9 45 
8 25 8 18 9 6 8 -10 8 -15 9 -23 8 -26 8 -28 
9 -30 8 -28 8 -24 9 -30 8 -23 8 -28 9 -28 8 -36 
8 -47 9 -48 8 -63 8 -65 9 -68 8 -63 8 -55 9 -49 
8 -33 8 -21 9 -8 8 -4 8 3 9 4 8 3 8 4 
9 -4 8 -5 8 -16 9 -15 8 -20 8 -16 9 -19 8 -21 
8 -18 9 -21 8 -14 8 -15 9 1 8 3 8 13 9 21 
8 26 8 34 9 40 8 43 8 47 9 43 8 47 8 53 
9 48 8 60 8 57 9 58 8 49 8 45 9 34 8 25 
8 16 9 10 8 0 8 2 9 5 8 8 8 13 9 9 
8 16 8 12 9 14 8 14 8 17 9 21 8 24 8 23 
9 26 8 33 8 35 9 36 8 30 8 28 9 17 8 10 
8 2 9 -8 8 -14 8 -31 9 -35 8 -48 8 -44 9 -55 
8 -54 8 -61 9 -56 8 -66 8 -59 9 -63 8 -56 8 -62 
9 -57 8 -59 8 -52 9 -47 8 -41 8 -30 9 -28 8 -22 
8 -16 9 -13 8 -14 8 -19 9 -30 8 -34 8 -45 9 -46 
8 -46 8 -58 9 -49 8 -58 8 -50 9 -55 8 -44 8 -49 
9 -44 8 -45 8 -41 9 -41 8 -38 8 -37 9 -32 8 -21 
8 -27 9 -14 8 -12 8 1 9 12 8 21 8 41 9 49 
8 60 8 65 9 76 8 76 8 68 9 68 8 54 8 47 
9 46 8 39 8 42 9 47 8 55 8 57 9 66 8 69 
8 73 9 77 8 78 8 79 9 76 8 75 8 70 9 72 
8 72 8 67 9 69 8 67 8 60 9 55 8 51 8 48 
9 39 8 36 8 26 9 23 8 16 8 11 9 8 8 5 
8 -3 9 -10 8 -13 8 -20 9 -23 8 -37 8 -37 8 -43 
699 1267 201 MP stroke
gr

c8
0 sg
2748 3878 mt 
(n) s
 279 2050 mt  -90 rotate
(y\(n\)) s
90 rotate
 710  154 mt 
(y\(n\) - Segnale audio distrubato dopo il filtro \(campioni da\
 10.000T) s
%%IncludeResource: font Helvetica
/Helvetica /ISOLatin1Encoding 96 FMSR

4223  214 mt 
(s) s
%%IncludeResource: font Helvetica
/Helvetica /ISOLatin1Encoding 120 FMSR

4271  154 mt 
( a 10500T) s
%%IncludeResource: font Helvetica
/Helvetica /ISOLatin1Encoding 96 FMSR

4811  214 mt 
(s) s
%%IncludeResource: font Helvetica
/Helvetica /ISOLatin1Encoding 120 FMSR

4859  154 mt 
(\)) s
 682 3633 mt 
( ) s
4849  345 mt 
( ) s
1 sg
0 188 713 0 0 -188 4093 551 4 MP
PP
-713 0 0 188 713 0 0 -188 4093 551 5 MP stroke
4 w
DO
SO
6 w
0 sg
4093  551 mt 4806  551 L
4093  363 mt 4806  363 L
4093  551 mt 4093  363 L
4806  551 mt 4806  363 L
4093  551 mt 4806  551 L
4093  551 mt 4093  363 L
4093  551 mt 4806  551 L
4093  363 mt 4806  363 L
4093  551 mt 4093  363 L
4806  551 mt 4806  363 L
4548  500 mt 
(y\(n\)) s
gs 4093 363 714 189 rc
c8
350 0 4162 457 2 MP stroke
gr

c8

end %%Color Dict

eplot
%%EndObject

epage
end

showpage

%%Trailer
%%EOF
