%!PS-Adobe-3.0 EPSF-3.0 
%%BoundingBox: 0 0 550 59
%%Pages: 0
%%Creator: Sun Microsystems, Inc.
%%Title: none
%%CreationDate: none
%%LanguageLevel: 2
%%EndComments
%%BeginProlog
%%BeginResource: procset SDRes-Prolog 1.0 0
/b4_inc_state save def
/dict_count countdictstack def
/op_count count 1 sub def
userdict begin
0 setgray 0 setlinecap 1 setlinewidth 0 setlinejoin 10 setmiterlimit[] 0 setdash newpath
/languagelevel where {pop languagelevel 1 ne {false setstrokeadjust false setoverprint} if} if
/bdef {bind def} bind def
/c {setgray} bdef
/l {neg lineto} bdef
/rl {neg rlineto} bdef
/lc {setlinecap} bdef
/lj {setlinejoin} bdef
/lw {setlinewidth} bdef
/ml {setmiterlimit} bdef
/ld {setdash} bdef
/m {neg moveto} bdef
/ct {6 2 roll neg 6 2 roll neg 6 2 roll neg curveto} bdef
/r {rotate} bdef
/t {neg translate} bdef
/s {scale} bdef
/sw {show} bdef
/gs {gsave} bdef
/gr {grestore} bdef
/f {findfont dup length dict begin
{1 index /FID ne {def} {pop pop} ifelse} forall /Encoding ISOLatin1Encoding def
currentdict end /NFont exch definefont pop /NFont findfont} bdef
/p {closepath} bdef
/sf {scalefont setfont} bdef
/ef {eofill}bdef
/pc {closepath stroke}bdef
/ps {stroke}bdef
/pum {matrix currentmatrix}bdef
/pom {setmatrix}bdef
/bs {/aString exch def /nXOfs exch def /nWidth exch def currentpoint nXOfs 0 rmoveto pum nWidth aString stringwidth pop div 1 scale aString show pom moveto} bdef
%%EndResource
%%EndProlog
%%BeginSetup
%%EndSetup
%%Page: 1 1
%%BeginPageSetup
%%EndPageSetup
pum
0.02835 0.02855 s 
0 -2066 t
/tm matrix currentmatrix def
tm setmatrix
-578 -8938 t 
1 1 s 
0.758 c 3536 10999 m  2572 10999 l  2572 9070 l  4500 9070 l  4500 10999 l 
3536 10999 l  p ef
0 lw 1 lj 0.000 c 3536 10999 m  2572 10999 l  2572 9070 l  4500 9070 l  4500 10999 l 
3536 10999 l  pc
gs
gs
pum
2847 10162 t
0.101 c 51 0 m  51 -455 l  111 -455 l  111 -268 l  347 -268 l  347 -455 l 
407 -455 l  407 0 l  347 0 l  347 -214 l  111 -214 l  111 0 l  51 0 l 
p ef
pom
gr
gs
pum
3304 10428 t
0.101 c 137 0 m  105 0 l  105 -206 l  97 -199 87 -191 74 -184 ct 61 -176 50 -171 40 -167 ct 
40 -198 l  58 -207 74 -217 88 -229 ct 101 -241 111 -253 116 -264 ct 137 -264 l 
137 0 l  p ef
pom
gr
gs
pum
3507 10162 t
0.101 c 149 134 m  118 95 92 50 70 -3 ct 49 -55 38 -109 38 -165 ct 38 -214 46 -261 62 -306 ct 
81 -358 110 -411 149 -462 ct 189 -462 l  164 -419 147 -389 139 -370 ct 126 -342 116 -312 109 -281 ct 
100 -242 96 -203 96 -164 ct 96 -65 127 35 189 134 ct 149 134 l  p ef
224 0 m  224 -45 l  434 -285 l  410 -285 389 -285 371 -285 ct 237 -285 l 
237 -329 l  506 -329 l  506 -292 l  328 -83 l  293 -45 l  318 -47 342 -48 364 -48 ct 
516 -48 l  516 0 l  224 0 l  p ef
607 134 m  567 134 l  629 35 660 -65 660 -164 ct 660 -203 656 -242 647 -280 ct 
640 -311 630 -341 617 -369 ct 609 -388 593 -419 567 -462 ct 607 -462 l  646 -411 675 -358 694 -306 ct 
710 -261 718 -214 718 -165 ct 718 -109 707 -55 685 -3 ct 664 50 638 95 607 134 ct 
p ef
pom
gr
gr
0.758 c 6936 11000 m  5972 11000 l  5972 9071 l  7900 9071 l  7900 11000 l 
6936 11000 l  p ef
0.000 c 6936 11000 m  5972 11000 l  5972 9071 l  7900 9071 l  7900 11000 l 
6936 11000 l  pc
gs
gs
pum
6242 10162 t
0.101 c 51 0 m  51 -455 l  111 -455 l  111 -268 l  347 -268 l  347 -455 l 
407 -455 l  407 0 l  347 0 l  347 -214 l  111 -214 l  111 0 l  51 0 l 
p ef
pom
gr
gs
pum
6699 10428 t
0.101 c 185 -31 m  185 0 l  11 0 l  11 -8 12 -15 15 -22 ct 19 -34 26 -46 36 -57 ct 
46 -69 60 -82 79 -97 ct 107 -121 127 -139 137 -153 ct 147 -167 152 -180 152 -192 ct 
152 -204 147 -215 138 -224 ct 129 -233 117 -237 102 -237 ct 86 -237 74 -233 65 -223 ct 
55 -214 51 -201 51 -185 ct 17 -188 l  20 -213 28 -232 43 -245 ct 58 -258 78 -264 103 -264 ct 
128 -264 148 -257 163 -243 ct 178 -229 185 -212 185 -191 ct 185 -181 183 -170 178 -160 ct 
174 -150 167 -139 157 -128 ct 147 -117 130 -101 107 -82 ct 88 -65 75 -54 70 -49 ct 
64 -43 60 -37 56 -31 ct 185 -31 l  p ef
pom
gr
gs
pum
6902 10162 t
0.101 c 149 134 m  118 95 92 50 70 -3 ct 49 -55 38 -109 38 -165 ct 38 -214 46 -261 62 -306 ct 
81 -358 110 -411 149 -462 ct 189 -462 l  164 -419 147 -389 139 -370 ct 126 -342 116 -312 109 -281 ct 
100 -242 96 -203 96 -164 ct 96 -65 127 35 189 134 ct 149 134 l  p ef
224 0 m  224 -45 l  434 -285 l  410 -285 389 -285 371 -285 ct 237 -285 l 
237 -329 l  506 -329 l  506 -292 l  328 -83 l  293 -45 l  318 -47 342 -48 364 -48 ct 
516 -48 l  516 0 l  224 0 l  p ef
607 134 m  567 134 l  629 35 660 -65 660 -164 ct 660 -203 656 -242 647 -280 ct 
640 -311 630 -341 617 -369 ct 609 -388 593 -419 567 -462 ct 607 -462 l  646 -411 675 -358 694 -306 ct 
710 -261 718 -214 718 -165 ct 718 -109 707 -55 685 -3 ct 664 50 638 95 607 134 ct 
p ef
pom
gr
gr
0.758 c 10236 11001 m  9272 11001 l  9272 9072 l  11200 9072 l  11200 11001 l 
10236 11001 l  p ef
0.000 c 10236 11001 m  9272 11001 l  9272 9072 l  11200 9072 l  11200 11001 l 
10236 11001 l  pc
gs
gs
pum
9534 10162 t
0.101 c 51 0 m  51 -455 l  111 -455 l  111 -268 l  347 -268 l  347 -455 l 
407 -455 l  407 0 l  347 0 l  347 -214 l  111 -214 l  111 0 l  51 0 l 
p ef
pom
gr
gs
pum
9991 10428 t
0.101 c 15 -69 m  48 -74 l  52 -55 58 -42 67 -34 ct 76 -26 87 -22 99 -22 ct 115 -22 127 -27 138 -38 ct 
148 -48 154 -61 154 -77 ct 154 -92 149 -104 139 -114 ct 129 -123 117 -128 102 -128 ct 
96 -128 88 -127 79 -124 ct 83 -153 l  85 -153 87 -152 88 -152 ct 102 -152 114 -156 125 -163 ct 
136 -170 142 -181 142 -196 ct 142 -208 138 -218 130 -226 ct 122 -234 111 -237 99 -237 ct 
86 -237 76 -233 67 -226 ct 59 -218 53 -206 51 -190 ct 19 -196 l  23 -217 32 -234 46 -246 ct 
60 -258 77 -264 98 -264 ct 112 -264 126 -261 138 -255 ct 150 -249 159 -240 165 -230 ct 
172 -219 175 -208 175 -196 ct 175 -184 172 -174 166 -165 ct 160 -155 151 -148 139 -142 ct 
154 -139 166 -131 175 -120 ct 184 -109 188 -95 188 -77 ct 188 -55 180 -35 163 -19 ct 
146 -3 125 5 99 5 ct 76 5 57 -2 42 -16 ct 26 -29 18 -47 15 -69 ct p ef
pom
gr
gs
pum
10194 10162 t
0.101 c 149 134 m  118 95 92 50 70 -3 ct 49 -55 38 -109 38 -165 ct 38 -214 46 -261 62 -306 ct 
81 -358 110 -411 149 -462 ct 189 -462 l  164 -419 147 -389 139 -370 ct 126 -342 116 -312 109 -281 ct 
100 -242 96 -203 96 -164 ct 96 -65 127 35 189 134 ct 149 134 l  p ef
224 0 m  224 -45 l  434 -285 l  410 -285 389 -285 371 -285 ct 237 -285 l 
237 -329 l  506 -329 l  506 -292 l  328 -83 l  293 -45 l  318 -47 342 -48 364 -48 ct 
516 -48 l  516 0 l  224 0 l  p ef
607 134 m  567 134 l  629 35 660 -65 660 -164 ct 660 -203 656 -242 647 -280 ct 
640 -311 630 -341 617 -369 ct 609 -388 593 -419 567 -462 ct 607 -462 l  646 -411 675 -358 694 -306 ct 
710 -261 718 -214 718 -165 ct 718 -109 707 -55 685 -3 ct 664 50 638 95 607 134 ct 
p ef
pom
gr
gr
0.758 c 13536 11002 m  12572 11002 l  12572 9073 l  14500 9073 l  14500 11002 l 
13536 11002 l  p ef
0.000 c 13536 11002 m  12572 11002 l  12572 9073 l  14500 9073 l  14500 11002 l 
13536 11002 l  pc
gs
gs
pum
12825 10162 t
0.101 c 51 0 m  51 -455 l  111 -455 l  111 -268 l  347 -268 l  347 -455 l 
407 -455 l  407 0 l  347 0 l  347 -214 l  111 -214 l  111 0 l  51 0 l 
p ef
pom
gr
gs
pum
13282 10428 t
0.101 c 119 0 m  119 -63 l  5 -63 l  5 -93 l  125 -263 l  151 -263 l  151 -93 l 
187 -93 l  187 -63 l  151 -63 l  151 0 l  119 0 l  p
119 -93 m  119 -211 l  36 -93 l  119 -93 l  p ef
pom
gr
gs
pum
13485 10162 t
0.101 c 149 134 m  118 95 92 50 70 -3 ct 49 -55 38 -109 38 -165 ct 38 -214 46 -261 62 -306 ct 
81 -358 110 -411 149 -462 ct 189 -462 l  164 -419 147 -389 139 -370 ct 126 -342 116 -312 109 -281 ct 
100 -242 96 -203 96 -164 ct 96 -65 127 35 189 134 ct 149 134 l  p ef
224 0 m  224 -45 l  434 -285 l  410 -285 389 -285 371 -285 ct 237 -285 l 
237 -329 l  506 -329 l  506 -292 l  328 -83 l  293 -45 l  318 -47 342 -48 364 -48 ct 
516 -48 l  516 0 l  224 0 l  p ef
607 134 m  567 134 l  629 35 660 -65 660 -164 ct 660 -203 656 -242 647 -280 ct 
640 -311 630 -341 617 -369 ct 609 -388 593 -419 567 -462 ct 607 -462 l  646 -411 675 -358 694 -306 ct 
710 -261 718 -214 718 -165 ct 718 -109 707 -55 685 -3 ct 664 50 638 95 607 134 ct 
p ef
pom
gr
gr
0.758 c 16836 11003 m  15872 11003 l  15872 9074 l  17800 9074 l  17800 11003 l 
16836 11003 l  p ef
0.000 c 16836 11003 m  15872 11003 l  15872 9074 l  17800 9074 l  17800 11003 l 
16836 11003 l  pc
gs
gs
pum
16143 10162 t
0.101 c 51 0 m  51 -455 l  111 -455 l  111 -268 l  347 -268 l  347 -455 l 
407 -455 l  407 0 l  347 0 l  347 -214 l  111 -214 l  111 0 l  51 0 l 
p ef
pom
gr
gs
pum
16600 10428 t
0.101 c 15 -69 m  49 -72 l  52 -56 58 -43 67 -35 ct 76 -27 87 -23 100 -23 ct 
115 -23 129 -28 139 -40 ct 150 -52 156 -67 156 -87 ct 156 -105 150 -120 140 -130 ct 
130 -141 116 -146 99 -146 ct 89 -146 80 -144 71 -139 ct 63 -135 56 -129 51 -121 ct 
21 -125 l  47 -260 l  178 -260 l  178 -229 l  72 -229 l  58 -158 l  74 -170 91 -175 108 -175 ct 
131 -175 150 -167 166 -151 ct 182 -135 190 -115 190 -90 ct 190 -66 183 -45 169 -28 ct 
152 -7 129 4 100 4 ct 76 4 56 -3 41 -16 ct 26 -30 17 -47 15 -69 ct p ef
pom
gr
gs
pum
16803 10162 t
0.101 c 149 134 m  118 95 92 50 70 -3 ct 49 -55 38 -109 38 -165 ct 38 -214 46 -261 62 -306 ct 
81 -358 110 -411 149 -462 ct 189 -462 l  164 -419 147 -389 139 -370 ct 126 -342 116 -312 109 -281 ct 
100 -242 96 -203 96 -164 ct 96 -65 127 35 189 134 ct 149 134 l  p ef
224 0 m  224 -45 l  434 -285 l  410 -285 389 -285 371 -285 ct 237 -285 l 
237 -329 l  506 -329 l  506 -292 l  328 -83 l  293 -45 l  318 -47 342 -48 364 -48 ct 
516 -48 l  516 0 l  224 0 l  p ef
607 134 m  567 134 l  629 35 660 -65 660 -164 ct 660 -203 656 -242 647 -280 ct 
640 -311 630 -341 617 -369 ct 609 -388 593 -419 567 -462 ct 607 -462 l  646 -411 675 -358 694 -306 ct 
710 -261 718 -214 718 -165 ct 718 -109 707 -55 685 -3 ct 664 50 638 95 607 134 ct 
p ef
pom
gr
gr
2572 10035 m  2122 10185 l  2122 9885 l  2572 10035 l  p ef
803 9980 m  2072 9985 l  2072 10035 l  2072 10085 l  803 10080 l  803 10030 l 
803 9980 l  p ef
2072 10035 m  2072 10085 l  2072 10085 l  2072 10035 l  p ef
2072 9985 m  2212 9985 l  2212 10035 l  2212 10085 l  2072 10085 l  2072 10035 l 
2072 9985 l  p ef
5972 10036 m  5522 10186 l  5522 9886 l  5972 10036 l  p ef
4500 9985 m  5000 9985 l  5000 10035 l  5000 10085 l  4500 10085 l  4500 10035 l 
4500 9985 l  p ef
5000 10035 m  5000 9985 l  5000 9985 l  5000 10035 l  p ef
5000 9985 m  5472 9986 l  5472 10036 l  5472 10086 l  5000 10085 l  5000 10035 l 
5000 9985 l  p ef
5472 10036 m  5472 10086 l  5472 10086 l  5472 10036 l  p ef
5472 9986 m  5612 9986 l  5612 10036 l  5612 10086 l  5472 10086 l  5472 10036 l 
5472 9986 l  p ef
9272 10037 m  8822 10187 l  8822 9887 l  9272 10037 l  p ef
7900 9986 m  8400 9986 l  8400 10036 l  8400 10086 l  7900 10086 l  7900 10036 l 
7900 9986 l  p ef
8400 10036 m  8400 9986 l  8400 9986 l  8400 10036 l  p ef
8400 9986 m  8772 9987 l  8772 10037 l  8772 10087 l  8400 10086 l  8400 10036 l 
8400 9986 l  p ef
8772 10037 m  8772 10087 l  8772 10087 l  8772 10037 l  p ef
8772 9987 m  8912 9987 l  8912 10037 l  8912 10087 l  8772 10087 l  8772 10037 l 
8772 9987 l  p ef
12572 10038 m  12122 10188 l  12122 9888 l  12572 10038 l  p ef
11200 9987 m  11700 9987 l  11700 10037 l  11700 10087 l  11200 10087 l 
11200 10037 l  11200 9987 l  p ef
11700 10037 m  11700 9987 l  11700 9987 l  11700 10037 l  p ef
11700 9987 m  12072 9988 l  12072 10038 l  12072 10088 l  11700 10087 l 
11700 10037 l  11700 9987 l  p ef
12072 10038 m  12072 10088 l  12072 10088 l  12072 10038 l  p ef
12072 9988 m  12212 9988 l  12212 10038 l  12212 10088 l  12072 10088 l 
12072 10038 l  12072 9988 l  p ef
15872 10039 m  15422 10189 l  15422 9889 l  15872 10039 l  p ef
14500 9988 m  15000 9988 l  15000 10038 l  15000 10088 l  14500 10088 l 
14500 10038 l  14500 9988 l  p ef
15000 10038 m  15000 9988 l  15000 9988 l  15000 10038 l  p ef
15000 9988 m  15372 9989 l  15372 10039 l  15372 10089 l  15000 10088 l 
15000 10038 l  15000 9988 l  p ef
15372 10039 m  15372 10089 l  15372 10089 l  15372 10039 l  p ef
15372 9989 m  15512 9989 l  15512 10039 l  15512 10089 l  15372 10089 l 
15372 10039 l  15372 9989 l  p ef
19750 10005 m  19304 10166 l  19297 9866 l  19750 10005 l  p ef
17800 9989 m  18300 9989 l  18300 10039 l  18300 10089 l  17800 10089 l 
17800 10039 l  17800 9989 l  p ef
18300 10039 m  18301 10089 l  18300 10089 l  18300 10039 l  p ef
18299 9989 m  19389 9963 l  19390 10013 l  19391 10063 l  18301 10089 l 
18300 10039 l  18299 9989 l  p ef
gs
gs
pum
1122 9695 t
0.101 c 5 0 m  125 -171 l  14 -330 l  83 -330 l  134 -252 l  143 -238 151 -225 157 -215 ct 
166 -229 174 -241 182 -252 ct 238 -330 l  304 -330 l  190 -174 l  313 0 l 
244 0 l  177 -102 l  159 -130 l  72 0 l  5 0 l  p ef
462 134 m  431 95 405 50 383 -3 ct 362 -55 351 -109 351 -165 ct 351 -214 359 -261 375 -306 ct 
394 -358 423 -411 462 -462 ct 502 -462 l  477 -419 460 -389 452 -370 ct 439 -342 429 -312 422 -281 ct 
413 -242 409 -203 409 -164 ct 409 -65 440 35 502 134 ct 462 134 l  p ef
567 0 m  567 -330 l  617 -330 l  617 -283 l  641 -319 676 -337 722 -337 ct 
742 -337 760 -333 777 -326 ct 793 -319 806 -310 814 -298 ct 822 -287 828 -273 831 -257 ct 
833 -247 834 -229 834 -203 ct 834 0 l  779 0 l  779 -200 l  779 -223 776 -240 772 -252 ct 
768 -263 760 -272 749 -279 ct 738 -285 725 -289 710 -289 ct 686 -289 666 -281 649 -266 ct 
631 -251 623 -222 623 -180 ct 623 0 l  567 0 l  p ef
954 134 m  914 134 l  976 35 1007 -65 1007 -164 ct 1007 -203 1003 -242 994 -280 ct 
987 -311 977 -341 964 -369 ct 956 -388 940 -419 914 -462 ct 954 -462 l  993 -411 1022 -358 1041 -306 ct 
1057 -261 1065 -214 1065 -165 ct 1065 -109 1054 -55 1032 -3 ct 1011 50 985 95 954 134 ct 
p ef
pom
gr
gr
gs
gs
pum
18306 9695 t
0.101 c 39 127 m  33 75 l  45 78 56 80 65 80 ct 78 80 87 78 95 73 ct 102 69 108 64 113 56 ct 
117 51 122 37 130 15 ct 131 11 133 7 135 1 ct 10 -330 l  70 -330 l  139 -139 l 
148 -114 156 -89 163 -62 ct 169 -88 177 -113 186 -137 ct 256 -330 l  312 -330 l 
187 6 l  173 42 163 67 155 81 ct 145 99 134 113 121 121 ct 108 130 93 134 75 134 ct 
65 134 53 132 39 127 ct p ef
458 134 m  427 95 401 50 379 -3 ct 358 -55 347 -109 347 -165 ct 347 -214 355 -261 371 -306 ct 
390 -358 419 -411 458 -462 ct 498 -462 l  473 -419 456 -389 448 -370 ct 435 -342 425 -312 418 -281 ct 
409 -242 405 -203 405 -164 ct 405 -65 436 35 498 134 ct 458 134 l  p ef
563 0 m  563 -330 l  613 -330 l  613 -283 l  637 -319 672 -337 718 -337 ct 
738 -337 756 -333 773 -326 ct 789 -319 802 -310 810 -298 ct 818 -287 824 -273 827 -257 ct 
829 -247 830 -229 830 -203 ct 830 0 l  775 0 l  775 -200 l  775 -223 772 -240 768 -252 ct 
764 -263 756 -272 745 -279 ct 734 -285 721 -289 706 -289 ct 682 -289 662 -281 645 -266 ct 
627 -251 619 -222 619 -180 ct 619 0 l  563 0 l  p ef
950 134 m  910 134 l  972 35 1003 -65 1003 -164 ct 1003 -203 999 -242 990 -280 ct 
983 -311 973 -341 960 -369 ct 952 -388 936 -419 910 -462 ct 950 -462 l  989 -411 1018 -358 1037 -306 ct 
1053 -261 1061 -214 1061 -165 ct 1061 -109 1050 -55 1028 -3 ct 1007 50 981 95 950 134 ct 
p ef
pom
gr
gr
0 2066 t 
pom
count op_count sub {pop} repeat countdictstack dict_count sub {end} repeat b4_inc_state restore
%%PageTrailer
%%Trailer
%%EOF
