%!PS-Adobe-3.0 EPSF-3.0 
%%BoundingBox: 0 0 500 788
%%Pages: 0
%%Creator: Sun Microsystems, Inc.
%%Title: none
%%CreationDate: none
%%LanguageLevel: 2
%%EndComments
%%BeginProlog
%%BeginResource: procset SDRes-Prolog 1.0 0
/b4_inc_state save def
/dict_count countdictstack def
/op_count count 1 sub def
userdict begin
0 setgray 0 setlinecap 1 setlinewidth 0 setlinejoin 10 setmiterlimit[] 0 setdash newpath
/languagelevel where {pop languagelevel 1 ne {false setstrokeadjust false setoverprint} if} if
/bdef {bind def} bind def
/c {setgray} bdef
/l {neg lineto} bdef
/rl {neg rlineto} bdef
/lc {setlinecap} bdef
/lj {setlinejoin} bdef
/lw {setlinewidth} bdef
/ml {setmiterlimit} bdef
/ld {setdash} bdef
/m {neg moveto} bdef
/ct {6 2 roll neg 6 2 roll neg 6 2 roll neg curveto} bdef
/r {rotate} bdef
/t {neg translate} bdef
/s {scale} bdef
/sw {show} bdef
/gs {gsave} bdef
/gr {grestore} bdef
/f {findfont dup length dict begin
{1 index /FID ne {def} {pop pop} ifelse} forall /Encoding ISOLatin1Encoding def
currentdict end /NFont exch definefont pop /NFont findfont} bdef
/p {closepath} bdef
/sf {scalefont setfont} bdef
/ef {eofill}bdef
/pc {closepath stroke}bdef
/ps {stroke}bdef
/pum {matrix currentmatrix}bdef
/pom {setmatrix}bdef
/bs {/aString exch def /nXOfs exch def /nWidth exch def currentpoint nXOfs 0 rmoveto pum nWidth aString stringwidth pop div 1 scale aString show pom moveto} bdef
%%EndResource
%%EndProlog
%%BeginSetup
%%EndSetup
%%Page: 1 1
%%BeginPageSetup
%%EndPageSetup
pum
0.02836 0.02833 s 
0 -27807 t
/tm matrix currentmatrix def
tm setmatrix
-1163 -822 t 
1 1 s 
0.758 c 10250 5928 m  9286 5928 l  9286 3999 l  11214 3999 l  11214 5928 l 
10250 5928 l  p ef
0 lw 1 lj 0.000 c 10250 5928 m  9286 5928 l  9286 3999 l  11214 3999 l  11214 5928 l 
10250 5928 l  pc
gs
gs
pum
9927 5206 t
0.101 c 12 0 m  12 -45 l  222 -285 l  198 -285 177 -285 159 -285 ct 25 -285 l 
25 -329 l  294 -329 l  294 -292 l  116 -83 l  81 -45 l  106 -47 130 -48 152 -48 ct 
304 -48 l  304 0 l  12 0 l  p ef
pom
gr
gs
pum
10245 4940 t
0.101 c 12 -79 m  12 -112 l  111 -112 l  111 -79 l  12 -79 l  p ef
260 0 m  228 0 l  228 -206 l  220 -199 210 -191 197 -184 ct 184 -176 173 -171 163 -167 ct 
163 -198 l  181 -207 197 -217 211 -229 ct 224 -241 234 -253 239 -264 ct 260 -264 l 
260 0 l  p ef
pom
gr
gr
10250 7471 m  10359 7471 10443 7555 10443 7664 ct 10443 7773 10359 7857 10250 7857 ct 
10141 7857 10057 7773 10057 7664 ct 10057 7555 10141 7471 10250 7471 ct p ef
10250 7471 m  10359 7471 10443 7555 10443 7664 ct 10443 7773 10359 7857 10250 7857 ct 
10141 7857 10057 7773 10057 7664 ct 10057 7555 10141 7471 10250 7471 ct pc
0.758 c 6566 7660 m  7735 8628 l  7743 6705 l  6566 7660 l  p ef
0.000 c 6566 7660 m  7735 8628 l  7743 6705 l  6566 7660 l  pc
100 lw 10250 5929 m  10250 6700 l  10249 6700 l  10249 7471 l  ps
7742 7664 m  8417 7439 l  8417 7889 l  7742 7664 l  p ef
10057 7713 m  8900 7713 l  8900 7663 l  8900 7613 l  10057 7613 l  10057 7663 l 
10057 7713 l  p ef
8900 7663 m  8850 7663 l  8851 7654 l  8853 7646 l  8857 7638 l  8862 7631 l 
8868 7625 l  8875 7620 l  8883 7616 l  8891 7614 l  8900 7613 l  8900 7613 l 
8900 7663 l  p ef
8950 7663 m  8950 7664 l  8900 7664 l  8850 7664 l  8850 7663 l  8900 7663 l 
8950 7663 l  p ef
8900 7664 m  8950 7664 l  8949 7673 l  8947 7681 l  8943 7689 l  8938 7696 l 
8932 7702 l  8925 7707 l  8917 7711 l  8909 7713 l  8900 7714 l  8900 7714 l 
8900 7664 l  p ef
8900 7714 m  8282 7714 l  8282 7664 l  8282 7614 l  8900 7614 l  8900 7664 l 
8900 7714 l  p ef
0.758 c 13910 7660 m  12740 8628 l  12732 6705 l  13910 7660 l  p ef
0 lw 0.000 c 13910 7660 m  12740 8628 l  12732 6705 l  13910 7660 l  pc
12733 7664 m  12058 7889 l  12058 7439 l  12733 7664 l  p ef
10443 7613 m  11588 7613 l  11588 7663 l  11588 7713 l  10443 7713 l  10443 7663 l 
10443 7613 l  p ef
11588 7663 m  11588 7613 l  11597 7614 l  11605 7616 l  11613 7620 l  11620 7625 l 
11626 7631 l  11631 7638 l  11635 7646 l  11637 7654 l  11638 7663 l  11638 7663 l 
11588 7663 l  p ef
11638 7663 m  11638 7664 l  11588 7664 l  11538 7664 l  11538 7663 l  11588 7663 l 
11638 7663 l  p ef
11588 7664 m  11588 7714 l  11579 7713 l  11571 7711 l  11563 7707 l  11556 7702 l 
11550 7696 l  11545 7689 l  11541 7681 l  11539 7673 l  11538 7664 l  11538 7664 l 
11588 7664 l  p ef
11588 7614 m  12193 7614 l  12193 7664 l  12193 7714 l  11588 7714 l  11588 7664 l 
11588 7614 l  p ef
0.758 c 16420 7085 m  16748 7085 16998 7335 16998 7663 ct 16998 7991 16748 8241 16420 8241 ct 
16092 8241 15842 7991 15842 7663 ct 15842 7335 16092 7085 16420 7085 ct p ef
0.000 c 16420 7085 m  16748 7085 16998 7335 16998 7663 ct 16998 7991 16748 8241 16420 8241 ct 
16092 8241 15842 7991 15842 7663 ct 15842 7335 16092 7085 16420 7085 ct pc
gs
gs
pum
16222 7878 t
0.101 c 159 -74 m  159 -199 l  35 -199 l  35 -251 l  159 -251 l  159 -375 l 
212 -375 l  212 -251 l  335 -251 l  335 -199 l  212 -199 l  212 -74 l 
159 -74 l  p ef
pom
gr
gr
15843 7663 m  15168 7888 l  15168 7438 l  15843 7663 l  p ef
13914 7614 m  14876 7614 l  14876 7664 l  14876 7714 l  13914 7714 l  13914 7664 l 
13914 7614 l  p ef
14876 7664 m  14926 7664 l  14925 7673 l  14923 7681 l  14919 7689 l  14914 7696 l 
14908 7702 l  14901 7707 l  14893 7711 l  14885 7713 l  14876 7714 l  14876 7714 l 
14876 7664 l  p ef
14826 7664 m  14826 7663 l  14876 7663 l  14926 7663 l  14926 7664 l  14876 7664 l 
14826 7664 l  p ef
14876 7663 m  14826 7663 l  14827 7654 l  14829 7646 l  14833 7638 l  14838 7631 l 
14844 7625 l  14851 7620 l  14859 7616 l  14867 7614 l  14876 7613 l  14876 7613 l 
14876 7663 l  p ef
14876 7613 m  15303 7613 l  15303 7663 l  15303 7713 l  14876 7713 l  14876 7663 l 
14876 7613 l  p ef
0.758 c 4077 7085 m  4405 7085 4655 7335 4655 7663 ct 4655 7991 4405 8241 4077 8241 ct 
3749 8241 3499 7991 3499 7663 ct 3499 7335 3749 7085 4077 7085 ct p ef
0.000 c 4077 7085 m  4405 7085 4655 7335 4655 7663 ct 4655 7991 4405 8241 4077 8241 ct 
3749 8241 3499 7991 3499 7663 ct 3499 7335 3749 7085 4077 7085 ct pc
gs
gs
pum
3884 7878 t
0.101 c 159 -74 m  159 -199 l  35 -199 l  35 -251 l  159 -251 l  159 -375 l 
212 -375 l  212 -251 l  335 -251 l  335 -199 l  212 -199 l  212 -74 l 
159 -74 l  p ef
pom
gr
gr
4655 7663 m  5330 7438 l  5330 7888 l  4655 7663 l  p ef
6562 7714 m  5611 7714 l  5611 7664 l  5611 7614 l  6562 7614 l  6562 7664 l 
6562 7714 l  p ef
5611 7664 m  5611 7714 l  5602 7713 l  5594 7711 l  5586 7707 l  5579 7702 l 
5573 7696 l  5568 7689 l  5564 7681 l  5562 7673 l  5561 7664 l  5561 7664 l 
5611 7664 l  p ef
5561 7664 m  5561 7663 l  5611 7663 l  5661 7663 l  5661 7664 l  5611 7664 l 
5561 7664 l  p ef
5611 7663 m  5611 7613 l  5620 7614 l  5628 7616 l  5636 7620 l  5643 7625 l 
5649 7631 l  5654 7638 l  5658 7646 l  5660 7654 l  5661 7663 l  5661 7663 l 
5611 7663 l  p ef
5611 7713 m  5195 7713 l  5195 7663 l  5195 7613 l  5611 7613 l  5611 7663 l 
5611 7713 l  p ef
0.758 c 10250 10928 m  9286 10928 l  9286 8999 l  11214 8999 l  11214 10928 l 
10250 10928 l  p ef
0.000 c 10250 10928 m  9286 10928 l  9286 8999 l  11214 8999 l  11214 10928 l 
10250 10928 l  pc
gs
gs
pum
9927 10208 t
0.101 c 12 0 m  12 -45 l  222 -285 l  198 -285 177 -285 159 -285 ct 25 -285 l 
25 -329 l  294 -329 l  294 -292 l  116 -83 l  81 -45 l  106 -47 130 -48 152 -48 ct 
304 -48 l  304 0 l  12 0 l  p ef
pom
gr
gs
pum
10245 9942 t
0.101 c 12 -79 m  12 -112 l  111 -112 l  111 -79 l  12 -79 l  p ef
260 0 m  228 0 l  228 -206 l  220 -199 210 -191 197 -184 ct 184 -176 173 -171 163 -167 ct 
163 -198 l  181 -207 197 -217 211 -229 ct 224 -241 234 -253 239 -264 ct 260 -264 l 
260 0 l  p ef
pom
gr
gr
10250 12471 m  10359 12471 10443 12555 10443 12664 ct 10443 12773 10359 12857 10250 12857 ct 
10141 12857 10057 12773 10057 12664 ct 10057 12555 10141 12471 10250 12471 ct 
p ef
10250 12471 m  10359 12471 10443 12555 10443 12664 ct 10443 12773 10359 12857 10250 12857 ct 
10141 12857 10057 12773 10057 12664 ct 10057 12555 10141 12471 10250 12471 ct 
pc
0.758 c 6566 12660 m  7735 13628 l  7743 11705 l  6566 12660 l  p ef
0.000 c 6566 12660 m  7735 13628 l  7743 11705 l  6566 12660 l  pc
100 lw 10250 10929 m  10250 11700 l  10249 11700 l  10249 12471 l  ps
7742 12664 m  8417 12439 l  8417 12889 l  7742 12664 l  p ef
10057 12713 m  8900 12713 l  8900 12663 l  8900 12613 l  10057 12613 l 
10057 12663 l  10057 12713 l  p ef
8900 12663 m  8850 12663 l  8851 12654 l  8853 12646 l  8857 12638 l  8862 12631 l 
8868 12625 l  8875 12620 l  8883 12616 l  8891 12614 l  8900 12613 l  8900 12613 l 
8900 12663 l  p ef
8950 12663 m  8950 12664 l  8900 12664 l  8850 12664 l  8850 12663 l  8900 12663 l 
8950 12663 l  p ef
8900 12664 m  8950 12664 l  8949 12673 l  8947 12681 l  8943 12689 l  8938 12696 l 
8932 12702 l  8925 12707 l  8917 12711 l  8909 12713 l  8900 12714 l  8900 12714 l 
8900 12664 l  p ef
8900 12714 m  8282 12714 l  8282 12664 l  8282 12614 l  8900 12614 l  8900 12664 l 
8900 12714 l  p ef
0.758 c 13910 12660 m  12740 13628 l  12732 11705 l  13910 12660 l  p ef
0 lw 0.000 c 13910 12660 m  12740 13628 l  12732 11705 l  13910 12660 l 
pc
12733 12664 m  12058 12889 l  12058 12439 l  12733 12664 l  p ef
10443 12613 m  11588 12613 l  11588 12663 l  11588 12713 l  10443 12713 l 
10443 12663 l  10443 12613 l  p ef
11588 12663 m  11588 12613 l  11597 12614 l  11605 12616 l  11613 12620 l 
11620 12625 l  11626 12631 l  11631 12638 l  11635 12646 l  11637 12654 l 
11638 12663 l  11638 12663 l  11588 12663 l  p ef
11638 12663 m  11638 12664 l  11588 12664 l  11538 12664 l  11538 12663 l 
11588 12663 l  11638 12663 l  p ef
11588 12664 m  11588 12714 l  11579 12713 l  11571 12711 l  11563 12707 l 
11556 12702 l  11550 12696 l  11545 12689 l  11541 12681 l  11539 12673 l 
11538 12664 l  11538 12664 l  11588 12664 l  p ef
11588 12614 m  12193 12614 l  12193 12664 l  12193 12714 l  11588 12714 l 
11588 12664 l  11588 12614 l  p ef
0.758 c 16420 12085 m  16748 12085 16998 12335 16998 12663 ct 16998 12991 16748 13241 16420 13241 ct 
16092 13241 15842 12991 15842 12663 ct 15842 12335 16092 12085 16420 12085 ct 
p ef
0.000 c 16420 12085 m  16748 12085 16998 12335 16998 12663 ct 16998 12991 16748 13241 16420 13241 ct 
16092 13241 15842 12991 15842 12663 ct 15842 12335 16092 12085 16420 12085 ct 
pc
gs
gs
pum
16222 12880 t
0.101 c 159 -74 m  159 -199 l  35 -199 l  35 -251 l  159 -251 l  159 -375 l 
212 -375 l  212 -251 l  335 -251 l  335 -199 l  212 -199 l  212 -74 l 
159 -74 l  p ef
pom
gr
gr
15843 12663 m  15168 12888 l  15168 12438 l  15843 12663 l  p ef
13914 12614 m  14876 12614 l  14876 12664 l  14876 12714 l  13914 12714 l 
13914 12664 l  13914 12614 l  p ef
14876 12664 m  14926 12664 l  14925 12673 l  14923 12681 l  14919 12689 l 
14914 12696 l  14908 12702 l  14901 12707 l  14893 12711 l  14885 12713 l 
14876 12714 l  14876 12714 l  14876 12664 l  p ef
14826 12664 m  14826 12663 l  14876 12663 l  14926 12663 l  14926 12664 l 
14876 12664 l  14826 12664 l  p ef
14876 12663 m  14826 12663 l  14827 12654 l  14829 12646 l  14833 12638 l 
14838 12631 l  14844 12625 l  14851 12620 l  14859 12616 l  14867 12614 l 
14876 12613 l  14876 12613 l  14876 12663 l  p ef
14876 12613 m  15303 12613 l  15303 12663 l  15303 12713 l  14876 12713 l 
14876 12663 l  14876 12613 l  p ef
0.758 c 4077 12085 m  4405 12085 4655 12335 4655 12663 ct 4655 12991 4405 13241 4077 13241 ct 
3749 13241 3499 12991 3499 12663 ct 3499 12335 3749 12085 4077 12085 ct p ef
0.000 c 4077 12085 m  4405 12085 4655 12335 4655 12663 ct 4655 12991 4405 13241 4077 13241 ct 
3749 13241 3499 12991 3499 12663 ct 3499 12335 3749 12085 4077 12085 ct pc
gs
gs
pum
3884 12880 t
0.101 c 159 -74 m  159 -199 l  35 -199 l  35 -251 l  159 -251 l  159 -375 l 
212 -375 l  212 -251 l  335 -251 l  335 -199 l  212 -199 l  212 -74 l 
159 -74 l  p ef
pom
gr
gr
4655 12663 m  5330 12438 l  5330 12888 l  4655 12663 l  p ef
6562 12714 m  5611 12714 l  5611 12664 l  5611 12614 l  6562 12614 l  6562 12664 l 
6562 12714 l  p ef
5611 12664 m  5611 12714 l  5602 12713 l  5594 12711 l  5586 12707 l  5579 12702 l 
5573 12696 l  5568 12689 l  5564 12681 l  5562 12673 l  5561 12664 l  5561 12664 l 
5611 12664 l  p ef
5561 12664 m  5561 12663 l  5611 12663 l  5661 12663 l  5661 12664 l  5611 12664 l 
5561 12664 l  p ef
5611 12663 m  5611 12613 l  5620 12614 l  5628 12616 l  5636 12620 l  5643 12625 l 
5649 12631 l  5654 12638 l  5658 12646 l  5660 12654 l  5661 12663 l  5661 12663 l 
5611 12663 l  p ef
5611 12713 m  5195 12713 l  5195 12663 l  5195 12613 l  5611 12613 l  5611 12663 l 
5611 12713 l  p ef
0.758 c 10250 15928 m  9286 15928 l  9286 13999 l  11214 13999 l  11214 15928 l 
10250 15928 l  p ef
0.000 c 10250 15928 m  9286 15928 l  9286 13999 l  11214 13999 l  11214 15928 l 
10250 15928 l  pc
gs
gs
pum
9927 15185 t
0.101 c 12 0 m  12 -45 l  222 -285 l  198 -285 177 -285 159 -285 ct 25 -285 l 
25 -329 l  294 -329 l  294 -292 l  116 -83 l  81 -45 l  106 -47 130 -48 152 -48 ct 
304 -48 l  304 0 l  12 0 l  p ef
pom
gr
gs
pum
10245 14919 t
0.101 c 12 -79 m  12 -112 l  111 -112 l  111 -79 l  12 -79 l  p ef
260 0 m  228 0 l  228 -206 l  220 -199 210 -191 197 -184 ct 184 -176 173 -171 163 -167 ct 
163 -198 l  181 -207 197 -217 211 -229 ct 224 -241 234 -253 239 -264 ct 260 -264 l 
260 0 l  p ef
pom
gr
gr
10250 17471 m  10359 17471 10443 17555 10443 17664 ct 10443 17773 10359 17857 10250 17857 ct 
10141 17857 10057 17773 10057 17664 ct 10057 17555 10141 17471 10250 17471 ct 
p ef
10250 17471 m  10359 17471 10443 17555 10443 17664 ct 10443 17773 10359 17857 10250 17857 ct 
10141 17857 10057 17773 10057 17664 ct 10057 17555 10141 17471 10250 17471 ct 
pc
0.758 c 6566 17660 m  7735 18628 l  7743 16705 l  6566 17660 l  p ef
0.000 c 6566 17660 m  7735 18628 l  7743 16705 l  6566 17660 l  pc
100 lw 10250 15929 m  10250 16700 l  10249 16700 l  10249 17471 l  ps
7742 17664 m  8417 17439 l  8417 17889 l  7742 17664 l  p ef
10057 17713 m  8900 17713 l  8900 17663 l  8900 17613 l  10057 17613 l 
10057 17663 l  10057 17713 l  p ef
8900 17663 m  8850 17663 l  8851 17654 l  8853 17646 l  8857 17638 l  8862 17631 l 
8868 17625 l  8875 17620 l  8883 17616 l  8891 17614 l  8900 17613 l  8900 17613 l 
8900 17663 l  p ef
8950 17663 m  8950 17664 l  8900 17664 l  8850 17664 l  8850 17663 l  8900 17663 l 
8950 17663 l  p ef
8900 17664 m  8950 17664 l  8949 17673 l  8947 17681 l  8943 17689 l  8938 17696 l 
8932 17702 l  8925 17707 l  8917 17711 l  8909 17713 l  8900 17714 l  8900 17714 l 
8900 17664 l  p ef
8900 17714 m  8282 17714 l  8282 17664 l  8282 17614 l  8900 17614 l  8900 17664 l 
8900 17714 l  p ef
0.758 c 13910 17660 m  12740 18628 l  12732 16705 l  13910 17660 l  p ef
0 lw 0.000 c 13910 17660 m  12740 18628 l  12732 16705 l  13910 17660 l 
pc
12733 17664 m  12058 17889 l  12058 17439 l  12733 17664 l  p ef
10443 17613 m  11588 17613 l  11588 17663 l  11588 17713 l  10443 17713 l 
10443 17663 l  10443 17613 l  p ef
11588 17663 m  11588 17613 l  11597 17614 l  11605 17616 l  11613 17620 l 
11620 17625 l  11626 17631 l  11631 17638 l  11635 17646 l  11637 17654 l 
11638 17663 l  11638 17663 l  11588 17663 l  p ef
11638 17663 m  11638 17664 l  11588 17664 l  11538 17664 l  11538 17663 l 
11588 17663 l  11638 17663 l  p ef
11588 17664 m  11588 17714 l  11579 17713 l  11571 17711 l  11563 17707 l 
11556 17702 l  11550 17696 l  11545 17689 l  11541 17681 l  11539 17673 l 
11538 17664 l  11538 17664 l  11588 17664 l  p ef
11588 17614 m  12193 17614 l  12193 17664 l  12193 17714 l  11588 17714 l 
11588 17664 l  11588 17614 l  p ef
0.758 c 16420 17085 m  16748 17085 16998 17335 16998 17663 ct 16998 17991 16748 18241 16420 18241 ct 
16092 18241 15842 17991 15842 17663 ct 15842 17335 16092 17085 16420 17085 ct 
p ef
0.000 c 16420 17085 m  16748 17085 16998 17335 16998 17663 ct 16998 17991 16748 18241 16420 18241 ct 
16092 18241 15842 17991 15842 17663 ct 15842 17335 16092 17085 16420 17085 ct 
pc
gs
gs
pum
16222 17882 t
0.101 c 159 -74 m  159 -199 l  35 -199 l  35 -251 l  159 -251 l  159 -375 l 
212 -375 l  212 -251 l  335 -251 l  335 -199 l  212 -199 l  212 -74 l 
159 -74 l  p ef
pom
gr
gr
15843 17663 m  15168 17888 l  15168 17438 l  15843 17663 l  p ef
13914 17614 m  14876 17614 l  14876 17664 l  14876 17714 l  13914 17714 l 
13914 17664 l  13914 17614 l  p ef
14876 17664 m  14926 17664 l  14925 17673 l  14923 17681 l  14919 17689 l 
14914 17696 l  14908 17702 l  14901 17707 l  14893 17711 l  14885 17713 l 
14876 17714 l  14876 17714 l  14876 17664 l  p ef
14826 17664 m  14826 17663 l  14876 17663 l  14926 17663 l  14926 17664 l 
14876 17664 l  14826 17664 l  p ef
14876 17663 m  14826 17663 l  14827 17654 l  14829 17646 l  14833 17638 l 
14838 17631 l  14844 17625 l  14851 17620 l  14859 17616 l  14867 17614 l 
14876 17613 l  14876 17613 l  14876 17663 l  p ef
14876 17613 m  15303 17613 l  15303 17663 l  15303 17713 l  14876 17713 l 
14876 17663 l  14876 17613 l  p ef
0.758 c 4077 17085 m  4405 17085 4655 17335 4655 17663 ct 4655 17991 4405 18241 4077 18241 ct 
3749 18241 3499 17991 3499 17663 ct 3499 17335 3749 17085 4077 17085 ct p ef
0.000 c 4077 17085 m  4405 17085 4655 17335 4655 17663 ct 4655 17991 4405 18241 4077 18241 ct 
3749 18241 3499 17991 3499 17663 ct 3499 17335 3749 17085 4077 17085 ct pc
gs
gs
pum
3884 17882 t
0.101 c 159 -74 m  159 -199 l  35 -199 l  35 -251 l  159 -251 l  159 -375 l 
212 -375 l  212 -251 l  335 -251 l  335 -199 l  212 -199 l  212 -74 l 
159 -74 l  p ef
pom
gr
gr
4655 17663 m  5330 17438 l  5330 17888 l  4655 17663 l  p ef
6562 17714 m  5611 17714 l  5611 17664 l  5611 17614 l  6562 17614 l  6562 17664 l 
6562 17714 l  p ef
5611 17664 m  5611 17714 l  5602 17713 l  5594 17711 l  5586 17707 l  5579 17702 l 
5573 17696 l  5568 17689 l  5564 17681 l  5562 17673 l  5561 17664 l  5561 17664 l 
5611 17664 l  p ef
5561 17664 m  5561 17663 l  5611 17663 l  5661 17663 l  5661 17664 l  5611 17664 l 
5561 17664 l  p ef
5611 17663 m  5611 17613 l  5620 17614 l  5628 17616 l  5636 17620 l  5643 17625 l 
5649 17631 l  5654 17638 l  5658 17646 l  5660 17654 l  5661 17663 l  5661 17663 l 
5611 17663 l  p ef
5611 17713 m  5195 17713 l  5195 17663 l  5195 17613 l  5611 17613 l  5611 17663 l 
5611 17713 l  p ef
0.758 c 10250 20928 m  9286 20928 l  9286 18999 l  11214 18999 l  11214 20928 l 
10250 20928 l  p ef
0.000 c 10250 20928 m  9286 20928 l  9286 18999 l  11214 18999 l  11214 20928 l 
10250 20928 l  pc
gs
gs
pum
9927 20187 t
0.101 c 12 0 m  12 -45 l  222 -285 l  198 -285 177 -285 159 -285 ct 25 -285 l 
25 -329 l  294 -329 l  294 -292 l  116 -83 l  81 -45 l  106 -47 130 -48 152 -48 ct 
304 -48 l  304 0 l  12 0 l  p ef
pom
gr
gs
pum
10245 19921 t
0.101 c 12 -79 m  12 -112 l  111 -112 l  111 -79 l  12 -79 l  p ef
260 0 m  228 0 l  228 -206 l  220 -199 210 -191 197 -184 ct 184 -176 173 -171 163 -167 ct 
163 -198 l  181 -207 197 -217 211 -229 ct 224 -241 234 -253 239 -264 ct 260 -264 l 
260 0 l  p ef
pom
gr
gr
10250 22471 m  10359 22471 10443 22555 10443 22664 ct 10443 22773 10359 22857 10250 22857 ct 
10141 22857 10057 22773 10057 22664 ct 10057 22555 10141 22471 10250 22471 ct 
p ef
10250 22471 m  10359 22471 10443 22555 10443 22664 ct 10443 22773 10359 22857 10250 22857 ct 
10141 22857 10057 22773 10057 22664 ct 10057 22555 10141 22471 10250 22471 ct 
pc
0.758 c 6566 22660 m  7735 23628 l  7743 21705 l  6566 22660 l  p ef
0.000 c 6566 22660 m  7735 23628 l  7743 21705 l  6566 22660 l  pc
100 lw 10250 20929 m  10250 21700 l  10249 21700 l  10249 22471 l  ps
7742 22664 m  8417 22439 l  8417 22889 l  7742 22664 l  p ef
10057 22713 m  8900 22713 l  8900 22663 l  8900 22613 l  10057 22613 l 
10057 22663 l  10057 22713 l  p ef
8900 22663 m  8850 22663 l  8851 22654 l  8853 22646 l  8857 22638 l  8862 22631 l 
8868 22625 l  8875 22620 l  8883 22616 l  8891 22614 l  8900 22613 l  8900 22613 l 
8900 22663 l  p ef
8950 22663 m  8950 22664 l  8900 22664 l  8850 22664 l  8850 22663 l  8900 22663 l 
8950 22663 l  p ef
8900 22664 m  8950 22664 l  8949 22673 l  8947 22681 l  8943 22689 l  8938 22696 l 
8932 22702 l  8925 22707 l  8917 22711 l  8909 22713 l  8900 22714 l  8900 22714 l 
8900 22664 l  p ef
8900 22714 m  8282 22714 l  8282 22664 l  8282 22614 l  8900 22614 l  8900 22664 l 
8900 22714 l  p ef
0.758 c 13910 22660 m  12740 23628 l  12732 21705 l  13910 22660 l  p ef
0 lw 0.000 c 13910 22660 m  12740 23628 l  12732 21705 l  13910 22660 l 
pc
12733 22664 m  12058 22889 l  12058 22439 l  12733 22664 l  p ef
10443 22613 m  11588 22613 l  11588 22663 l  11588 22713 l  10443 22713 l 
10443 22663 l  10443 22613 l  p ef
11588 22663 m  11588 22613 l  11597 22614 l  11605 22616 l  11613 22620 l 
11620 22625 l  11626 22631 l  11631 22638 l  11635 22646 l  11637 22654 l 
11638 22663 l  11638 22663 l  11588 22663 l  p ef
11638 22663 m  11638 22664 l  11588 22664 l  11538 22664 l  11538 22663 l 
11588 22663 l  11638 22663 l  p ef
11588 22664 m  11588 22714 l  11579 22713 l  11571 22711 l  11563 22707 l 
11556 22702 l  11550 22696 l  11545 22689 l  11541 22681 l  11539 22673 l 
11538 22664 l  11538 22664 l  11588 22664 l  p ef
11588 22614 m  12193 22614 l  12193 22664 l  12193 22714 l  11588 22714 l 
11588 22664 l  11588 22614 l  p ef
0.758 c 16420 22085 m  16748 22085 16998 22335 16998 22663 ct 16998 22991 16748 23241 16420 23241 ct 
16092 23241 15842 22991 15842 22663 ct 15842 22335 16092 22085 16420 22085 ct 
p ef
0.000 c 16420 22085 m  16748 22085 16998 22335 16998 22663 ct 16998 22991 16748 23241 16420 23241 ct 
16092 23241 15842 22991 15842 22663 ct 15842 22335 16092 22085 16420 22085 ct 
pc
gs
gs
pum
16222 22884 t
0.101 c 159 -74 m  159 -199 l  35 -199 l  35 -251 l  159 -251 l  159 -375 l 
212 -375 l  212 -251 l  335 -251 l  335 -199 l  212 -199 l  212 -74 l 
159 -74 l  p ef
pom
gr
gr
15843 22663 m  15168 22888 l  15168 22438 l  15843 22663 l  p ef
13914 22614 m  14876 22614 l  14876 22664 l  14876 22714 l  13914 22714 l 
13914 22664 l  13914 22614 l  p ef
14876 22664 m  14926 22664 l  14925 22673 l  14923 22681 l  14919 22689 l 
14914 22696 l  14908 22702 l  14901 22707 l  14893 22711 l  14885 22713 l 
14876 22714 l  14876 22714 l  14876 22664 l  p ef
14826 22664 m  14826 22663 l  14876 22663 l  14926 22663 l  14926 22664 l 
14876 22664 l  14826 22664 l  p ef
14876 22663 m  14826 22663 l  14827 22654 l  14829 22646 l  14833 22638 l 
14838 22631 l  14844 22625 l  14851 22620 l  14859 22616 l  14867 22614 l 
14876 22613 l  14876 22613 l  14876 22663 l  p ef
14876 22613 m  15303 22613 l  15303 22663 l  15303 22713 l  14876 22713 l 
14876 22663 l  14876 22613 l  p ef
0.758 c 4077 22085 m  4405 22085 4655 22335 4655 22663 ct 4655 22991 4405 23241 4077 23241 ct 
3749 23241 3499 22991 3499 22663 ct 3499 22335 3749 22085 4077 22085 ct p ef
0.000 c 4077 22085 m  4405 22085 4655 22335 4655 22663 ct 4655 22991 4405 23241 4077 23241 ct 
3749 23241 3499 22991 3499 22663 ct 3499 22335 3749 22085 4077 22085 ct pc
gs
gs
pum
3884 22884 t
0.101 c 159 -74 m  159 -199 l  35 -199 l  35 -251 l  159 -251 l  159 -375 l 
212 -375 l  212 -251 l  335 -251 l  335 -199 l  212 -199 l  212 -74 l 
159 -74 l  p ef
pom
gr
gr
4655 22663 m  5330 22438 l  5330 22888 l  4655 22663 l  p ef
6562 22714 m  5611 22714 l  5611 22664 l  5611 22614 l  6562 22614 l  6562 22664 l 
6562 22714 l  p ef
5611 22664 m  5611 22714 l  5602 22713 l  5594 22711 l  5586 22707 l  5579 22702 l 
5573 22696 l  5568 22689 l  5564 22681 l  5562 22673 l  5561 22664 l  5561 22664 l 
5611 22664 l  p ef
5561 22664 m  5561 22663 l  5611 22663 l  5661 22663 l  5661 22664 l  5611 22664 l 
5561 22664 l  p ef
5611 22663 m  5611 22613 l  5620 22614 l  5628 22616 l  5636 22620 l  5643 22625 l 
5649 22631 l  5654 22638 l  5658 22646 l  5660 22654 l  5661 22663 l  5661 22663 l 
5611 22663 l  p ef
5611 22713 m  5195 22713 l  5195 22663 l  5195 22613 l  5611 22613 l  5611 22663 l 
5611 22713 l  p ef
0.758 c 10250 25928 m  9286 25928 l  9286 23999 l  11214 23999 l  11214 25928 l 
10250 25928 l  p ef
0.000 c 10250 25928 m  9286 25928 l  9286 23999 l  11214 23999 l  11214 25928 l 
10250 25928 l  pc
gs
gs
pum
9927 25189 t
0.101 c 12 0 m  12 -45 l  222 -285 l  198 -285 177 -285 159 -285 ct 25 -285 l 
25 -329 l  294 -329 l  294 -292 l  116 -83 l  81 -45 l  106 -47 130 -48 152 -48 ct 
304 -48 l  304 0 l  12 0 l  p ef
pom
gr
gs
pum
10245 24923 t
0.101 c 12 -79 m  12 -112 l  111 -112 l  111 -79 l  12 -79 l  p ef
260 0 m  228 0 l  228 -206 l  220 -199 210 -191 197 -184 ct 184 -176 173 -171 163 -167 ct 
163 -198 l  181 -207 197 -217 211 -229 ct 224 -241 234 -253 239 -264 ct 260 -264 l 
260 0 l  p ef
pom
gr
gr
10250 27471 m  10359 27471 10443 27555 10443 27664 ct 10443 27773 10359 27857 10250 27857 ct 
10141 27857 10057 27773 10057 27664 ct 10057 27555 10141 27471 10250 27471 ct 
p ef
10250 27471 m  10359 27471 10443 27555 10443 27664 ct 10443 27773 10359 27857 10250 27857 ct 
10141 27857 10057 27773 10057 27664 ct 10057 27555 10141 27471 10250 27471 ct 
pc
0.758 c 6566 27660 m  7735 28628 l  7743 26705 l  6566 27660 l  p ef
0.000 c 6566 27660 m  7735 28628 l  7743 26705 l  6566 27660 l  pc
100 lw 10250 25929 m  10250 26700 l  10249 26700 l  10249 27471 l  ps
7742 27664 m  8417 27439 l  8417 27889 l  7742 27664 l  p ef
10057 27713 m  8900 27713 l  8900 27663 l  8900 27613 l  10057 27613 l 
10057 27663 l  10057 27713 l  p ef
8900 27663 m  8850 27663 l  8851 27654 l  8853 27646 l  8857 27638 l  8862 27631 l 
8868 27625 l  8875 27620 l  8883 27616 l  8891 27614 l  8900 27613 l  8900 27613 l 
8900 27663 l  p ef
8950 27663 m  8950 27664 l  8900 27664 l  8850 27664 l  8850 27663 l  8900 27663 l 
8950 27663 l  p ef
8900 27664 m  8950 27664 l  8949 27673 l  8947 27681 l  8943 27689 l  8938 27696 l 
8932 27702 l  8925 27707 l  8917 27711 l  8909 27713 l  8900 27714 l  8900 27714 l 
8900 27664 l  p ef
8900 27714 m  8282 27714 l  8282 27664 l  8282 27614 l  8900 27614 l  8900 27664 l 
8900 27714 l  p ef
0.758 c 13910 27660 m  12740 28628 l  12732 26705 l  13910 27660 l  p ef
0 lw 0.000 c 13910 27660 m  12740 28628 l  12732 26705 l  13910 27660 l 
pc
12733 27664 m  12058 27889 l  12058 27439 l  12733 27664 l  p ef
10443 27613 m  11588 27613 l  11588 27663 l  11588 27713 l  10443 27713 l 
10443 27663 l  10443 27613 l  p ef
11588 27663 m  11588 27613 l  11597 27614 l  11605 27616 l  11613 27620 l 
11620 27625 l  11626 27631 l  11631 27638 l  11635 27646 l  11637 27654 l 
11638 27663 l  11638 27663 l  11588 27663 l  p ef
11638 27663 m  11638 27664 l  11588 27664 l  11538 27664 l  11538 27663 l 
11588 27663 l  11638 27663 l  p ef
11588 27664 m  11588 27714 l  11579 27713 l  11571 27711 l  11563 27707 l 
11556 27702 l  11550 27696 l  11545 27689 l  11541 27681 l  11539 27673 l 
11538 27664 l  11538 27664 l  11588 27664 l  p ef
11588 27614 m  12193 27614 l  12193 27664 l  12193 27714 l  11588 27714 l 
11588 27664 l  11588 27614 l  p ef
16420 23241 m  16645 23916 l  16195 23916 l  16420 23241 l  p ef
13914 27614 m  16420 27614 l  16420 27664 l  16420 27714 l  13914 27714 l 
13914 27664 l  13914 27614 l  p ef
16420 27664 m  16470 27664 l  16469 27673 l  16467 27681 l  16463 27689 l 
16458 27696 l  16452 27702 l  16445 27707 l  16437 27711 l  16429 27713 l 
16420 27714 l  16420 27714 l  16420 27664 l  p ef
16370 27664 m  16370 23781 l  16420 23781 l  16470 23781 l  16470 27664 l 
16420 27664 l  16370 27664 l  p ef
4077 23241 m  4302 23916 l  3852 23916 l  4077 23241 l  p ef
6562 27714 m  4077 27714 l  4077 27664 l  4077 27614 l  6562 27614 l  6562 27664 l 
6562 27714 l  p ef
4077 27664 m  4077 27714 l  4068 27713 l  4060 27711 l  4052 27707 l  4045 27702 l 
4039 27696 l  4034 27689 l  4030 27681 l  4028 27673 l  4027 27664 l  4027 27664 l 
4077 27664 l  p ef
4027 27664 m  4027 23781 l  4077 23781 l  4127 23781 l  4127 27664 l  4077 27664 l 
4027 27664 l  p ef
4077 18241 m  4302 18916 l  3852 18916 l  4077 18241 l  p ef
4027 22086 m  4027 18781 l  4127 18781 l  4127 22086 l  4027 22086 l  p ef
4077 13241 m  4302 13916 l  3852 13916 l  4077 13241 l  p ef
4027 17086 m  4027 13781 l  4127 13781 l  4127 17086 l  4027 17086 l  p ef
4077 8241 m  4302 8916 l  3852 8916 l  4077 8241 l  p ef
4027 12086 m  4027 8781 l  4127 8781 l  4127 12086 l  4027 12086 l  p ef
16420 18241 m  16645 18916 l  16195 18916 l  16420 18241 l  p ef
16370 22086 m  16370 18781 l  16470 18781 l  16470 22086 l  16370 22086 l 
p ef
16420 13241 m  16645 13916 l  16195 13916 l  16420 13241 l  p ef
16370 17086 m  16370 13781 l  16470 13781 l  16470 17086 l  16370 17086 l 
p ef
16420 8241 m  16645 8916 l  16195 8916 l  16420 8241 l  p ef
16370 12086 m  16370 8781 l  16470 8781 l  16470 12086 l  16370 12086 l 
p ef
0.758 c 4078 1786 m  4406 1786 4656 2036 4656 2364 ct 4656 2692 4406 2942 4078 2942 ct 
3750 2942 3500 2692 3500 2364 ct 3500 2036 3750 1786 4078 1786 ct p ef
0.000 c 4078 1786 m  4406 1786 4656 2036 4656 2364 ct 4656 2692 4406 2942 4078 2942 ct 
3750 2942 3500 2692 3500 2364 ct 3500 2036 3750 1786 4078 1786 ct pc
gs
gs
pum
3884 2590 t
0.101 c 159 -74 m  159 -199 l  35 -199 l  35 -251 l  159 -251 l  159 -375 l 
212 -375 l  212 -251 l  335 -251 l  335 -199 l  212 -199 l  212 -74 l 
159 -74 l  p ef
pom
gr
gr
0.758 c 13896 2360 m  12726 3328 l  12718 1405 l  13896 2360 l  p ef
0.000 c 13896 2360 m  12726 3328 l  12718 1405 l  13896 2360 l  pc
10250 2171 m  10359 2171 10443 2255 10443 2364 ct 10443 2473 10359 2557 10250 2557 ct 
10141 2557 10057 2473 10057 2364 ct 10057 2255 10141 2171 10250 2171 ct p ef
10250 2171 m  10359 2171 10443 2255 10443 2364 ct 10443 2473 10359 2557 10250 2557 ct 
10141 2557 10057 2473 10057 2364 ct 10057 2255 10141 2171 10250 2171 ct pc
4078 2942 m  4303 3617 l  3853 3617 l  4078 2942 l  p ef
4027 7086 m  4027 5014 l  4077 5014 l  4127 5014 l  4127 7086 l  4077 7086 l 
4027 7086 l  p ef
4077 5014 m  4027 5014 l  4028 5005 l  4030 4997 l  4034 4989 l  4039 4982 l 
4045 4976 l  4052 4971 l  4060 4967 l  4068 4965 l  4077 4964 l  4077 4964 l 
4077 5014 l  p ef
4077 4964 m  4078 4964 l  4078 5014 l  4078 5064 l  4077 5064 l  4077 5014 l 
4077 4964 l  p ef
4078 5014 m  4128 5014 l  4127 5023 l  4125 5031 l  4121 5039 l  4116 5046 l 
4110 5052 l  4103 5057 l  4095 5061 l  4087 5063 l  4078 5064 l  4078 5064 l 
4078 5014 l  p ef
4028 5014 m  4028 3482 l  4078 3482 l  4128 3482 l  4128 5014 l  4078 5014 l 
4028 5014 l  p ef
10057 2363 m  9382 2588 l  9382 2138 l  10057 2363 l  p ef
4656 2314 m  7357 2314 l  7357 2364 l  7357 2414 l  4656 2414 l  4656 2364 l 
4656 2314 l  p ef
7357 2364 m  7407 2364 l  7406 2373 l  7404 2381 l  7400 2389 l  7395 2396 l 
7389 2402 l  7382 2407 l  7374 2411 l  7366 2413 l  7357 2414 l  7357 2414 l 
7357 2364 l  p ef
7307 2364 m  7307 2363 l  7357 2363 l  7407 2363 l  7407 2364 l  7357 2364 l 
7307 2364 l  p ef
7357 2363 m  7307 2363 l  7308 2354 l  7310 2346 l  7314 2338 l  7319 2331 l 
7325 2325 l  7332 2320 l  7340 2316 l  7348 2314 l  7357 2313 l  7357 2313 l 
7357 2363 l  p ef
7357 2313 m  9517 2313 l  9517 2363 l  9517 2413 l  7357 2413 l  7357 2363 l 
7357 2313 l  p ef
12719 2364 m  12044 2589 l  12044 2139 l  12719 2364 l  p ef
10443 2313 m  11581 2313 l  11581 2363 l  11581 2413 l  10443 2413 l  10443 2363 l 
10443 2313 l  p ef
11581 2363 m  11581 2313 l  11590 2314 l  11598 2316 l  11606 2320 l  11613 2325 l 
11619 2331 l  11624 2338 l  11628 2346 l  11630 2354 l  11631 2363 l  11631 2363 l 
11581 2363 l  p ef
11631 2363 m  11631 2364 l  11581 2364 l  11531 2364 l  11531 2363 l  11581 2363 l 
11631 2363 l  p ef
11581 2364 m  11581 2414 l  11572 2413 l  11564 2411 l  11556 2407 l  11549 2402 l 
11543 2396 l  11538 2389 l  11534 2381 l  11532 2373 l  11531 2364 l  11531 2364 l 
11581 2364 l  p ef
11581 2314 m  12179 2314 l  12179 2364 l  12179 2414 l  11581 2414 l  11581 2364 l 
11581 2314 l  p ef
0.758 c 16421 1786 m  16749 1786 16999 2036 16999 2364 ct 16999 2692 16749 2942 16421 2942 ct 
16093 2942 15843 2692 15843 2364 ct 15843 2036 16093 1786 16421 1786 ct p ef
0.000 c 16421 1786 m  16749 1786 16999 2036 16999 2364 ct 16999 2692 16749 2942 16421 2942 ct 
16093 2942 15843 2692 15843 2364 ct 15843 2036 16093 1786 16421 1786 ct pc
gs
gs
pum
16247 2590 t
0.101 c 159 -74 m  159 -199 l  35 -199 l  35 -251 l  159 -251 l  159 -375 l 
212 -375 l  212 -251 l  335 -251 l  335 -199 l  212 -199 l  212 -74 l 
159 -74 l  p ef
pom
gr
gr
15844 2364 m  15169 2589 l  15169 2139 l  15844 2364 l  p ef
13900 2314 m  15304 2314 l  15304 2414 l  13900 2414 l  13900 2314 l  p ef
16421 2942 m  16646 3617 l  16196 3617 l  16421 2942 l  p ef
16370 7086 m  16370 5014 l  16420 5014 l  16470 5014 l  16470 7086 l  16420 7086 l 
16370 7086 l  p ef
16420 5014 m  16370 5014 l  16371 5005 l  16373 4997 l  16377 4989 l  16382 4982 l 
16388 4976 l  16395 4971 l  16403 4967 l  16411 4965 l  16420 4964 l  16420 4964 l 
16420 5014 l  p ef
16420 4964 m  16421 4964 l  16421 5014 l  16421 5064 l  16420 5064 l  16420 5014 l 
16420 4964 l  p ef
16421 5014 m  16471 5014 l  16470 5023 l  16468 5031 l  16464 5039 l  16459 5046 l 
16453 5052 l  16446 5057 l  16438 5061 l  16430 5063 l  16421 5064 l  16421 5064 l 
16421 5014 l  p ef
16371 5014 m  16371 3482 l  16421 3482 l  16471 3482 l  16471 5014 l  16421 5014 l 
16371 5014 l  p ef
10250 4000 m  10025 3325 l  10475 3325 l  10250 4000 l  p ef
10299 2557 m  10299 3278 l  10249 3278 l  10199 3278 l  10199 2557 l  10249 2557 l 
10299 2557 l  p ef
10249 3278 m  10249 3328 l  10240 3327 l  10232 3325 l  10224 3321 l  10217 3316 l 
10211 3310 l  10206 3303 l  10202 3295 l  10200 3287 l  10199 3278 l  10199 3278 l 
10249 3278 l  p ef
10249 3228 m  10250 3228 l  10250 3278 l  10250 3328 l  10249 3328 l  10249 3278 l 
10249 3228 l  p ef
10250 3278 m  10250 3228 l  10259 3229 l  10267 3231 l  10275 3235 l  10282 3240 l 
10288 3246 l  10293 3253 l  10297 3261 l  10299 3269 l  10300 3278 l  10300 3278 l 
10250 3278 l  p ef
10300 3278 m  10300 3460 l  10250 3460 l  10200 3460 l  10200 3278 l  10250 3278 l 
10300 3278 l  p ef
10250 9000 m  10024 8325 l  10474 8325 l  10250 9000 l  p ef
10299 7857 m  10299 8428 l  10249 8428 l  10199 8428 l  10199 7857 l  10249 7857 l 
10299 7857 l  p ef
10249 8428 m  10249 8478 l  10240 8477 l  10232 8475 l  10224 8471 l  10217 8466 l 
10211 8460 l  10206 8453 l  10202 8445 l  10200 8437 l  10199 8428 l  10199 8428 l 
10249 8428 l  p ef
10249 8378 m  10250 8378 l  10250 8428 l  10250 8478 l  10249 8478 l  10249 8428 l 
10249 8378 l  p ef
10250 8428 m  10250 8378 l  10259 8379 l  10267 8381 l  10275 8385 l  10282 8390 l 
10288 8396 l  10293 8403 l  10297 8411 l  10299 8419 l  10300 8428 l  10300 8428 l 
10250 8428 l  p ef
10300 8428 m  10300 8460 l  10250 8460 l  10200 8460 l  10200 8428 l  10250 8428 l 
10300 8428 l  p ef
10250 14000 m  10024 13325 l  10474 13325 l  10250 14000 l  p ef
10299 12857 m  10299 13428 l  10249 13428 l  10199 13428 l  10199 12857 l 
10249 12857 l  10299 12857 l  p ef
10249 13428 m  10249 13478 l  10240 13477 l  10232 13475 l  10224 13471 l 
10217 13466 l  10211 13460 l  10206 13453 l  10202 13445 l  10200 13437 l 
10199 13428 l  10199 13428 l  10249 13428 l  p ef
10249 13378 m  10250 13378 l  10250 13428 l  10250 13478 l  10249 13478 l 
10249 13428 l  10249 13378 l  p ef
10250 13428 m  10250 13378 l  10259 13379 l  10267 13381 l  10275 13385 l 
10282 13390 l  10288 13396 l  10293 13403 l  10297 13411 l  10299 13419 l 
10300 13428 l  10300 13428 l  10250 13428 l  p ef
10300 13428 m  10300 13460 l  10250 13460 l  10200 13460 l  10200 13428 l 
10250 13428 l  10300 13428 l  p ef
10250 19000 m  10024 18325 l  10474 18325 l  10250 19000 l  p ef
10299 17857 m  10299 18428 l  10249 18428 l  10199 18428 l  10199 17857 l 
10249 17857 l  10299 17857 l  p ef
10249 18428 m  10249 18478 l  10240 18477 l  10232 18475 l  10224 18471 l 
10217 18466 l  10211 18460 l  10206 18453 l  10202 18445 l  10200 18437 l 
10199 18428 l  10199 18428 l  10249 18428 l  p ef
10249 18378 m  10250 18378 l  10250 18428 l  10250 18478 l  10249 18478 l 
10249 18428 l  10249 18378 l  p ef
10250 18428 m  10250 18378 l  10259 18379 l  10267 18381 l  10275 18385 l 
10282 18390 l  10288 18396 l  10293 18403 l  10297 18411 l  10299 18419 l 
10300 18428 l  10300 18428 l  10250 18428 l  p ef
10300 18428 m  10300 18460 l  10250 18460 l  10200 18460 l  10200 18428 l 
10250 18428 l  10300 18428 l  p ef
10250 24000 m  10024 23325 l  10474 23325 l  10250 24000 l  p ef
10299 22857 m  10299 23428 l  10249 23428 l  10199 23428 l  10199 22857 l 
10249 22857 l  10299 22857 l  p ef
10249 23428 m  10249 23478 l  10240 23477 l  10232 23475 l  10224 23471 l 
10217 23466 l  10211 23460 l  10206 23453 l  10202 23445 l  10200 23437 l 
10199 23428 l  10199 23428 l  10249 23428 l  p ef
10249 23378 m  10250 23378 l  10250 23428 l  10250 23478 l  10249 23478 l 
10249 23428 l  10249 23378 l  p ef
10250 23428 m  10250 23378 l  10259 23379 l  10267 23381 l  10275 23385 l 
10282 23390 l  10288 23396 l  10293 23403 l  10297 23411 l  10299 23419 l 
10300 23428 l  10300 23428 l  10250 23428 l  p ef
10300 23428 m  10300 23460 l  10250 23460 l  10200 23460 l  10200 23428 l 
10250 23428 l  10300 23428 l  p ef
3501 2364 m  2826 2589 l  2826 2139 l  3501 2364 l  p ef
2000 1569 m  1500 1569 l  1500 1519 l  1500 1469 l  2000 1469 l  2000 1519 l 
2000 1569 l  p ef
1500 1519 m  1450 1519 l  1451 1510 l  1453 1502 l  1457 1494 l  1462 1487 l 
1468 1481 l  1475 1476 l  1483 1472 l  1491 1470 l  1500 1469 l  1500 1469 l 
1500 1519 l  p ef
1550 1519 m  1550 2364 l  1500 2364 l  1450 2364 l  1450 1519 l  1500 1519 l 
1550 1519 l  p ef
1500 2364 m  1500 2414 l  1491 2413 l  1483 2411 l  1475 2407 l  1468 2402 l 
1462 2396 l  1457 2389 l  1453 2381 l  1451 2373 l  1450 2364 l  1450 2364 l 
1500 2364 l  p ef
1500 2314 m  2961 2314 l  2961 2364 l  2961 2414 l  1500 2414 l  1500 2364 l 
1500 2314 l  p ef
18453 2359 m  17780 2589 l  17776 2139 l  18453 2359 l  p ef
16999 2314 m  17918 2314 l  17918 2414 l  16999 2414 l  16999 2314 l  p ef
gs
gs
pum
2252 1735 t
0.101 c 5 0 m  125 -171 l  14 -330 l  83 -330 l  134 -252 l  143 -238 151 -225 157 -215 ct 
166 -229 174 -241 182 -252 ct 238 -330 l  304 -330 l  190 -174 l  313 0 l 
244 0 l  177 -102 l  159 -130 l  72 0 l  5 0 l  p ef
462 134 m  431 95 405 50 383 -3 ct 362 -55 351 -109 351 -165 ct 351 -214 359 -261 375 -306 ct 
394 -358 423 -411 462 -462 ct 502 -462 l  477 -419 460 -389 452 -370 ct 439 -342 429 -312 422 -281 ct 
413 -242 409 -203 409 -164 ct 409 -65 440 35 502 134 ct 462 134 l  p ef
567 0 m  567 -330 l  617 -330 l  617 -283 l  641 -319 676 -337 722 -337 ct 
742 -337 760 -333 777 -326 ct 793 -319 806 -310 814 -298 ct 822 -287 828 -273 831 -257 ct 
833 -247 834 -229 834 -203 ct 834 0 l  779 0 l  779 -200 l  779 -223 776 -240 772 -252 ct 
768 -263 760 -272 749 -279 ct 738 -285 725 -289 710 -289 ct 686 -289 666 -281 649 -266 ct 
631 -251 623 -222 623 -180 ct 623 0 l  567 0 l  p ef
954 134 m  914 134 l  976 35 1007 -65 1007 -164 ct 1007 -203 1003 -242 994 -280 ct 
987 -311 977 -341 964 -369 ct 956 -388 940 -419 914 -462 ct 954 -462 l  993 -411 1022 -358 1041 -306 ct 
1057 -261 1065 -214 1065 -165 ct 1065 -109 1054 -55 1032 -3 ct 1011 50 985 95 954 134 ct 
p ef
pom
gr
gr
gs
gs
pum
17258 1890 t
0.101 c 39 127 m  33 75 l  45 78 56 80 65 80 ct 78 80 87 78 95 73 ct 102 69 108 64 113 56 ct 
117 51 122 37 130 15 ct 131 11 133 7 135 1 ct 10 -330 l  70 -330 l  139 -139 l 
148 -114 156 -89 163 -62 ct 169 -88 177 -113 186 -137 ct 256 -330 l  312 -330 l 
187 6 l  173 42 163 67 155 81 ct 145 99 134 113 121 121 ct 108 130 93 134 75 134 ct 
65 134 53 132 39 127 ct p ef
458 134 m  427 95 401 50 379 -3 ct 358 -55 347 -109 347 -165 ct 347 -214 355 -261 371 -306 ct 
390 -358 419 -411 458 -462 ct 498 -462 l  473 -419 456 -389 448 -370 ct 435 -342 425 -312 418 -281 ct 
409 -242 405 -203 405 -164 ct 405 -65 436 35 498 134 ct 458 134 l  p ef
563 0 m  563 -330 l  613 -330 l  613 -283 l  637 -319 672 -337 718 -337 ct 
738 -337 756 -333 773 -326 ct 789 -319 802 -310 810 -298 ct 818 -287 824 -273 827 -257 ct 
829 -247 830 -229 830 -203 ct 830 0 l  775 0 l  775 -200 l  775 -223 772 -240 768 -252 ct 
764 -263 756 -272 745 -279 ct 734 -285 721 -289 706 -289 ct 682 -289 662 -281 645 -266 ct 
627 -251 619 -222 619 -180 ct 619 0 l  563 0 l  p ef
950 134 m  910 134 l  972 35 1003 -65 1003 -164 ct 1003 -203 999 -242 990 -280 ct 
983 -311 973 -341 960 -369 ct 952 -388 936 -419 910 -462 ct 950 -462 l  989 -411 1018 -358 1037 -306 ct 
1053 -261 1061 -214 1061 -165 ct 1061 -109 1050 -55 1028 -3 ct 1007 50 981 95 950 134 ct 
p ef
pom
gr
gr
gs
gs
pum
6062 6643 t
0.101 c 284 -48 m  284 0 l  17 0 l  17 -12 19 -23 23 -34 ct 30 -53 41 -70 55 -88 ct 
70 -106 92 -126 120 -149 ct 164 -185 194 -214 209 -235 ct 225 -256 232 -275 232 -294 ct 
232 -314 225 -330 211 -344 ct 197 -357 179 -364 156 -364 ct 133 -364 113 -357 99 -343 ct 
85 -328 78 -308 77 -283 ct 26 -288 l  30 -326 43 -355 66 -375 ct 89 -395 119 -405 158 -405 ct 
196 -405 227 -394 250 -373 ct 272 -351 283 -325 283 -293 ct 283 -277 280 -261 273 -245 ct 
267 -230 256 -213 241 -196 ct 225 -179 200 -155 164 -125 ct 134 -100 115 -83 107 -74 ct 
98 -66 91 -57 86 -48 ct 284 -48 l  p ef
364 0 m  364 -56 l  421 -56 l  421 0 l  364 0 l  p ef
497 -351 m  497 -399 l  758 -399 l  758 -360 l  732 -333 707 -296 682 -251 ct 
656 -206 637 -159 623 -111 ct 613 -78 607 -41 604 -1 ct 553 -1 l  554 -32 560 -71 572 -116 ct 
584 -160 601 -204 623 -246 ct 646 -287 669 -322 694 -351 ct 497 -351 l  p ef
993 0 m  944 0 l  944 -316 l  932 -304 916 -293 897 -282 ct 877 -270 860 -262 844 -256 ct 
844 -304 l  872 -317 896 -333 917 -351 ct 938 -370 953 -388 961 -405 ct 993 -405 l 
993 0 l  p ef
1119 -106 m  1171 -110 l  1175 -85 1184 -66 1198 -53 ct 1212 -40 1229 -34 1249 -34 ct 
1273 -34 1293 -43 1310 -61 ct 1326 -79 1334 -103 1334 -132 ct 1334 -161 1327 -183 1311 -199 ct 
1295 -216 1274 -224 1248 -224 ct 1232 -224 1218 -220 1205 -213 ct 1192 -206 1182 -196 1175 -185 ct 
1128 -191 l  1167 -398 l  1368 -398 l  1368 -351 l  1207 -351 l  1185 -242 l 
1209 -259 1235 -268 1262 -268 ct 1297 -268 1327 -256 1351 -231 ct 1375 -207 1387 -175 1387 -137 ct 
1387 -100 1376 -69 1355 -42 ct 1329 -9 1294 7 1249 7 ct 1212 7 1182 -3 1159 -24 ct 
1136 -44 1123 -72 1119 -106 ct p ef
1434 -107 m  1483 -113 l  1489 -85 1499 -65 1512 -53 ct 1526 -40 1543 -34 1562 -34 ct 
1586 -34 1605 -42 1621 -58 ct 1637 -74 1645 -94 1645 -118 ct 1645 -141 1638 -160 1623 -174 ct 
1608 -189 1589 -197 1566 -197 ct 1557 -197 1545 -195 1531 -191 ct 1537 -235 l 
1540 -234 1543 -234 1545 -234 ct 1566 -234 1585 -240 1602 -251 ct 1619 -262 1627 -279 1627 -302 ct 
1627 -320 1621 -335 1609 -347 ct 1597 -359 1581 -365 1561 -365 ct 1542 -365 1526 -359 1513 -347 ct 
1500 -335 1492 -316 1488 -292 ct 1439 -301 l  1445 -334 1458 -360 1480 -378 ct 
1501 -397 1528 -406 1560 -406 ct 1582 -406 1602 -401 1621 -392 ct 1640 -382 1654 -369 1664 -353 ct 
1673 -336 1678 -319 1678 -301 ct 1678 -283 1674 -267 1664 -253 ct 1655 -238 1641 -227 1623 -219 ct 
1646 -213 1665 -202 1678 -184 ct 1691 -167 1698 -145 1698 -119 ct 1698 -84 1685 -54 1660 -30 ct 
1634 -5 1601 7 1562 7 ct 1527 7 1497 -4 1474 -25 ct 1450 -46 1437 -73 1434 -107 ct 
p ef
pom
gr
gr
gs
gs
pum
5854 11646 t
0.101 c 18 -121 m  18 -171 l  170 -171 l  170 -121 l  18 -121 l  p ef
210 -107 m  259 -113 l  265 -85 275 -65 288 -53 ct 302 -40 319 -34 338 -34 ct 
362 -34 381 -42 397 -58 ct 413 -74 421 -94 421 -118 ct 421 -141 414 -160 399 -174 ct 
384 -189 365 -197 342 -197 ct 333 -197 321 -195 307 -191 ct 313 -235 l  316 -234 319 -234 321 -234 ct 
342 -234 361 -240 378 -251 ct 395 -262 403 -279 403 -302 ct 403 -320 397 -335 385 -347 ct 
373 -359 357 -365 337 -365 ct 318 -365 302 -359 289 -347 ct 276 -335 268 -316 264 -292 ct 
215 -301 l  221 -334 234 -360 256 -378 ct 277 -397 304 -406 336 -406 ct 358 -406 378 -401 397 -392 ct 
416 -382 430 -369 440 -353 ct 449 -336 454 -319 454 -301 ct 454 -283 450 -267 440 -253 ct 
431 -238 417 -227 399 -219 ct 422 -213 441 -202 454 -184 ct 467 -167 474 -145 474 -119 ct 
474 -84 461 -54 436 -30 ct 410 -5 377 7 338 7 ct 303 7 273 -4 250 -25 ct 226 -46 213 -73 210 -107 ct 
p ef
551 0 m  551 -56 l  608 -56 l  608 0 l  551 0 l  p ef
683 -351 m  683 -399 l  944 -399 l  944 -360 l  918 -333 893 -296 868 -251 ct 
842 -206 823 -159 809 -111 ct 799 -78 793 -41 790 -1 ct 739 -1 l  740 -32 746 -71 758 -116 ct 
770 -160 787 -204 809 -246 ct 832 -287 855 -322 880 -351 ct 683 -351 l  p ef
1069 -219 m  1048 -227 1033 -237 1023 -251 ct 1013 -265 1008 -282 1008 -301 ct 
1008 -330 1019 -355 1040 -375 ct 1061 -395 1089 -405 1124 -405 ct 1159 -405 1188 -395 1209 -374 ct 
1231 -354 1241 -329 1241 -300 ct 1241 -281 1236 -265 1227 -251 ct 1217 -237 1202 -227 1182 -219 ct 
1207 -211 1226 -198 1238 -180 ct 1251 -162 1258 -140 1258 -115 ct 1258 -81 1246 -52 1221 -28 ct 
1197 -5 1165 7 1125 7 ct 1085 7 1053 -5 1028 -28 ct 1004 -52 992 -81 992 -117 ct 
992 -143 999 -165 1012 -183 ct 1025 -200 1044 -213 1069 -219 ct p
1059 -303 m  1059 -284 1065 -268 1077 -256 ct 1090 -244 1106 -238 1125 -238 ct 
1144 -238 1160 -244 1172 -256 ct 1184 -268 1190 -283 1190 -300 ct 1190 -318 1184 -333 1172 -346 ct 
1159 -358 1143 -364 1125 -364 ct 1106 -364 1090 -358 1078 -346 ct 1065 -334 1059 -320 1059 -303 ct 
p
1043 -116 m  1043 -102 1046 -89 1053 -75 ct 1060 -62 1070 -52 1083 -45 ct 1096 -37 1110 -34 1125 -34 ct 
1149 -34 1169 -41 1184 -57 ct 1200 -72 1207 -91 1207 -115 ct 1207 -139 1199 -158 1183 -174 ct 
1168 -190 1148 -198 1124 -198 ct 1100 -198 1081 -190 1066 -174 ct 1050 -159 1043 -140 1043 -116 ct 
p ef
1307 -107 m  1356 -113 l  1362 -85 1372 -65 1385 -53 ct 1399 -40 1416 -34 1435 -34 ct 
1459 -34 1478 -42 1494 -58 ct 1510 -74 1518 -94 1518 -118 ct 1518 -141 1511 -160 1496 -174 ct 
1481 -189 1462 -197 1439 -197 ct 1430 -197 1418 -195 1404 -191 ct 1410 -235 l 
1413 -234 1416 -234 1418 -234 ct 1439 -234 1458 -240 1475 -251 ct 1492 -262 1500 -279 1500 -302 ct 
1500 -320 1494 -335 1482 -347 ct 1470 -359 1454 -365 1434 -365 ct 1415 -365 1399 -359 1386 -347 ct 
1373 -335 1365 -316 1361 -292 ct 1312 -301 l  1318 -334 1331 -360 1353 -378 ct 
1374 -397 1401 -406 1433 -406 ct 1455 -406 1475 -401 1494 -392 ct 1513 -382 1527 -369 1537 -353 ct 
1546 -336 1551 -319 1551 -301 ct 1551 -283 1547 -267 1537 -253 ct 1528 -238 1514 -227 1496 -219 ct 
1519 -213 1538 -202 1551 -184 ct 1564 -167 1571 -145 1571 -119 ct 1571 -84 1558 -54 1533 -30 ct 
1507 -5 1474 7 1435 7 ct 1400 7 1370 -4 1347 -25 ct 1323 -46 1310 -73 1307 -107 ct 
p ef
1619 -199 m  1619 -247 1624 -285 1634 -314 ct 1644 -343 1659 -366 1678 -381 ct 
1697 -397 1722 -405 1751 -405 ct 1773 -405 1792 -401 1808 -392 ct 1824 -383 1838 -371 1849 -354 ct 
1859 -338 1868 -318 1874 -294 ct 1880 -271 1883 -239 1883 -199 ct 1883 -152 1878 -113 1868 -84 ct 
1858 -55 1844 -33 1824 -17 ct 1805 -1 1781 7 1751 7 ct 1712 7 1682 -7 1659 -35 ct 
1633 -68 1619 -123 1619 -199 ct p
1670 -199 m  1670 -133 1678 -89 1694 -67 ct 1709 -45 1728 -34 1751 -34 ct 1774 -34 1793 -45 1808 -67 ct 
1824 -89 1832 -133 1832 -199 ct 1832 -265 1824 -309 1808 -331 ct 1793 -353 1774 -364 1751 -364 ct 
1728 -364 1710 -354 1696 -335 ct 1679 -311 1670 -265 1670 -199 ct p ef
pom
gr
gr
gs
gs
pum
6062 16622 t
0.101 c 284 -48 m  284 0 l  17 0 l  17 -12 19 -23 23 -34 ct 30 -53 41 -70 55 -88 ct 
70 -106 92 -126 120 -149 ct 164 -185 194 -214 209 -235 ct 225 -256 232 -275 232 -294 ct 
232 -314 225 -330 211 -344 ct 197 -357 179 -364 156 -364 ct 133 -364 113 -357 99 -343 ct 
85 -328 78 -308 77 -283 ct 26 -288 l  30 -326 43 -355 66 -375 ct 89 -395 119 -405 158 -405 ct 
196 -405 227 -394 250 -373 ct 272 -351 283 -325 283 -293 ct 283 -277 280 -261 273 -245 ct 
267 -230 256 -213 241 -196 ct 225 -179 200 -155 164 -125 ct 134 -100 115 -83 107 -74 ct 
98 -66 91 -57 86 -48 ct 284 -48 l  p ef
364 0 m  364 -56 l  421 -56 l  421 0 l  364 0 l  p ef
501 -93 m  548 -98 l  553 -75 560 -59 572 -49 ct 583 -39 598 -34 615 -34 ct 
631 -34 644 -37 655 -44 ct 667 -51 676 -61 684 -72 ct 691 -84 697 -100 702 -120 ct 
707 -139 710 -160 710 -180 ct 710 -182 710 -186 709 -190 ct 699 -174 686 -162 669 -152 ct 
652 -142 633 -137 613 -137 ct 580 -137 551 -149 528 -173 ct 505 -197 493 -229 493 -269 ct 
493 -310 505 -343 530 -368 ct 554 -393 584 -405 620 -405 ct 647 -405 671 -398 692 -384 ct 
714 -370 731 -350 742 -323 ct 753 -297 759 -259 759 -210 ct 759 -158 753 -117 742 -87 ct 
731 -56 714 -33 692 -17 ct 670 -1 644 7 614 7 ct 583 7 557 -2 537 -19 ct 517 -37 505 -62 501 -93 ct 
p
704 -271 m  704 -300 696 -322 681 -339 ct 666 -356 648 -364 626 -364 ct 604 -364 585 -355 569 -337 ct 
553 -319 544 -296 544 -267 ct 544 -242 552 -221 568 -205 ct 583 -189 602 -181 625 -181 ct 
648 -181 667 -189 682 -205 ct 696 -221 704 -243 704 -271 ct p ef
883 -219 m  862 -227 847 -237 837 -251 ct 827 -265 822 -282 822 -301 ct 822 -330 833 -355 854 -375 ct 
875 -395 903 -405 938 -405 ct 973 -405 1002 -395 1023 -374 ct 1045 -354 1055 -329 1055 -300 ct 
1055 -281 1050 -265 1041 -251 ct 1031 -237 1016 -227 996 -219 ct 1021 -211 1040 -198 1052 -180 ct 
1065 -162 1072 -140 1072 -115 ct 1072 -81 1060 -52 1035 -28 ct 1011 -5 979 7 939 7 ct 
899 7 867 -5 842 -28 ct 818 -52 806 -81 806 -117 ct 806 -143 813 -165 826 -183 ct 
839 -200 858 -213 883 -219 ct p
873 -303 m  873 -284 879 -268 891 -256 ct 904 -244 920 -238 939 -238 ct 958 -238 974 -244 986 -256 ct 
998 -268 1004 -283 1004 -300 ct 1004 -318 998 -333 986 -346 ct 973 -358 957 -364 939 -364 ct 
920 -364 904 -358 892 -346 ct 879 -334 873 -320 873 -303 ct p
857 -116 m  857 -102 860 -89 867 -75 ct 874 -62 884 -52 897 -45 ct 910 -37 924 -34 939 -34 ct 
963 -34 983 -41 998 -57 ct 1014 -72 1021 -91 1021 -115 ct 1021 -139 1013 -158 997 -174 ct 
982 -190 962 -198 938 -198 ct 914 -198 895 -190 880 -174 ct 864 -159 857 -140 857 -116 ct 
p ef
1119 -199 m  1119 -247 1124 -285 1134 -314 ct 1144 -343 1159 -366 1178 -381 ct 
1197 -397 1222 -405 1251 -405 ct 1273 -405 1292 -401 1308 -392 ct 1324 -383 1338 -371 1349 -354 ct 
1359 -338 1368 -318 1374 -294 ct 1380 -271 1383 -239 1383 -199 ct 1383 -152 1378 -113 1368 -84 ct 
1358 -55 1344 -33 1324 -17 ct 1305 -1 1281 7 1251 7 ct 1212 7 1182 -7 1159 -35 ct 
1133 -68 1119 -123 1119 -199 ct p
1170 -199 m  1170 -133 1178 -89 1194 -67 ct 1209 -45 1228 -34 1251 -34 ct 1274 -34 1293 -45 1308 -67 ct 
1324 -89 1332 -133 1332 -199 ct 1332 -265 1324 -309 1308 -331 ct 1293 -353 1274 -364 1251 -364 ct 
1228 -364 1210 -354 1196 -335 ct 1179 -311 1170 -265 1170 -199 ct p ef
1434 -107 m  1483 -113 l  1489 -85 1499 -65 1512 -53 ct 1526 -40 1543 -34 1562 -34 ct 
1586 -34 1605 -42 1621 -58 ct 1637 -74 1645 -94 1645 -118 ct 1645 -141 1638 -160 1623 -174 ct 
1608 -189 1589 -197 1566 -197 ct 1557 -197 1545 -195 1531 -191 ct 1537 -235 l 
1540 -234 1543 -234 1545 -234 ct 1566 -234 1585 -240 1602 -251 ct 1619 -262 1627 -279 1627 -302 ct 
1627 -320 1621 -335 1609 -347 ct 1597 -359 1581 -365 1561 -365 ct 1542 -365 1526 -359 1513 -347 ct 
1500 -335 1492 -316 1488 -292 ct 1439 -301 l  1445 -334 1458 -360 1480 -378 ct 
1501 -397 1528 -406 1560 -406 ct 1582 -406 1602 -401 1621 -392 ct 1640 -382 1654 -369 1664 -353 ct 
1673 -336 1678 -319 1678 -301 ct 1678 -283 1674 -267 1664 -253 ct 1655 -238 1641 -227 1623 -219 ct 
1646 -213 1665 -202 1678 -184 ct 1691 -167 1698 -145 1698 -119 ct 1698 -84 1685 -54 1660 -30 ct 
1634 -5 1601 7 1562 7 ct 1527 7 1497 -4 1474 -25 ct 1450 -46 1437 -73 1434 -107 ct 
p ef
pom
gr
gr
gs
gs
pum
5958 21624 t
0.101 c 18 -121 m  18 -171 l  170 -171 l  170 -121 l  18 -121 l  p ef
396 0 m  347 0 l  347 -316 l  335 -304 319 -293 300 -282 ct 280 -270 263 -262 247 -256 ct 
247 -304 l  275 -317 299 -333 320 -351 ct 341 -370 356 -388 364 -405 ct 396 -405 l 
396 0 l  p ef
551 0 m  551 -56 l  608 -56 l  608 0 l  551 0 l  p ef
680 -107 m  729 -113 l  735 -85 745 -65 758 -53 ct 772 -40 789 -34 808 -34 ct 
832 -34 851 -42 867 -58 ct 883 -74 891 -94 891 -118 ct 891 -141 884 -160 869 -174 ct 
854 -189 835 -197 812 -197 ct 803 -197 791 -195 777 -191 ct 783 -235 l  786 -234 789 -234 791 -234 ct 
812 -234 831 -240 848 -251 ct 865 -262 873 -279 873 -302 ct 873 -320 867 -335 855 -347 ct 
843 -359 827 -365 807 -365 ct 788 -365 772 -359 759 -347 ct 746 -335 738 -316 734 -292 ct 
685 -301 l  691 -334 704 -360 726 -378 ct 747 -397 774 -406 806 -406 ct 828 -406 848 -401 867 -392 ct 
886 -382 900 -369 910 -353 ct 919 -336 924 -319 924 -301 ct 924 -283 920 -267 910 -253 ct 
901 -238 887 -227 869 -219 ct 892 -213 911 -202 924 -184 ct 937 -167 944 -145 944 -119 ct 
944 -84 931 -54 906 -30 ct 880 -5 847 7 808 7 ct 773 7 743 -4 720 -25 ct 696 -46 683 -73 680 -107 ct 
p ef
993 -107 m  1042 -113 l  1048 -85 1058 -65 1071 -53 ct 1085 -40 1102 -34 1121 -34 ct 
1145 -34 1164 -42 1180 -58 ct 1196 -74 1204 -94 1204 -118 ct 1204 -141 1197 -160 1182 -174 ct 
1167 -189 1148 -197 1125 -197 ct 1116 -197 1104 -195 1090 -191 ct 1096 -235 l 
1099 -234 1102 -234 1104 -234 ct 1125 -234 1144 -240 1161 -251 ct 1178 -262 1186 -279 1186 -302 ct 
1186 -320 1180 -335 1168 -347 ct 1156 -359 1140 -365 1120 -365 ct 1101 -365 1085 -359 1072 -347 ct 
1059 -335 1051 -316 1047 -292 ct 998 -301 l  1004 -334 1017 -360 1039 -378 ct 
1060 -397 1087 -406 1119 -406 ct 1141 -406 1161 -401 1180 -392 ct 1199 -382 1213 -369 1223 -353 ct 
1232 -336 1237 -319 1237 -301 ct 1237 -283 1233 -267 1223 -253 ct 1214 -238 1200 -227 1182 -219 ct 
1205 -213 1224 -202 1237 -184 ct 1250 -167 1257 -145 1257 -119 ct 1257 -84 1244 -54 1219 -30 ct 
1193 -5 1160 7 1121 7 ct 1086 7 1056 -4 1033 -25 ct 1009 -46 996 -73 993 -107 ct 
p ef
1314 -93 m  1361 -98 l  1366 -75 1373 -59 1385 -49 ct 1396 -39 1411 -34 1428 -34 ct 
1444 -34 1457 -37 1468 -44 ct 1480 -51 1489 -61 1497 -72 ct 1504 -84 1510 -100 1515 -120 ct 
1520 -139 1523 -160 1523 -180 ct 1523 -182 1523 -186 1522 -190 ct 1512 -174 1499 -162 1482 -152 ct 
1465 -142 1446 -137 1426 -137 ct 1393 -137 1364 -149 1341 -173 ct 1318 -197 1306 -229 1306 -269 ct 
1306 -310 1318 -343 1343 -368 ct 1367 -393 1397 -405 1433 -405 ct 1460 -405 1484 -398 1505 -384 ct 
1527 -370 1544 -350 1555 -323 ct 1566 -297 1572 -259 1572 -210 ct 1572 -158 1566 -117 1555 -87 ct 
1544 -56 1527 -33 1505 -17 ct 1483 -1 1457 7 1427 7 ct 1396 7 1370 -2 1350 -19 ct 
1330 -37 1318 -62 1314 -93 ct p
1517 -271 m  1517 -300 1509 -322 1494 -339 ct 1479 -356 1461 -364 1439 -364 ct 
1417 -364 1398 -355 1382 -337 ct 1366 -319 1357 -296 1357 -267 ct 1357 -242 1365 -221 1381 -205 ct 
1396 -189 1415 -181 1438 -181 ct 1461 -181 1480 -189 1495 -205 ct 1509 -221 1517 -243 1517 -271 ct 
p ef
1623 -351 m  1623 -399 l  1884 -399 l  1884 -360 l  1858 -333 1833 -296 1808 -251 ct 
1782 -206 1763 -159 1749 -111 ct 1739 -78 1733 -41 1730 -1 ct 1679 -1 l  1680 -32 1686 -71 1698 -116 ct 
1710 -160 1727 -204 1749 -246 ct 1772 -287 1795 -322 1820 -351 ct 1623 -351 l 
p ef
pom
gr
gr
gs
gs
pum
6113 26626 t
0.101 c 23 -199 m  23 -247 28 -285 38 -314 ct 48 -343 63 -366 82 -381 ct 101 -397 126 -405 155 -405 ct 
177 -405 196 -401 212 -392 ct 228 -383 242 -371 253 -354 ct 263 -338 272 -318 278 -294 ct 
284 -271 287 -239 287 -199 ct 287 -152 282 -113 272 -84 ct 262 -55 248 -33 228 -17 ct 
209 -1 185 7 155 7 ct 116 7 86 -7 63 -35 ct 37 -68 23 -123 23 -199 ct p
74 -199 m  74 -133 82 -89 98 -67 ct 113 -45 132 -34 155 -34 ct 178 -34 197 -45 212 -67 ct 
228 -89 236 -133 236 -199 ct 236 -265 228 -309 212 -331 ct 197 -353 178 -364 155 -364 ct 
132 -364 114 -354 100 -335 ct 83 -311 74 -265 74 -199 ct p ef
364 0 m  364 -56 l  421 -56 l  421 0 l  364 0 l  p ef
754 -48 m  754 0 l  487 0 l  487 -12 489 -23 493 -34 ct 500 -53 511 -70 525 -88 ct 
540 -106 562 -126 590 -149 ct 634 -185 664 -214 679 -235 ct 695 -256 702 -275 702 -294 ct 
702 -314 695 -330 681 -344 ct 667 -357 649 -364 626 -364 ct 603 -364 583 -357 569 -343 ct 
555 -328 548 -308 547 -283 ct 496 -288 l  500 -326 513 -355 536 -375 ct 559 -395 589 -405 628 -405 ct 
666 -405 697 -394 720 -373 ct 742 -351 753 -325 753 -293 ct 753 -277 750 -261 743 -245 ct 
737 -230 726 -213 711 -196 ct 695 -179 670 -155 634 -125 ct 604 -100 585 -83 577 -74 ct 
568 -66 561 -57 556 -48 ct 754 -48 l  p ef
810 -351 m  810 -399 l  1071 -399 l  1071 -360 l  1045 -333 1020 -296 995 -251 ct 
969 -206 950 -159 936 -111 ct 926 -78 920 -41 917 -1 ct 866 -1 l  867 -32 873 -71 885 -116 ct 
897 -160 914 -204 936 -246 ct 959 -287 982 -322 1007 -351 ct 810 -351 l  p ef
1119 -199 m  1119 -247 1124 -285 1134 -314 ct 1144 -343 1159 -366 1178 -381 ct 
1197 -397 1222 -405 1251 -405 ct 1273 -405 1292 -401 1308 -392 ct 1324 -383 1338 -371 1349 -354 ct 
1359 -338 1368 -318 1374 -294 ct 1380 -271 1383 -239 1383 -199 ct 1383 -152 1378 -113 1368 -84 ct 
1358 -55 1344 -33 1324 -17 ct 1305 -1 1281 7 1251 7 ct 1212 7 1182 -7 1159 -35 ct 
1133 -68 1119 -123 1119 -199 ct p
1170 -199 m  1170 -133 1178 -89 1194 -67 ct 1209 -45 1228 -34 1251 -34 ct 1274 -34 1293 -45 1308 -67 ct 
1324 -89 1332 -133 1332 -199 ct 1332 -265 1324 -309 1308 -331 ct 1293 -353 1274 -364 1251 -364 ct 
1228 -364 1210 -354 1196 -335 ct 1179 -311 1170 -265 1170 -199 ct p ef
1694 -48 m  1694 0 l  1427 0 l  1427 -12 1429 -23 1433 -34 ct 1440 -53 1451 -70 1465 -88 ct 
1480 -106 1502 -126 1530 -149 ct 1574 -185 1604 -214 1619 -235 ct 1635 -256 1642 -275 1642 -294 ct 
1642 -314 1635 -330 1621 -344 ct 1607 -357 1589 -364 1566 -364 ct 1543 -364 1523 -357 1509 -343 ct 
1495 -328 1488 -308 1487 -283 ct 1436 -288 l  1440 -326 1453 -355 1476 -375 ct 
1499 -395 1529 -405 1568 -405 ct 1606 -405 1637 -394 1660 -373 ct 1682 -351 1693 -325 1693 -293 ct 
1693 -277 1690 -261 1683 -245 ct 1677 -230 1666 -213 1651 -196 ct 1635 -179 1610 -155 1574 -125 ct 
1544 -100 1525 -83 1517 -74 ct 1508 -66 1501 -57 1496 -48 ct 1694 -48 l  p ef
pom
gr
gr
gs
gs
pum
12749 1460 t
0.101 c 23 -199 m  23 -247 28 -285 38 -314 ct 48 -343 63 -366 82 -381 ct 101 -397 126 -405 155 -405 ct 
177 -405 196 -401 212 -392 ct 228 -383 242 -371 253 -354 ct 263 -338 272 -318 278 -294 ct 
284 -271 287 -239 287 -199 ct 287 -152 282 -113 272 -84 ct 262 -55 248 -33 228 -17 ct 
209 -1 185 7 155 7 ct 116 7 86 -7 63 -35 ct 37 -68 23 -123 23 -199 ct p
74 -199 m  74 -133 82 -89 98 -67 ct 113 -45 132 -34 155 -34 ct 178 -34 197 -45 212 -67 ct 
228 -89 236 -133 236 -199 ct 236 -265 228 -309 212 -331 ct 197 -353 178 -364 155 -364 ct 
132 -364 114 -354 100 -335 ct 83 -311 74 -265 74 -199 ct p ef
364 0 m  364 -56 l  421 -56 l  421 0 l  364 0 l  p ef
493 -199 m  493 -247 498 -285 508 -314 ct 518 -343 533 -366 552 -381 ct 571 -397 596 -405 625 -405 ct 
647 -405 666 -401 682 -392 ct 698 -383 712 -371 723 -354 ct 733 -338 742 -318 748 -294 ct 
754 -271 757 -239 757 -199 ct 757 -152 752 -113 742 -84 ct 732 -55 718 -33 698 -17 ct 
679 -1 655 7 625 7 ct 586 7 556 -7 533 -35 ct 507 -68 493 -123 493 -199 ct p
544 -199 m  544 -133 552 -89 568 -67 ct 583 -45 602 -34 625 -34 ct 648 -34 667 -45 682 -67 ct 
698 -89 706 -133 706 -199 ct 706 -265 698 -309 682 -331 ct 667 -353 648 -364 625 -364 ct 
602 -364 584 -354 570 -335 ct 553 -311 544 -265 544 -199 ct p ef
1067 -48 m  1067 0 l  800 0 l  800 -12 802 -23 806 -34 ct 813 -53 824 -70 838 -88 ct 
853 -106 875 -126 903 -149 ct 947 -185 977 -214 992 -235 ct 1008 -256 1015 -275 1015 -294 ct 
1015 -314 1008 -330 994 -344 ct 980 -357 962 -364 939 -364 ct 916 -364 896 -357 882 -343 ct 
868 -328 861 -308 860 -283 ct 809 -288 l  813 -326 826 -355 849 -375 ct 872 -395 902 -405 941 -405 ct 
979 -405 1010 -394 1033 -373 ct 1055 -351 1066 -325 1066 -293 ct 1066 -277 1063 -261 1056 -245 ct 
1050 -230 1039 -213 1024 -196 ct 1008 -179 983 -155 947 -125 ct 917 -100 898 -83 890 -74 ct 
881 -66 874 -57 869 -48 ct 1067 -48 l  p ef
1120 -107 m  1169 -113 l  1175 -85 1185 -65 1198 -53 ct 1212 -40 1229 -34 1248 -34 ct 
1272 -34 1291 -42 1307 -58 ct 1323 -74 1331 -94 1331 -118 ct 1331 -141 1324 -160 1309 -174 ct 
1294 -189 1275 -197 1252 -197 ct 1243 -197 1231 -195 1217 -191 ct 1223 -235 l 
1226 -234 1229 -234 1231 -234 ct 1252 -234 1271 -240 1288 -251 ct 1305 -262 1313 -279 1313 -302 ct 
1313 -320 1307 -335 1295 -347 ct 1283 -359 1267 -365 1247 -365 ct 1228 -365 1212 -359 1199 -347 ct 
1186 -335 1178 -316 1174 -292 ct 1125 -301 l  1131 -334 1144 -360 1166 -378 ct 
1187 -397 1214 -406 1246 -406 ct 1268 -406 1288 -401 1307 -392 ct 1326 -382 1340 -369 1350 -353 ct 
1359 -336 1364 -319 1364 -301 ct 1364 -283 1360 -267 1350 -253 ct 1341 -238 1327 -227 1309 -219 ct 
1332 -213 1351 -202 1364 -184 ct 1377 -167 1384 -145 1384 -119 ct 1384 -84 1371 -54 1346 -30 ct 
1320 -5 1287 7 1248 7 ct 1213 7 1183 -4 1160 -25 ct 1136 -46 1123 -73 1120 -107 ct 
p ef
1441 -93 m  1488 -98 l  1493 -75 1500 -59 1512 -49 ct 1523 -39 1538 -34 1555 -34 ct 
1571 -34 1584 -37 1595 -44 ct 1607 -51 1616 -61 1624 -72 ct 1631 -84 1637 -100 1642 -120 ct 
1647 -139 1650 -160 1650 -180 ct 1650 -182 1650 -186 1649 -190 ct 1639 -174 1626 -162 1609 -152 ct 
1592 -142 1573 -137 1553 -137 ct 1520 -137 1491 -149 1468 -173 ct 1445 -197 1433 -229 1433 -269 ct 
1433 -310 1445 -343 1470 -368 ct 1494 -393 1524 -405 1560 -405 ct 1587 -405 1611 -398 1632 -384 ct 
1654 -370 1671 -350 1682 -323 ct 1693 -297 1699 -259 1699 -210 ct 1699 -158 1693 -117 1682 -87 ct 
1671 -56 1654 -33 1632 -17 ct 1610 -1 1584 7 1554 7 ct 1523 7 1497 -2 1477 -19 ct 
1457 -37 1445 -62 1441 -93 ct p
1644 -271 m  1644 -300 1636 -322 1621 -339 ct 1606 -356 1588 -364 1566 -364 ct 
1544 -364 1525 -355 1509 -337 ct 1493 -319 1484 -296 1484 -267 ct 1484 -242 1492 -221 1508 -205 ct 
1523 -189 1542 -181 1565 -181 ct 1588 -181 1607 -189 1622 -205 ct 1636 -221 1644 -243 1644 -271 ct 
p ef
pom
gr
gr
gs
gs
pum
12723 6643 t
0.101 c 23 -199 m  23 -247 28 -285 38 -314 ct 48 -343 63 -366 82 -381 ct 101 -397 126 -405 155 -405 ct 
177 -405 196 -401 212 -392 ct 228 -383 242 -371 253 -354 ct 263 -338 272 -318 278 -294 ct 
284 -271 287 -239 287 -199 ct 287 -152 282 -113 272 -84 ct 262 -55 248 -33 228 -17 ct 
209 -1 185 7 155 7 ct 116 7 86 -7 63 -35 ct 37 -68 23 -123 23 -199 ct p
74 -199 m  74 -133 82 -89 98 -67 ct 113 -45 132 -34 155 -34 ct 178 -34 197 -45 212 -67 ct 
228 -89 236 -133 236 -199 ct 236 -265 228 -309 212 -331 ct 197 -353 178 -364 155 -364 ct 
132 -364 114 -354 100 -335 ct 83 -311 74 -265 74 -199 ct p ef
364 0 m  364 -56 l  421 -56 l  421 0 l  364 0 l  p ef
493 -199 m  493 -247 498 -285 508 -314 ct 518 -343 533 -366 552 -381 ct 571 -397 596 -405 625 -405 ct 
647 -405 666 -401 682 -392 ct 698 -383 712 -371 723 -354 ct 733 -338 742 -318 748 -294 ct 
754 -271 757 -239 757 -199 ct 757 -152 752 -113 742 -84 ct 732 -55 718 -33 698 -17 ct 
679 -1 655 7 625 7 ct 586 7 556 -7 533 -35 ct 507 -68 493 -123 493 -199 ct p
544 -199 m  544 -133 552 -89 568 -67 ct 583 -45 602 -34 625 -34 ct 648 -34 667 -45 682 -67 ct 
698 -89 706 -133 706 -199 ct 706 -265 698 -309 682 -331 ct 667 -353 648 -364 625 -364 ct 
602 -364 584 -354 570 -335 ct 553 -311 544 -265 544 -199 ct p ef
993 0 m  944 0 l  944 -316 l  932 -304 916 -293 897 -282 ct 877 -270 860 -262 844 -256 ct 
844 -304 l  872 -317 896 -333 917 -351 ct 938 -370 953 -388 961 -405 ct 993 -405 l 
993 0 l  p ef
1377 -305 m  1327 -301 l  1323 -320 1317 -334 1309 -343 ct 1295 -357 1279 -364 1259 -364 ct 
1243 -364 1229 -360 1217 -351 ct 1202 -340 1190 -323 1181 -301 ct 1172 -279 1167 -248 1167 -208 ct 
1178 -226 1193 -240 1210 -249 ct 1228 -257 1246 -262 1265 -262 ct 1298 -262 1326 -250 1349 -225 ct 
1372 -201 1384 -170 1384 -131 ct 1384 -106 1378 -82 1367 -60 ct 1356 -39 1341 -22 1322 -10 ct 
1303 1 1282 7 1257 7 ct 1216 7 1182 -8 1156 -39 ct 1130 -69 1117 -119 1117 -189 ct 
1117 -267 1132 -323 1160 -359 ct 1186 -390 1219 -405 1262 -405 ct 1294 -405 1320 -396 1340 -378 ct 
1360 -361 1373 -336 1377 -305 ct p
1174 -131 m  1174 -114 1178 -97 1185 -82 ct 1192 -66 1202 -54 1216 -46 ct 1229 -38 1242 -34 1257 -34 ct 
1277 -34 1295 -42 1311 -59 ct 1326 -76 1333 -99 1333 -128 ct 1333 -156 1326 -178 1311 -194 ct 
1296 -210 1277 -218 1255 -218 ct 1232 -218 1213 -210 1198 -194 ct 1182 -178 1174 -157 1174 -131 ct 
p ef
1441 -93 m  1488 -98 l  1493 -75 1500 -59 1512 -49 ct 1523 -39 1538 -34 1555 -34 ct 
1571 -34 1584 -37 1595 -44 ct 1607 -51 1616 -61 1624 -72 ct 1631 -84 1637 -100 1642 -120 ct 
1647 -139 1650 -160 1650 -180 ct 1650 -182 1650 -186 1649 -190 ct 1639 -174 1626 -162 1609 -152 ct 
1592 -142 1573 -137 1553 -137 ct 1520 -137 1491 -149 1468 -173 ct 1445 -197 1433 -229 1433 -269 ct 
1433 -310 1445 -343 1470 -368 ct 1494 -393 1524 -405 1560 -405 ct 1587 -405 1611 -398 1632 -384 ct 
1654 -370 1671 -350 1682 -323 ct 1693 -297 1699 -259 1699 -210 ct 1699 -158 1693 -117 1682 -87 ct 
1671 -56 1654 -33 1632 -17 ct 1610 -1 1584 7 1554 7 ct 1523 7 1497 -2 1477 -19 ct 
1457 -37 1445 -62 1441 -93 ct p
1644 -271 m  1644 -300 1636 -322 1621 -339 ct 1606 -356 1588 -364 1566 -364 ct 
1544 -364 1525 -355 1509 -337 ct 1493 -319 1484 -296 1484 -267 ct 1484 -242 1492 -221 1508 -205 ct 
1523 -189 1542 -181 1565 -181 ct 1588 -181 1607 -189 1622 -205 ct 1636 -221 1644 -243 1644 -271 ct 
p ef
pom
gr
gr
gs
gs
pum
12723 11646 t
0.101 c 23 -199 m  23 -247 28 -285 38 -314 ct 48 -343 63 -366 82 -381 ct 101 -397 126 -405 155 -405 ct 
177 -405 196 -401 212 -392 ct 228 -383 242 -371 253 -354 ct 263 -338 272 -318 278 -294 ct 
284 -271 287 -239 287 -199 ct 287 -152 282 -113 272 -84 ct 262 -55 248 -33 228 -17 ct 
209 -1 185 7 155 7 ct 116 7 86 -7 63 -35 ct 37 -68 23 -123 23 -199 ct p
74 -199 m  74 -133 82 -89 98 -67 ct 113 -45 132 -34 155 -34 ct 178 -34 197 -45 212 -67 ct 
228 -89 236 -133 236 -199 ct 236 -265 228 -309 212 -331 ct 197 -353 178 -364 155 -364 ct 
132 -364 114 -354 100 -335 ct 83 -311 74 -265 74 -199 ct p ef
364 0 m  364 -56 l  421 -56 l  421 0 l  364 0 l  p ef
493 -199 m  493 -247 498 -285 508 -314 ct 518 -343 533 -366 552 -381 ct 571 -397 596 -405 625 -405 ct 
647 -405 666 -401 682 -392 ct 698 -383 712 -371 723 -354 ct 733 -338 742 -318 748 -294 ct 
754 -271 757 -239 757 -199 ct 757 -152 752 -113 742 -84 ct 732 -55 718 -33 698 -17 ct 
679 -1 655 7 625 7 ct 586 7 556 -7 533 -35 ct 507 -68 493 -123 493 -199 ct p
544 -199 m  544 -133 552 -89 568 -67 ct 583 -45 602 -34 625 -34 ct 648 -34 667 -45 682 -67 ct 
698 -89 706 -133 706 -199 ct 706 -265 698 -309 682 -331 ct 667 -353 648 -364 625 -364 ct 
602 -364 584 -354 570 -335 ct 553 -311 544 -265 544 -199 ct p ef
807 -107 m  856 -113 l  862 -85 872 -65 885 -53 ct 899 -40 916 -34 935 -34 ct 
959 -34 978 -42 994 -58 ct 1010 -74 1018 -94 1018 -118 ct 1018 -141 1011 -160 996 -174 ct 
981 -189 962 -197 939 -197 ct 930 -197 918 -195 904 -191 ct 910 -235 l  913 -234 916 -234 918 -234 ct 
939 -234 958 -240 975 -251 ct 992 -262 1000 -279 1000 -302 ct 1000 -320 994 -335 982 -347 ct 
970 -359 954 -365 934 -365 ct 915 -365 899 -359 886 -347 ct 873 -335 865 -316 861 -292 ct 
812 -301 l  818 -334 831 -360 853 -378 ct 874 -397 901 -406 933 -406 ct 955 -406 975 -401 994 -392 ct 
1013 -382 1027 -369 1037 -353 ct 1046 -336 1051 -319 1051 -301 ct 1051 -283 1047 -267 1037 -253 ct 
1028 -238 1014 -227 996 -219 ct 1019 -213 1038 -202 1051 -184 ct 1064 -167 1071 -145 1071 -119 ct 
1071 -84 1058 -54 1033 -30 ct 1007 -5 974 7 935 7 ct 900 7 870 -4 847 -25 ct 823 -46 810 -73 807 -107 ct 
p ef
1123 -351 m  1123 -399 l  1384 -399 l  1384 -360 l  1358 -333 1333 -296 1308 -251 ct 
1282 -206 1263 -159 1249 -111 ct 1239 -78 1233 -41 1230 -1 ct 1179 -1 l  1180 -32 1186 -71 1198 -116 ct 
1210 -160 1227 -204 1249 -246 ct 1272 -287 1295 -322 1320 -351 ct 1123 -351 l 
p ef
1437 -351 m  1437 -399 l  1698 -399 l  1698 -360 l  1672 -333 1647 -296 1622 -251 ct 
1596 -206 1577 -159 1563 -111 ct 1553 -78 1547 -41 1544 -1 ct 1493 -1 l  1494 -32 1500 -71 1512 -116 ct 
1524 -160 1541 -204 1563 -246 ct 1586 -287 1609 -322 1634 -351 ct 1437 -351 l 
p ef
pom
gr
gr
gs
gs
pum
12723 16622 t
0.101 c 23 -199 m  23 -247 28 -285 38 -314 ct 48 -343 63 -366 82 -381 ct 101 -397 126 -405 155 -405 ct 
177 -405 196 -401 212 -392 ct 228 -383 242 -371 253 -354 ct 263 -338 272 -318 278 -294 ct 
284 -271 287 -239 287 -199 ct 287 -152 282 -113 272 -84 ct 262 -55 248 -33 228 -17 ct 
209 -1 185 7 155 7 ct 116 7 86 -7 63 -35 ct 37 -68 23 -123 23 -199 ct p
74 -199 m  74 -133 82 -89 98 -67 ct 113 -45 132 -34 155 -34 ct 178 -34 197 -45 212 -67 ct 
228 -89 236 -133 236 -199 ct 236 -265 228 -309 212 -331 ct 197 -353 178 -364 155 -364 ct 
132 -364 114 -354 100 -335 ct 83 -311 74 -265 74 -199 ct p ef
364 0 m  364 -56 l  421 -56 l  421 0 l  364 0 l  p ef
493 -199 m  493 -247 498 -285 508 -314 ct 518 -343 533 -366 552 -381 ct 571 -397 596 -405 625 -405 ct 
647 -405 666 -401 682 -392 ct 698 -383 712 -371 723 -354 ct 733 -338 742 -318 748 -294 ct 
754 -271 757 -239 757 -199 ct 757 -152 752 -113 742 -84 ct 732 -55 718 -33 698 -17 ct 
679 -1 655 7 625 7 ct 586 7 556 -7 533 -35 ct 507 -68 493 -123 493 -199 ct p
544 -199 m  544 -133 552 -89 568 -67 ct 583 -45 602 -34 625 -34 ct 648 -34 667 -45 682 -67 ct 
698 -89 706 -133 706 -199 ct 706 -265 698 -309 682 -331 ct 667 -353 648 -364 625 -364 ct 
602 -364 584 -354 570 -335 ct 553 -311 544 -265 544 -199 ct p ef
807 -107 m  856 -113 l  862 -85 872 -65 885 -53 ct 899 -40 916 -34 935 -34 ct 
959 -34 978 -42 994 -58 ct 1010 -74 1018 -94 1018 -118 ct 1018 -141 1011 -160 996 -174 ct 
981 -189 962 -197 939 -197 ct 930 -197 918 -195 904 -191 ct 910 -235 l  913 -234 916 -234 918 -234 ct 
939 -234 958 -240 975 -251 ct 992 -262 1000 -279 1000 -302 ct 1000 -320 994 -335 982 -347 ct 
970 -359 954 -365 934 -365 ct 915 -365 899 -359 886 -347 ct 873 -335 865 -316 861 -292 ct 
812 -301 l  818 -334 831 -360 853 -378 ct 874 -397 901 -406 933 -406 ct 955 -406 975 -401 994 -392 ct 
1013 -382 1027 -369 1037 -353 ct 1046 -336 1051 -319 1051 -301 ct 1051 -283 1047 -267 1037 -253 ct 
1028 -238 1014 -227 996 -219 ct 1019 -213 1038 -202 1051 -184 ct 1064 -167 1071 -145 1071 -119 ct 
1071 -84 1058 -54 1033 -30 ct 1007 -5 974 7 935 7 ct 900 7 870 -4 847 -25 ct 823 -46 810 -73 807 -107 ct 
p ef
1123 -351 m  1123 -399 l  1384 -399 l  1384 -360 l  1358 -333 1333 -296 1308 -251 ct 
1282 -206 1263 -159 1249 -111 ct 1239 -78 1233 -41 1230 -1 ct 1179 -1 l  1180 -32 1186 -71 1198 -116 ct 
1210 -160 1227 -204 1249 -246 ct 1272 -287 1295 -322 1320 -351 ct 1123 -351 l 
p ef
1437 -351 m  1437 -399 l  1698 -399 l  1698 -360 l  1672 -333 1647 -296 1622 -251 ct 
1596 -206 1577 -159 1563 -111 ct 1553 -78 1547 -41 1544 -1 ct 1493 -1 l  1494 -32 1500 -71 1512 -116 ct 
1524 -160 1541 -204 1563 -246 ct 1586 -287 1609 -322 1634 -351 ct 1437 -351 l 
p ef
pom
gr
gr
gs
gs
pum
12723 21624 t
0.101 c 23 -199 m  23 -247 28 -285 38 -314 ct 48 -343 63 -366 82 -381 ct 101 -397 126 -405 155 -405 ct 
177 -405 196 -401 212 -392 ct 228 -383 242 -371 253 -354 ct 263 -338 272 -318 278 -294 ct 
284 -271 287 -239 287 -199 ct 287 -152 282 -113 272 -84 ct 262 -55 248 -33 228 -17 ct 
209 -1 185 7 155 7 ct 116 7 86 -7 63 -35 ct 37 -68 23 -123 23 -199 ct p
74 -199 m  74 -133 82 -89 98 -67 ct 113 -45 132 -34 155 -34 ct 178 -34 197 -45 212 -67 ct 
228 -89 236 -133 236 -199 ct 236 -265 228 -309 212 -331 ct 197 -353 178 -364 155 -364 ct 
132 -364 114 -354 100 -335 ct 83 -311 74 -265 74 -199 ct p ef
364 0 m  364 -56 l  421 -56 l  421 0 l  364 0 l  p ef
493 -199 m  493 -247 498 -285 508 -314 ct 518 -343 533 -366 552 -381 ct 571 -397 596 -405 625 -405 ct 
647 -405 666 -401 682 -392 ct 698 -383 712 -371 723 -354 ct 733 -338 742 -318 748 -294 ct 
754 -271 757 -239 757 -199 ct 757 -152 752 -113 742 -84 ct 732 -55 718 -33 698 -17 ct 
679 -1 655 7 625 7 ct 586 7 556 -7 533 -35 ct 507 -68 493 -123 493 -199 ct p
544 -199 m  544 -133 552 -89 568 -67 ct 583 -45 602 -34 625 -34 ct 648 -34 667 -45 682 -67 ct 
698 -89 706 -133 706 -199 ct 706 -265 698 -309 682 -331 ct 667 -353 648 -364 625 -364 ct 
602 -364 584 -354 570 -335 ct 553 -311 544 -265 544 -199 ct p ef
993 0 m  944 0 l  944 -316 l  932 -304 916 -293 897 -282 ct 877 -270 860 -262 844 -256 ct 
844 -304 l  872 -317 896 -333 917 -351 ct 938 -370 953 -388 961 -405 ct 993 -405 l 
993 0 l  p ef
1377 -305 m  1327 -301 l  1323 -320 1317 -334 1309 -343 ct 1295 -357 1279 -364 1259 -364 ct 
1243 -364 1229 -360 1217 -351 ct 1202 -340 1190 -323 1181 -301 ct 1172 -279 1167 -248 1167 -208 ct 
1178 -226 1193 -240 1210 -249 ct 1228 -257 1246 -262 1265 -262 ct 1298 -262 1326 -250 1349 -225 ct 
1372 -201 1384 -170 1384 -131 ct 1384 -106 1378 -82 1367 -60 ct 1356 -39 1341 -22 1322 -10 ct 
1303 1 1282 7 1257 7 ct 1216 7 1182 -8 1156 -39 ct 1130 -69 1117 -119 1117 -189 ct 
1117 -267 1132 -323 1160 -359 ct 1186 -390 1219 -405 1262 -405 ct 1294 -405 1320 -396 1340 -378 ct 
1360 -361 1373 -336 1377 -305 ct p
1174 -131 m  1174 -114 1178 -97 1185 -82 ct 1192 -66 1202 -54 1216 -46 ct 1229 -38 1242 -34 1257 -34 ct 
1277 -34 1295 -42 1311 -59 ct 1326 -76 1333 -99 1333 -128 ct 1333 -156 1326 -178 1311 -194 ct 
1296 -210 1277 -218 1255 -218 ct 1232 -218 1213 -210 1198 -194 ct 1182 -178 1174 -157 1174 -131 ct 
p ef
1441 -93 m  1488 -98 l  1493 -75 1500 -59 1512 -49 ct 1523 -39 1538 -34 1555 -34 ct 
1571 -34 1584 -37 1595 -44 ct 1607 -51 1616 -61 1624 -72 ct 1631 -84 1637 -100 1642 -120 ct 
1647 -139 1650 -160 1650 -180 ct 1650 -182 1650 -186 1649 -190 ct 1639 -174 1626 -162 1609 -152 ct 
1592 -142 1573 -137 1553 -137 ct 1520 -137 1491 -149 1468 -173 ct 1445 -197 1433 -229 1433 -269 ct 
1433 -310 1445 -343 1470 -368 ct 1494 -393 1524 -405 1560 -405 ct 1587 -405 1611 -398 1632 -384 ct 
1654 -370 1671 -350 1682 -323 ct 1693 -297 1699 -259 1699 -210 ct 1699 -158 1693 -117 1682 -87 ct 
1671 -56 1654 -33 1632 -17 ct 1610 -1 1584 7 1554 7 ct 1523 7 1497 -2 1477 -19 ct 
1457 -37 1445 -62 1441 -93 ct p
1644 -271 m  1644 -300 1636 -322 1621 -339 ct 1606 -356 1588 -364 1566 -364 ct 
1544 -364 1525 -355 1509 -337 ct 1493 -319 1484 -296 1484 -267 ct 1484 -242 1492 -221 1508 -205 ct 
1523 -189 1542 -181 1565 -181 ct 1588 -181 1607 -189 1622 -205 ct 1636 -221 1644 -243 1644 -271 ct 
p ef
pom
gr
gr
gs
gs
pum
12723 26626 t
0.101 c 23 -199 m  23 -247 28 -285 38 -314 ct 48 -343 63 -366 82 -381 ct 101 -397 126 -405 155 -405 ct 
177 -405 196 -401 212 -392 ct 228 -383 242 -371 253 -354 ct 263 -338 272 -318 278 -294 ct 
284 -271 287 -239 287 -199 ct 287 -152 282 -113 272 -84 ct 262 -55 248 -33 228 -17 ct 
209 -1 185 7 155 7 ct 116 7 86 -7 63 -35 ct 37 -68 23 -123 23 -199 ct p
74 -199 m  74 -133 82 -89 98 -67 ct 113 -45 132 -34 155 -34 ct 178 -34 197 -45 212 -67 ct 
228 -89 236 -133 236 -199 ct 236 -265 228 -309 212 -331 ct 197 -353 178 -364 155 -364 ct 
132 -364 114 -354 100 -335 ct 83 -311 74 -265 74 -199 ct p ef
364 0 m  364 -56 l  421 -56 l  421 0 l  364 0 l  p ef
493 -199 m  493 -247 498 -285 508 -314 ct 518 -343 533 -366 552 -381 ct 571 -397 596 -405 625 -405 ct 
647 -405 666 -401 682 -392 ct 698 -383 712 -371 723 -354 ct 733 -338 742 -318 748 -294 ct 
754 -271 757 -239 757 -199 ct 757 -152 752 -113 742 -84 ct 732 -55 718 -33 698 -17 ct 
679 -1 655 7 625 7 ct 586 7 556 -7 533 -35 ct 507 -68 493 -123 493 -199 ct p
544 -199 m  544 -133 552 -89 568 -67 ct 583 -45 602 -34 625 -34 ct 648 -34 667 -45 682 -67 ct 
698 -89 706 -133 706 -199 ct 706 -265 698 -309 682 -331 ct 667 -353 648 -364 625 -364 ct 
602 -364 584 -354 570 -335 ct 553 -311 544 -265 544 -199 ct p ef
1067 -48 m  1067 0 l  800 0 l  800 -12 802 -23 806 -34 ct 813 -53 824 -70 838 -88 ct 
853 -106 875 -126 903 -149 ct 947 -185 977 -214 992 -235 ct 1008 -256 1015 -275 1015 -294 ct 
1015 -314 1008 -330 994 -344 ct 980 -357 962 -364 939 -364 ct 916 -364 896 -357 882 -343 ct 
868 -328 861 -308 860 -283 ct 809 -288 l  813 -326 826 -355 849 -375 ct 872 -395 902 -405 941 -405 ct 
979 -405 1010 -394 1033 -373 ct 1055 -351 1066 -325 1066 -293 ct 1066 -277 1063 -261 1056 -245 ct 
1050 -230 1039 -213 1024 -196 ct 1008 -179 983 -155 947 -125 ct 917 -100 898 -83 890 -74 ct 
881 -66 874 -57 869 -48 ct 1067 -48 l  p ef
1120 -107 m  1169 -113 l  1175 -85 1185 -65 1198 -53 ct 1212 -40 1229 -34 1248 -34 ct 
1272 -34 1291 -42 1307 -58 ct 1323 -74 1331 -94 1331 -118 ct 1331 -141 1324 -160 1309 -174 ct 
1294 -189 1275 -197 1252 -197 ct 1243 -197 1231 -195 1217 -191 ct 1223 -235 l 
1226 -234 1229 -234 1231 -234 ct 1252 -234 1271 -240 1288 -251 ct 1305 -262 1313 -279 1313 -302 ct 
1313 -320 1307 -335 1295 -347 ct 1283 -359 1267 -365 1247 -365 ct 1228 -365 1212 -359 1199 -347 ct 
1186 -335 1178 -316 1174 -292 ct 1125 -301 l  1131 -334 1144 -360 1166 -378 ct 
1187 -397 1214 -406 1246 -406 ct 1268 -406 1288 -401 1307 -392 ct 1326 -382 1340 -369 1350 -353 ct 
1359 -336 1364 -319 1364 -301 ct 1364 -283 1360 -267 1350 -253 ct 1341 -238 1327 -227 1309 -219 ct 
1332 -213 1351 -202 1364 -184 ct 1377 -167 1384 -145 1384 -119 ct 1384 -84 1371 -54 1346 -30 ct 
1320 -5 1287 7 1248 7 ct 1213 7 1183 -4 1160 -25 ct 1136 -46 1123 -73 1120 -107 ct 
p ef
1441 -93 m  1488 -98 l  1493 -75 1500 -59 1512 -49 ct 1523 -39 1538 -34 1555 -34 ct 
1571 -34 1584 -37 1595 -44 ct 1607 -51 1616 -61 1624 -72 ct 1631 -84 1637 -100 1642 -120 ct 
1647 -139 1650 -160 1650 -180 ct 1650 -182 1650 -186 1649 -190 ct 1639 -174 1626 -162 1609 -152 ct 
1592 -142 1573 -137 1553 -137 ct 1520 -137 1491 -149 1468 -173 ct 1445 -197 1433 -229 1433 -269 ct 
1433 -310 1445 -343 1470 -368 ct 1494 -393 1524 -405 1560 -405 ct 1587 -405 1611 -398 1632 -384 ct 
1654 -370 1671 -350 1682 -323 ct 1693 -297 1699 -259 1699 -210 ct 1699 -158 1693 -117 1682 -87 ct 
1671 -56 1654 -33 1632 -17 ct 1610 -1 1584 7 1554 7 ct 1523 7 1497 -2 1477 -19 ct 
1457 -37 1445 -62 1441 -93 ct p
1644 -271 m  1644 -300 1636 -322 1621 -339 ct 1606 -356 1588 -364 1566 -364 ct 
1544 -364 1525 -355 1509 -337 ct 1493 -319 1484 -296 1484 -267 ct 1484 -242 1492 -221 1508 -205 ct 
1523 -189 1542 -181 1565 -181 ct 1588 -181 1607 -189 1622 -205 ct 1636 -221 1644 -243 1644 -271 ct 
p ef
pom
gr
gr
0 27807 t 
pom
count op_count sub {pop} repeat countdictstack dict_count sub {end} repeat b4_inc_state restore
%%PageTrailer
%%Trailer
%%EOF
